LoKi functor, ThOr equivalent, Equal values?, Comments
``ALL``/``PTRUE``, ``F.ALL``, ✔️,
``ABSID``, ``F.IS_ABS_ID(<int>)``, ✔️,
``BPV``, ``F.BPV(pvs)``, ️✔️,
``BPVCORRM``, ``F.BPVCORRM(pvs)``, ️,
``BPVDIRA``, ``F.BPVDIRA(pvs)``, ️,
``BPVETA()``, ``F.BPVETA(pvs)``, , Assumes input objects is a composite (they have an associated end vertex).
``BPVVDCHI2()``, ``F.BPVFDCHI2(pvs)``, , 'VD'/'FD' for 'vertex/flight distance'.
``BPVVDZ()``, ``F.BPVVDZ(pvs)``, ,
``BPVIP()``/``BESTPVIP()``, ``F.BPVIP(pvs)``, ✔️,
``BPVIPCHI2()``/``BESTPVIPCHI2()``, ``F.BPVIPCHI2(pvs)``, ✔️,
``BPVLTIME()``, ``F.BPVLTIME(pvs)``, ️,
``CHI2VXNDOF``, ``F.CHI2DOF``, ️⚪, In principle but not numerically. See checks in https://indico.cern.ch/event/995287/contributions/4633380/attachments/2354933/4018715/WP3%20JieWu%2020211129.pdf
``CHI2IP``, ``F.IPCHI2``, ️⚪,
``CHILD``, ``F.CHILD``, ,
``CL``, ``F.IS_NOT_H``/``F.IS_PHOTON``, , For photons: LoKi CL has been an alias to LoKi IS_NOT_H since S21 and F.IS_NOT_H replicates it. For merged pi0: LoKi CL has been an alias to LoKi (1 - IS_PHOTON) and (1 - F.IS_PHOTON) replicates it
``DELTAR2``, ``F.DR2``, , Assumes inputs are charged basics
``DETA``, ``F.DETA``, ✔️, Assumes inputs are charged basics
``DIRA``, ``F.BPVDIRA(pvs)``, ✔️,
``DPHI``, ``F.DPHI``,  , Assumes inputs are charged basics
``E``, ``F.ENERGY``, ✔️,
``ETA``, ``F.ETA``, ✔️, Assumes input objects are charged basics (they have an associated track).
``ID``, ``F.IS_ID(<int>)``, ✔️,
``INGENERATION``, ``F.INGENERATION(<int>)``, ✔️, Assumes input objects are composite objects.
``INMUON``, ``F.INMUON``, ✔️,
``INTREE``, ``F.INTREE``, ✔️, Assumes input objects are composite objects.
``IP``, ``F.IP``, ✔️,
``IPCHI2``, ``F.IPCHI2``, ✔️,
``ISDOWN``, ``F.TRACKISDOWN``, ✔️,
``ISLONG``, ``F.TRACKISLONG``, ✔️,
``ISMUON``, ``F.ISMUON``, ✔️,
``KEY/PKEY/TrKEY/MCVKEY``, ``F.OBJECT_KEY``, ,
``M``, ``F.MASS``, ✔️,
``MAXTREE``, ``F.MAXTREE``, ✔️, Assumes input objects are composite objects.
``MCMOTHER``, ``F.MC_MOTHER``, ✔️,
``MCREC``, ``F.MC_RECONSTRUCTIBLE``, ,
``MINTREE``, ``F.MINTREE``, ✔️, Assumes inputs are composite objects.
``MIPCHI2DV(PRIMARY)``, ``F.MINIPCHI2(pvs)``, ✔️, ``F.MINIPCHI2CUT(pvs)`` may be a more efficient alternative as it can stop early.
``MIPDV(PRIMARY)``, ``F.MINIP(pvs)``,✔️,  ``F.MINIPCUT(pvs)`` may be a more efficient alternative as it can stop early.
``MTDOCACHI2``,"``F.MTDOCACHI2(<int>, pvs)``", ️✔️,
``NDAUGHTERS``,"``F.NINGENERATION(<predicate>, 1)``", ✔️, Assumes it is applied to a composite object
``NINGENERATION``,"``F.NINGENERATION(<predicate>, <int>)``", ✔️, Assumes inputs are composite objects.
``NINTREE``, ``F.NINTREE(<predicate>)``, ✔️, Assumes inputs are composite objects.
``NONE``, ``F.NONE``, ✔️,
``ODIN_BUNCH``, ``BUNCHCROSSING_ID(odin)``, ✔️,
``ODIN_BXTYP``, ``BUNCHCROSSING_TYPE(odin)``, ✔️,
``ODIN_EVTNUMBER``, ``EVENTNUMBER(odin)``, ✔️,
``ODIN_EVTTYPE``, ``EVENTTYPE(odin)``, ✔️,
``ODIN_RUN``, ``RUNNUMBER(odin)``, ✔️,
``ODIN_TCK``, ``ODINTCK(odin)``, ✔️,
``P``, ``F.P``, ✔️,
``PCOV2``, ``F.COV``, ️,
``PHI``, ``F.PHI``, ✔️,
``PID/MCID``, ``F.PARTICLE_ID``, ✔️,
``PIDK``, ``F.PID_K``, ✔️,
``PIDe``, ``F.PID_E``, ✔️,
``PIDmu``, ``F.PID_MU``, ✔️,
``PIDp``, ``F.PID_P``, ✔️,
``PIDpi``, ``F.PID_PI``, ✔️,
``PROBNNk``, ``F.PROBNN_K``, ⚪,
``PROBNNe``, ``F.PROBNN_E``, ⚪,
``PROBNNmu``, ``F.PROBNN_MU``, ⚪,
``PROBNNp``, ``F.PROBNN_P``, ⚪,
``PROBNNpi``, ``F.PROBNN_PI``, ⚪,
``PROBNNghost``, ``F.PROBNN_GHOST``, ⚪,
``PT``, ``F.PT``, ✔️,
``PX``, ``F.PX``, ✔️,
``PY``, ``F.PY``, ✔️,
``PZ``, ``F.PZ``, ✔️,
``Q``, ``F.CHARGE``, ✔️,
``SIZE``, ``F.SIZE(container)``, ️, ``container`` is a data handle to the container whose size to measure.
``SUMCONE``,"``F.SUMCONE(<functor>, rels)``", , ``RELS`` is a data handle to the relation table.
``TrTYPE``, ``F.TRACKTYPE``, ✔️,
``TrCHI2DOF``, ``F.CHI2DOF``, ✔️,
``TrCHI2``, ``F.CHI2``, ️⚪,
``TrCLONE``, ``F.TRACKISCLONE``, ️✔️,
``TrGHOSTPROB``, ``F.GHOSTPROB``, ✔️,
``TrHAST``, ``F.TRACKHAST``, ✔️,
``TrHASUT``, ``F.HASUT``, ✔️,
``TrHASVELO``, ``F.HASVELO``, ✔️,
``TrIPSELECTED``, ``F.TRACKISSELECTED``, ✔️,
``TRTTRACK``, ``F.TRACKISTTRACK``, ✔️,
``TRUP``, ``F.TRACKISUPSTREAM``, ✔️,
``VCHI2``/``CHI2VX``, ``F.CHI2``, ⚪, In principle but not numerically. See checks in https://indico.cern.ch/event/995287/contributions/4633380/attachments/2354933/4018715/WP3%20JieWu%2020211129.pdf
``VD``, ``F.BPVFD``, , wrt the bpv
``VDCHI2``, ``F.BPVFDCHI2``, , wrt the bpv
``VDOF``, ``F.NDOF``, ️,
``VMINVDDV(PRIMARY)``, ``F.MIN_ELEMENT @ F.ALLPV_FD(pvs)``, ️✔️,
``VX``, ``F.END_VX``, ,
``VY``, ``F.END_VY``, ,
``VZ``, ``F.END_VZ``, ,
``in_range``, ``in_range``, ✔️, The ThOr functor is in the `Functors.math` module.
``log``, ``log``, ✔️, Natural logarithm. Base :math:`e`. The ThOr functor is in the `Functors.math` module.
