CopyInputStream                        INFO Events output: 40
GraphClustering_72971694               INFO Built <217.89> graph calo clustering clusters/event
ApplicationMgr                         INFO Application Manager Finalized successfully
ApplicationMgr                         INFO Application Manager Terminated successfully
AdvancedCloneKiller_35c7ee2d           INFO Number of counters : 2
 |    Counter                                      |     #     |    sum     | mean/eff^* | rms/err^*  |     min     |     max     |
 | "#InputParticles"                               |        40 |       1202 |     30.050 |
 | "#OutputParticles"                              |        40 |       1192 |     29.800 |
AdvancedCloneKiller_567e6b06           INFO Number of counters : 2
 |    Counter                                      |     #     |    sum     | mean/eff^* | rms/err^*  |     min     |     max     |
 | "#InputParticles"                               |        40 |        577 |     14.425 |
 | "#OutputParticles"                              |        40 |        570 |     14.250 |
AdvancedCloneKiller_79d4efb8           INFO Number of counters : 2
 |    Counter                                      |     #     |    sum     | mean/eff^* | rms/err^*  |     min     |     max     |
 | "#InputParticles"                               |        40 |       2067 |     51.675 |
 | "#OutputParticles"                              |        40 |       2002 |     50.050 |
AdvancedCloneKiller_86924b76           INFO Number of counters : 2
 |    Counter                                      |     #     |    sum     | mean/eff^* | rms/err^*  |     min     |     max     |
 | "#InputParticles"                               |        40 |          9 |    0.22500 |
 | "#OutputParticles"                              |        40 |          7 |    0.17500 |
AdvancedCloneKiller_8d56cc26           INFO Number of counters : 2
 |    Counter                                      |     #     |    sum     | mean/eff^* | rms/err^*  |     min     |     max     |
 | "#InputParticles"                               |        40 |       2999 |     74.975 |
 | "#OutputParticles"                              |        40 |       2851 |     71.275 |
AdvancedCloneKiller_92db4f12           INFO Number of counters : 2
 |    Counter                                      |     #     |    sum     | mean/eff^* | rms/err^*  |     min     |     max     |
 | "#InputParticles"                               |        40 |       2999 |     74.975 |
 | "#OutputParticles"                              |        40 |       2851 |     71.275 |
AdvancedCloneKiller_dfe0f1cf           INFO Number of counters : 2
 |    Counter                                      |     #     |    sum     | mean/eff^* | rms/err^*  |     min     |     max     |
 | "#InputParticles"                               |        40 |         95 |     2.3750 |
 | "#OutputParticles"                              |        40 |         95 |     2.3750 |
CaloAcceptanceBremAlg_Long_142dbbc6    INFO Number of counters : 2
 |    Counter                                      |     #     |    sum     | mean/eff^* | rms/err^*  |     min     |     max     |
 | "#total tracks"                                 |       100 |       9244 |     92.440 |     52.132 |      11.000 |      345.00 |
 | "#tracks in acceptance"                         |       100 |       6880 |     68.800 |     39.516 |      8.0000 |      267.00 |
CaloAcceptanceBremAlg_Upstream_3...    INFO Number of counters : 2
 |    Counter                                      |     #     |    sum     | mean/eff^* | rms/err^*  |     min     |     max     |
 | "#total tracks"                                 |        40 |          0 |     0.0000 |     0.0000 |      0.0000 |      0.0000 |
 | "#tracks in acceptance"                         |        40 |          0 |     0.0000 |     0.0000 |      0.0000 |      0.0000 |
CaloAcceptanceEcalAlg_Downstream...    INFO Number of counters : 2
 |    Counter                                      |     #     |    sum     | mean/eff^* | rms/err^*  |     min     |     max     |
 | "#total tracks"                                 |       100 |          0 |     0.0000 |     0.0000 |      0.0000 |      0.0000 |
 | "#tracks in acceptance"                         |       100 |          0 |     0.0000 |     0.0000 |      0.0000 |      0.0000 |
CaloAcceptanceEcalAlg_Long_71599283    INFO Number of counters : 2
 |    Counter                                      |     #     |    sum     | mean/eff^* | rms/err^*  |     min     |     max     |
 | "#total tracks"                                 |       100 |       9244 |     92.440 |     52.132 |      11.000 |      345.00 |
 | "#tracks in acceptance"                         |       100 |       7744 |     77.440 |     43.599 |      9.0000 |      298.00 |
CaloAcceptanceEcalAlg_Ttrack_b29...    INFO Number of counters : 2
 |    Counter                                      |     #     |    sum     | mean/eff^* | rms/err^*  |     min     |     max     |
 | "#total tracks"                                 |       100 |       8255 |     82.550 |     106.22 |      6.0000 |      969.00 |
 | "#tracks in acceptance"                         |       100 |       6742 |     67.420 |     92.384 |      3.0000 |      844.00 |
CaloAcceptanceHcalAlg_Long_1fd97970    INFO Number of counters : 2
 |    Counter                                      |     #     |    sum     | mean/eff^* | rms/err^*  |     min     |     max     |
 | "#total tracks"                                 |       100 |       9244 |     92.440 |     52.132 |      11.000 |      345.00 |
 | "#tracks in acceptance"                         |       100 |       7240 |     72.400 |     40.412 |      9.0000 |      272.00 |
CaloFutureClusterCovarianceAlg_5...    INFO Number of counters : 1
 |    Counter                                      |     #     |    sum     | mean/eff^* | rms/err^*  |     min     |     max     |
 | "# clusters"                                    |     21789 |
CaloFutureClusterCovarianceAlg_5...    INFO Number of counters : 3
 |    Counter                                      |     #     |    sum     | mean/eff^* | rms/err^*  |     min     |     max     |
 | "Corrected Clusters: # cells "                  |      1873 |       8013 |     4.2782 |     1.3426 |      2.0000 |      11.000 |
 | "Corrected Clusters: ET"                        |      1873 |   473277.1 |     252.68 |     305.93 |      6.2000 |      2899.8 |
 | "Corrected Clusters: size ratio"                |      1873 |   944.7446 |    0.50440 |    0.44211 | -3.6723e-16 |      3.4153 |
CaloSelectiveBremMatchAlg_Long_5...    INFO Number of counters : 3
 |    Counter                                      |     #     |    sum     | mean/eff^* | rms/err^*  |     min     |     max     |
 | "#links in table"                               |       100 |       2646 |     26.460 |     19.938 |      0.0000 |      98.000 |
 | "average chi2"                                  |      2646 |   1671.949 |    0.63188 |    0.97707 |  4.2272e-06 |      16.345 |
 | "average energy (track based)"                  |      6880 |   113855.4 |     16.549 |     53.531 |      0.0000 |      1983.4 |
CaloSelectiveBremMatchAlg_Upstre...    INFO Number of counters : 1
 |    Counter                                      |     #     |    sum     | mean/eff^* | rms/err^*  |     min     |     max     |
 | "#links in table"                               |        40 |          0 |     0.0000 |     0.0000 |      0.0000 |      0.0000 |
CaloSelectiveElectronMatchAlg_Lo...    INFO Number of counters : 3
 |    Counter                                      |     #     |    sum     | mean/eff^* | rms/err^*  |     min     |     max     |
 | "#above threshold"                              |         6 |          6 |     1.0000 |     0.0000 |      1.0000 |      1.0000 |
 | "#links in table"                               |       100 |       6479 |     64.790 |     40.131 |      3.0000 |      254.00 |
 | "average chi2"                                  |      6479 |   35434.54 |     5.4691 |     18.404 |  0.00019107 |      504.79 |
CaloSelectiveTrackMatchAlg_Downs...    INFO Number of counters : 1
 |    Counter                                      |     #     |    sum     | mean/eff^* | rms/err^*  |     min     |     max     |
 | "#links in table"                               |       100 |          0 |     0.0000 |     0.0000 |      0.0000 |      0.0000 |
CaloSelectiveTrackMatchAlg_Long_...    INFO Number of counters : 2
 |    Counter                                      |     #     |    sum     | mean/eff^* | rms/err^*  |     min     |     max     |
 | "#links in table"                               |       100 |       6582 |     65.820 |     40.195 |      3.0000 |      255.00 |
 | "average chi2"                                  |      6582 |   765.3958 |    0.11629 |    0.20583 |  1.2315e-06 |      7.6681 |
CaloSelectiveTrackMatchAlg_Ttrac...    INFO Number of counters : 2
 |    Counter                                      |     #     |    sum     | mean/eff^* | rms/err^*  |     min     |     max     |
 | "#links in table"                               |       100 |       5490 |     54.900 |     74.973 |      1.0000 |      702.00 |
 | "average chi2"                                  |      5490 |   255.6378 |   0.046564 |   0.097804 |  1.7591e-06 |      3.3663 |
CaloTrackBasedElectronShowerAlg_...    INFO Number of counters : 2
 |    Counter                                      |     #     |    sum     | mean/eff^* | rms/err^*  |     min     |     max     |
 | "average DLL"                                   |      7744 |  -302.2612 |  -0.039032 |   0.069177 |     -1.5266 |     0.22849 |
 | "average E/p"                                   |      7744 |    36.9622 |  0.0047730 |  0.0058728 |      0.0000 |     0.14439 |
CaloTrackToHcalEnergyAlg_Long_d4...    INFO Number of counters : 1
 |    Counter                                      |     #     |    sum     | mean/eff^* | rms/err^*  |     min     |     max     |
 | "energy (calo) associated to track"             |      7240 |3.405458e+07 |     4703.7 |     8304.7 |      0.0000 |  1.0882e+05 |
ChargedProtoParticleAssociator_b...    INFO Number of counters : 2
 |    Counter                                      |     #     |    sum     | mean/eff^* | rms/err^*  |     min     |     max     |
 |*"Efficiency"                                    |      3618 |       3095 |( 85.54450 +- 0.5846263)% |
 | "MC particles per ProtoParticle"                |      3095 |       3638 |     1.1754 |
ChargedProtoParticleMaker_Long_3...    INFO Number of counters : 1
 |    Counter                                      |     #     |    sum     | mean/eff^* | rms/err^*  |     min     |     max     |
 | "CreatedProtos"                                 |      9244 |
ClassifyPhotonElectronAlg_7af6ef8c     INFO Number of counters : 14
 |    Counter                                      |     #     |    sum     | mean/eff^* | rms/err^*  |     min     |     max     |
 | "Electron Delta(E)"                             |      8716 |   -4342263 |    -498.19 |     522.82 |     -4557.4 |      743.89 |
 | "Electron Delta(X)"                             |      8716 |  -6655.873 |   -0.76364 |     14.874 |     -76.004 |      61.273 |
 | "Electron Delta(Y)"                             |      8716 |  -7158.721 |   -0.82133 |     15.353 |     -37.612 |      31.998 |
 | "Electron Delta(Z)"                             |      8716 |   964277.9 |     110.63 |     16.611 |      41.467 |      179.31 |
 | "Electron corrected energy"                     |      8716 |5.735103e+07 |     6580.0 |     8584.3 |      11.285 |  1.4460e+05 |
 | "Electrons pT-rejected after correction"        |       122 |
 | "Photon Delta(E)"                               |     13930 |   -4445271 |    -319.11 |     393.00 |     -4901.2 |      1077.2 |
 | "Photon Delta(X)"                               |     13930 |  -8798.485 |   -0.63162 |     15.899 |     -144.49 |      54.039 |
 | "Photon Delta(Y)"                               |     13930 |  -14332.45 |    -1.0289 |     15.975 |     -77.296 |      59.607 |
 | "Photon Delta(Z)"                               |     13930 |    1397392 |     100.32 |     16.592 |     -25.505 |      174.74 |
 | "Photon corrected energy"                       |     13930 |5.000726e+07 |     3589.9 |     6084.0 |      5.6932 |  1.1681e+05 |
 | "Photons pT-rejected after correction"          |       435 |
 | "electronHypos"                                 |       100 |       8594 |     85.940 |     48.862 |      4.0000 |      342.00 |
 | "photonHypos"                                   |       100 |      13495 |     134.95 |     47.251 |      16.000 |      241.00 |
ClassifyPhotonElectronAlg_7af6ef...    INFO Number of counters : 7
 |    Counter                                      |     #     |    sum     | mean/eff^* | rms/err^*  |     min     |     max     |
 | "<alpha> Inner"                                 |      6226 |   6236.872 |     1.0017 |   0.010705 |     0.96121 |      1.0452 |
 | "<alpha> Middle"                                |      6133 |   6161.147 |     1.0046 |   0.010674 |     0.96105 |      1.0713 |
 | "<alpha> Outer"                                 |     10247 |   10156.44 |    0.99116 |     0.0000 |     0.99116 |     0.99116 |
 | "Pileup offset"                                 |     22606 |    8818643 |     390.10 |     460.07 |      1.4764 |      4685.5 |
 | "Pileup scale"                                  |     22646 |     142682 |     6.3005 |     2.0491 |      1.0000 |      12.000 |
 | "Pileup subtracted ratio"                       |     22606 |   19945.59 |    0.88231 |    0.11766 |   0.0046334 |     0.99898 |
 | "Skip negative energy correction"               |        40 |
CloneKillerForward_558ff563            INFO Number of counters : 2
 |    Counter                                      |     #     |    sum     | mean/eff^* | rms/err^*  |     min     |     max     |
 | "nTracksInput"                                  |       100 |      10158 |     101.58 |
 | "nTracksSelected"                               |       100 |       2640 |     26.400 |
CopySignalMCParticles_daf3c6a8         INFO Number of counters : 2
 |    Counter                                      |     #     |    sum     | mean/eff^* | rms/err^*  |     min     |     max     |
 |*"copy signal"                                   |    284882 |        703 |(0.2467688 +- 0.009295572)% |
 |*"input container present"                       |        40 |         40 |( 100.0000 +- 0.000000)% |
CopySignalMCParticles_daf3c6a8.M...    INFO Number of counters : 2
 |    Counter                                      |     #     |    sum     | mean/eff^* | rms/err^*  |     min     |     max     |
 |*"MCParticles cloned"                            |       467 |        467 |( 100.0000 +- 0.000000)% |
 |*"MCVertices cloned"                             |       325 |        325 |( 100.0000 +- 0.000000)% |
Copy_MC_For__Event_Relations_Cha...    INFO Number of counters : 2
 |    Counter                                      |     #     |    sum     | mean/eff^* | rms/err^*  |     min     |     max     |
 | "# of cloned entries"                           |        80 |       3638 |     45.475 |     53.807 |      0.0000 |      176.00 |
 |*"Input container absent"                        |        80 |          0 |( 0.000000 +- 0.000000)% |
Copy_MC_For__Event_Relations_Cha...    INFO Number of counters : 2
 |    Counter                                      |     #     |    sum     | mean/eff^* | rms/err^*  |     min     |     max     |
 |*"MCParticles cloned"                            |     11667 |      11667 |( 100.0000 +- 0.000000)% |
 |*"MCVertices cloned"                             |      7143 |       4859 |( 68.02464 +- 0.5518239)% |
FlavourTagsMerger_164577a2             INFO Number of counters : 2
 |    Counter                                      |     #     |    sum     | mean/eff^* | rms/err^*  |     min     |     max     |
 | "#BCandidates"                                  |        40 |         45 |     1.1250 |
 | "#FlavourTags"                                  |        40 |        160 |     4.0000 |
FlavourTagsMerger_1b298861             INFO Number of counters : 2
 |    Counter                                      |     #     |    sum     | mean/eff^* | rms/err^*  |     min     |     max     |
 | "#BCandidates"                                  |         4 |          5 |     1.2500 |
 | "#FlavourTags"                                  |         4 |          8 |     2.0000 |
FlavourTagsMerger_3790acfd             INFO Number of counters : 2
 |    Counter                                      |     #     |    sum     | mean/eff^* | rms/err^*  |     min     |     max     |
 | "#BCandidates"                                  |         4 |          5 |     1.2500 |
 | "#FlavourTags"                                  |         4 |         16 |     4.0000 |
FlavourTagsMerger_557de920             INFO Number of counters : 2
 |    Counter                                      |     #     |    sum     | mean/eff^* | rms/err^*  |     min     |     max     |
 | "#BCandidates"                                  |        40 |         45 |     1.1250 |
 | "#FlavourTags"                                  |        40 |        120 |     3.0000 |
FlavourTagsMerger_8e79742a             INFO Number of counters : 2
 |    Counter                                      |     #     |    sum     | mean/eff^* | rms/err^*  |     min     |     max     |
 | "#BCandidates"                                  |         4 |          5 |     1.2500 |
 | "#FlavourTags"                                  |         4 |         12 |     3.0000 |
FlavourTagsMerger_aa694386             INFO Number of counters : 2
 |    Counter                                      |     #     |    sum     | mean/eff^* | rms/err^*  |     min     |     max     |
 | "#BCandidates"                                  |        40 |         45 |     1.1250 |
 | "#FlavourTags"                                  |        40 |         80 |     2.0000 |
FunctionalParticleMaker_3cd546ef       INFO Number of counters : 3
 |    Counter                                      |     #     |    sum     | mean/eff^* | rms/err^*  |     min     |     max     |
 |*"# passed"                                      |        40 |          0 |( 0.000000 +- 0.000000)% |
 | "Nb created anti-particles"                     |        40 |          0 |     0.0000 |     0.0000 |      0.0000 |      0.0000 |
 | "Nb created particles"                          |        40 |          0 |     0.0000 |     0.0000 |      0.0000 |      0.0000 |
FunctionalParticleMaker_4b4b11ab       INFO Number of counters : 5
 |    Counter                                      |     #     |    sum     | mean/eff^* | rms/err^*  |     min     |     max     |
 |*"# passed"                                      |        40 |         40 |( 100.0000 +- 0.000000)% |
 |*"# passed ProtoParticle filter"                 |      3618 |       3618 |( 100.0000 +- 0.000000)% |
 |*"# passed Track filter"                         |      3618 |       3618 |( 100.0000 +- 0.000000)% |
 | "Nb created anti-particles"                     |        40 |       1794 |     44.850 |     22.097 |      4.0000 |      108.00 |
 | "Nb created particles"                          |        40 |       1824 |     45.600 |     21.706 |      7.0000 |      97.000 |
FunctionalParticleMaker_5369dbc8       INFO Number of counters : 5
 |    Counter                                      |     #     |    sum     | mean/eff^* | rms/err^*  |     min     |     max     |
 |*"# passed"                                      |        40 |         40 |( 100.0000 +- 0.000000)% |
 |*"# passed ProtoParticle filter"                 |      3618 |       3385 |( 93.55998 +- 0.4080886)% |
 |*"# passed Track filter"                         |      3618 |       3618 |( 100.0000 +- 0.000000)% |
 | "Nb created anti-particles"                     |        40 |       1683 |     42.075 |     20.702 |      4.0000 |      100.00 |
 | "Nb created particles"                          |        40 |       1702 |     42.550 |     20.030 |      7.0000 |      92.000 |
FunctionalParticleMaker_6bf3c20a       INFO Number of counters : 5
 |    Counter                                      |     #     |    sum     | mean/eff^* | rms/err^*  |     min     |     max     |
 |*"# passed"                                      |       100 |        100 |( 100.0000 +- 0.000000)% |
 |*"# passed ProtoParticle filter"                 |      9244 |       1145 |( 12.38641 +- 0.3426325)% |
 |*"# passed Track filter"                         |      9244 |       9244 |( 100.0000 +- 0.000000)% |
 | "Nb created anti-particles"                     |       100 |        567 |     5.6700 |     4.4812 |      0.0000 |      23.000 |
 | "Nb created particles"                          |       100 |        578 |     5.7800 |     5.2394 |      0.0000 |      40.000 |
FunctionalParticleMaker_8cadd52d       INFO Number of counters : 3
 |    Counter                                      |     #     |    sum     | mean/eff^* | rms/err^*  |     min     |     max     |
 |*"# passed"                                      |        40 |          0 |( 0.000000 +- 0.000000)% |
 | "Nb created anti-particles"                     |        40 |          0 |     0.0000 |     0.0000 |      0.0000 |      0.0000 |
 | "Nb created particles"                          |        40 |          0 |     0.0000 |     0.0000 |      0.0000 |      0.0000 |
FunctionalParticleMaker_985eaba7       INFO Number of counters : 3
 |    Counter                                      |     #     |    sum     | mean/eff^* | rms/err^*  |     min     |     max     |
 |*"# passed"                                      |        40 |          0 |( 0.000000 +- 0.000000)% |
 | "Nb created anti-particles"                     |        40 |          0 |     0.0000 |     0.0000 |      0.0000 |      0.0000 |
 | "Nb created particles"                          |        40 |          0 |     0.0000 |     0.0000 |      0.0000 |      0.0000 |
FunctionalParticleMaker_db7ef621       INFO Number of counters : 5
 |    Counter                                      |     #     |    sum     | mean/eff^* | rms/err^*  |     min     |     max     |
 |*"# passed"                                      |       100 |        100 |( 100.0000 +- 0.000000)% |
 |*"# passed ProtoParticle filter"                 |      9244 |       8673 |( 93.82302 +- 0.2503876)% |
 |*"# passed Track filter"                         |      9244 |       9244 |( 100.0000 +- 0.000000)% |
 | "Nb created anti-particles"                     |       100 |       4343 |     43.430 |     24.471 |      4.0000 |      154.00 |
 | "Nb created particles"                          |       100 |       4330 |     43.300 |     24.622 |      3.0000 |      170.00 |
FunctionalParticleMaker_e44ca153       INFO Number of counters : 5
 |    Counter                                      |     #     |    sum     | mean/eff^* | rms/err^*  |     min     |     max     |
 |*"# passed"                                      |        40 |         40 |( 100.0000 +- 0.000000)% |
 |*"# passed ProtoParticle filter"                 |      3618 |       3385 |( 93.55998 +- 0.4080886)% |
 |*"# passed Track filter"                         |      3618 |       3618 |( 100.0000 +- 0.000000)% |
 | "Nb created anti-particles"                     |        40 |       1683 |     42.075 |     20.702 |      4.0000 |      100.00 |
 | "Nb created particles"                          |        40 |       1702 |     42.550 |     20.030 |      7.0000 |      92.000 |
GraphClustering_72971694               INFO Number of counters : 4
 |    Counter                                      |     #     |    sum     | mean/eff^* | rms/err^*  |     min     |     max     |
 | "# clusters"                                    |       100 |      21789 |     217.89 |     83.142 |      26.000 |      438.00 |
 | "Cluster energy"                                |     21789 |1.103965e+08 |     5066.6 |     7463.4 |      34.800 |  1.4451e+05 |
 | "Cluster size"                                  |     21789 |     223038 |     10.236 |     2.4643 |      4.0000 |      25.000 |
 | "Negative energy clusters"                      |         1 |          1 |     1.0000 |     0.0000 |      1.0000 |      1.0000 |
HLT2PostscaleDecReportsMonitor         INFO Number of counters : 1
 |    Counter                                      |     #     |    sum     | mean/eff^* | rms/err^*  |     min     |     max     |
 |*"#accept"                                       |        13 |          0 |( 0.000000 +- 0.000000)% |
HLT2PrescaleDecReportsMonitor          INFO Number of counters : 1
 |    Counter                                      |     #     |    sum     | mean/eff^* | rms/err^*  |     min     |     max     |
 |*"#accept"                                       |       100 |         13 |( 13.00000 +- 3.363034)% |
HLTControlFlowMgr                      INFO Number of counters : 1
 |    Counter                                      |     #     |    sum     | mean/eff^* | rms/err^*  |     min     |     max     |
 | "Processed events"                              |       100 |
Hlt2Test_B2JpsiKModified_withFla...    INFO Number of counters : 1
 |    Counter                                      |     #     |    sum     | mean/eff^* | rms/err^*  |     min     |     max     |
 |*"#accept"                                       |       100 |        100 |( 100.0000 +- 0.000000)% |
Hlt2Test_B2JpsiK_withFlavourTagg...    INFO Number of counters : 1
 |    Counter                                      |     #     |    sum     | mean/eff^* | rms/err^*  |     min     |     max     |
 |*"#accept"                                       |       100 |        100 |( 100.0000 +- 0.000000)% |
Hlt2Test_makeJpsi_muons                INFO Number of counters : 2
 |    Counter                                      |     #     |    sum     | mean/eff^* | rms/err^*  |     min     |     max     |
 |*"#passed"                                       |       100 |         98 |( 98.00000 +- 1.400000)% |
 |*"Cut selection efficiency"                      |      1145 |        264 |( 23.05677 +- 1.244749)% |
HltDecReportsFilter_6c02e548           INFO Number of counters : 1
 |    Counter                                      |     #     |    sum     | mean/eff^* | rms/err^*  |     min     |     max     |
 |*"Cut selection efficiency"                      |        40 |         40 |( 100.0000 +- 0.000000)% |
HltPackedBufferWriter_611dd8b2         INFO Number of counters : 2
 |    Counter                                      |     #     |    sum     | mean/eff^* | rms/err^*  |     min     |     max     |
 | "Size of serialized data"                       |        40 |    3145732 |     78643. |     35999. |      11796. |  1.6772e+05 |
Hlt__RoutingBitsCombiner_425300c0      INFO Number of counters : 1
 |    Counter                                      |     #     |    sum     | mean/eff^* | rms/err^*  |     min     |     max     |
 | "# missing hlt1 bank"                           |        40 |
LHCb__Converters__Track__SOA__fr...    INFO Number of counters : 1
 |    Counter                                      |     #     |    sum     | mean/eff^* | rms/err^*  |     min     |     max     |
 | "Nb of Produced Tracks"                         |       100 |       8255 |     82.550 |
LHCb__Converters__Track__SOA__fr...    INFO Number of counters : 1
 |    Counter                                      |     #     |    sum     | mean/eff^* | rms/err^*  |     min     |     max     |
 | "Nb of Produced Tracks"                         |       100 |       9244 |     92.440 |
LHCb__Converters__Track__SOA__fr...    INFO Number of counters : 1
 |    Counter                                      |     #     |    sum     | mean/eff^* | rms/err^*  |     min     |     max     |
 | "Nb of Events without Tracks"                   |       100 |          0 |     0.0000 |
LHCb__Converters__Track__SOA__fr...    INFO Number of counters : 1
 |    Counter                                      |     #     |    sum     | mean/eff^* | rms/err^*  |     min     |     max     |
 | "Nb of Events without Tracks"                   |        40 |          0 |     0.0000 |
LHCb__SelectivePacker_dd946f83         INFO Number of counters : 75
 |    Counter                                      |     #     |    sum     | mean/eff^* | rms/err^*  |     min     |     max     |
 | "BremInfos # containers packed"                 |        40 |         40 |     1.0000 |
 | "BremInfos # of packed entries"                 |        40 |       2682 |     67.050 |
 | "BremInfos buffer size"                         |        40 |     113524 |     2838.1 |
 | "BremInfosSelection # containers packed"        |        40 |          0 |     0.0000 |
 | "CaloAdcs # containers packed"                  |        40 |          0 |     0.0000 |
 | "CaloChargedPIDs # containers packed"           |        40 |         40 |     1.0000 |
 | "CaloChargedPIDs # of packed entries"           |        40 |       3057 |     76.425 |
 | "CaloChargedPIDs buffer size"                   |        40 |     184300 |     4607.5 |
 | "CaloChargedPIDsSelection # containers packed"  |        40 |          0 |     0.0000 |
 | "CaloClusters # containers packed"              |        40 |          0 |     0.0000 |
 | "CaloClustersSelection # containers packed"     |        40 |          0 |     0.0000 |
 | "CaloDigits # containers packed"                |        40 |          0 |     0.0000 |
 | "CaloHypos # containers packed"                 |        40 |         80 |     2.0000 |
 | "CaloHypos # of packed entries"                 |        80 |       2748 |     34.350 |
 | "CaloHypos buffer size"                         |        80 |     210928 |     2636.6 |
 | "CaloHyposSelection # containers packed"        |        40 |          0 |     0.0000 |
 | "ExtendedPVs # containers packed"               |        40 |          0 |     0.0000 |
 | "FlavourTags # containers packed"               |        40 |         44 |     1.1000 |
 | "FlavourTags # of packed entries"               |        44 |         50 |     1.1364 |
 | "FlavourTags buffer size"                       |        44 |      10096 |     229.45 |
 | "FlavourTagsSelection # containers packed"      |        40 |         44 |     1.1000 |
 | "FlavourTagsSelection # of packed entries"      |        44 |         50 |     1.1364 |
 | "FlavourTagsSelection buffer size"              |        44 |       1676 |     38.091 |
 | "GlobalChargedPIDs # containers packed"         |        40 |         40 |     1.0000 |
 | "GlobalChargedPIDs # of packed entries"         |        40 |       3618 |     90.450 |
 | "GlobalChargedPIDs buffer size"                 |        40 |     203488 |     5087.2 |
 | "GlobalChargedPIDsSelection # containers packed"|        40 |          0 |     0.0000 |
 | "LightPVs # containers packed"                  |        40 |          0 |     0.0000 |
 | "LightPVsSelection # containers packed"         |        40 |          0 |     0.0000 |
 | "MuonPIDs # containers packed"                  |        40 |         40 |     1.0000 |
 | "MuonPIDs # of packed entries"                  |        40 |       3618 |     90.450 |
 | "MuonPIDs buffer size"                          |        40 |     218280 |     5457.0 |
 | "MuonPIDsSelection # containers packed"         |        40 |          0 |     0.0000 |
 | "NeutralPIDs # containers packed"               |        40 |          0 |     0.0000 |
 | "NeutralPIDsSelection # containers packed"      |        40 |          0 |     0.0000 |
 | "P2InfoRelations # containers packed"           |        40 |          0 |     0.0000 |
 | "P2IntRelations # containers packed"            |        40 |          0 |     0.0000 |
 | "P2MCPRelations # containers packed"            |        40 |          0 |     0.0000 |
 | "P2PVRelations # containers packed"             |        40 |          0 |     0.0000 |
 | "P2VRelations # containers packed"              |        40 |          0 |     0.0000 |
 | "PP2MCPRelations # containers packed"           |        40 |         80 |     2.0000 |
 | "PP2MCPRelations # of packed entries"           |        80 |       3638 |     45.475 |
 | "PP2MCPRelations buffer size"                   |        80 |      77400 |     967.50 |
 | "PVs # containers packed"                       |        40 |         40 |     1.0000 |
 | "PVs # of packed entries"                       |        40 |        227 |     5.6750 |
 | "PVs buffer size"                               |        40 |      14526 |     363.15 |
 | "PVsSelection # containers packed"              |        40 |          0 |     0.0000 |
 | "Particles # containers packed"                 |        40 |        164 |     4.1000 |
 | "Particles # of packed entries"                 |       164 |        215 |     1.3110 |
 | "Particles buffer size"                         |       164 |      48970 |     298.60 |
 | "ParticlesSelection # containers packed"        |        40 |         44 |     1.1000 |
 | "ParticlesSelection # of packed entries"        |        44 |         50 |     1.1364 |
 | "ParticlesSelection buffer size"                |        44 |       1676 |     38.091 |
 | "ProtoParticles # containers packed"            |        40 |         80 |     2.0000 |
 | "ProtoParticles # of packed entries"            |        80 |       3618 |     45.225 |
 | "ProtoParticles buffer size"                    |        80 |     290696 |     3633.7 |
 | "ProtoParticlesSelection # containers packed"   |        40 |          0 |     0.0000 |
 | "RecSummary # containers packed"                |        40 |         40 |     1.0000 |
 | "RecSummary # of packed entries"                |        40 |       1520 |     38.000 |
 | "RecSummary buffer size"                        |        40 |       6960 |     174.00 |
 | "RichPIDs # containers packed"                  |        40 |         40 |     1.0000 |
 | "RichPIDs # of packed entries"                  |        40 |       3385 |     84.625 |
 | "RichPIDs buffer size"                          |        40 |     163520 |     4088.0 |
 | "RichPIDsSelection # containers packed"         |        40 |          0 |     0.0000 |
 | "Tracks # containers packed"                    |        40 |         80 |     2.0000 |
 | "Tracks # of packed entries"                    |        80 |       4086 |     51.075 |
 | "Tracks buffer size"                            |        80 |    1588944 |     19862. |
 | "TracksSelection # containers packed"           |        40 |          0 |     0.0000 |
 | "TwoProngVertices # containers packed"          |        40 |          0 |     0.0000 |
 | "TwoProngVerticesSelection # containers packed" |        40 |          0 |     0.0000 |
 | "Vertices # containers packed"                  |        40 |         84 |     2.1000 |
 | "Vertices # of packed entries"                  |        84 |         90 |     1.0714 |
 | "Vertices buffer size"                          |        84 |      10748 |     127.95 |
 | "VerticesSelection # containers packed"         |        40 |          0 |     0.0000 |
 | "WeightsVectors # containers packed"            |        40 |          0 |     0.0000 |
MuonIDHlt2AlgLong_ebde3a89             INFO Number of counters : 7
 |    Counter                                      |     #     |    sum     | mean/eff^* | rms/err^*  |     min     |     max     |
 | "BgLL"                                          |      1145 |  -1280.509 |    -1.1183 |     1.4304 |     -7.3431 |      0.0000 |
 | "MuLL"                                          |      1145 |  -8494.167 |    -7.4185 |     3.9013 |     -11.513 |   -0.040851 |
 | "muonMVAStat"                                   |      1145 |   39.38966 |   0.034401 |     1.5524 |     -3.5144 |      4.9265 |
 |*"nInAcceptance"                                 |      9244 |       7254 |( 78.47252 +- 0.4274895)% |
 |*"nIsMuon"                                       |      9244 |       1145 |( 12.38641 +- 0.3426325)% |
 |*"nIsMuonTight"                                  |      9244 |        696 |( 7.529208 +- 0.2744397)% |
 |*"nMomentumCut"                                  |      9244 |       7756 |( 83.90307 +- 0.3822350)% |
MuonPIDV2ToMuonTracks_Long_da5469c1    INFO Number of counters : 1
 |    Counter                                      |     #     |    sum     | mean/eff^* | rms/err^*  |     min     |     max     |
 | "Nb of input v2 MuonPIDs"                       |       100 |       9244 |     92.440 |
Pack__Event_HLT2_MC_Particles          INFO Number of counters : 1
 |    Counter                                      |     #     |    sum     | mean/eff^* | rms/err^*  |     min     |     max     |
 | "#MCParticles"                                  |        40 |      12134 |     303.35 |     132.85 |      30.000 |      577.00 |
Pack__Event_HLT2_MC_Vertices           INFO Number of counters : 1
 |    Counter                                      |     #     |    sum     | mean/eff^* | rms/err^*  |     min     |     max     |
 | "#MCVertices"                                   |        40 |       5184 |     129.60 |     54.479 |      16.000 |      248.00 |
ParticleRangeFilter_1b1f2df0           INFO Number of counters : 2
 |    Counter                                      |     #     |    sum     | mean/eff^* | rms/err^*  |     min     |     max     |
 |*"#passed"                                       |        40 |         39 |( 97.50000 +- 2.468552)% |
 |*"Cut selection efficiency"                      |      3385 |        577 |( 17.04579 +- 0.6463213)% |
ParticleRangeFilter_4d37dbca           INFO Number of counters : 1
 |    Counter                                      |     #     |    sum     | mean/eff^* | rms/err^*  |     min     |     max     |
 |*"#passed"                                       |        40 |          0 |( 0.000000 +- 0.000000)% |
ParticleRangeFilter_52218bde           INFO Number of counters : 2
 |    Counter                                      |     #     |    sum     | mean/eff^* | rms/err^*  |     min     |     max     |
 |*"#passed"                                       |        40 |         40 |( 100.0000 +- 0.000000)% |
 |*"Cut selection efficiency"                      |      3385 |       1202 |( 35.50960 +- 0.8225098)% |
ParticleRangeFilter_58aed00f           INFO Number of counters : 1
 |    Counter                                      |     #     |    sum     | mean/eff^* | rms/err^*  |     min     |     max     |
 |*"#passed"                                       |        40 |          0 |( 0.000000 +- 0.000000)% |
ParticleRangeFilter_64bddfed           INFO Number of counters : 1
 |    Counter                                      |     #     |    sum     | mean/eff^* | rms/err^*  |     min     |     max     |
 |*"#passed"                                       |        40 |          0 |( 0.000000 +- 0.000000)% |
ParticleRangeFilter_6cfecc89           INFO Number of counters : 2
 |    Counter                                      |     #     |    sum     | mean/eff^* | rms/err^*  |     min     |     max     |
 |*"#passed"                                       |        40 |         40 |( 100.0000 +- 0.000000)% |
 |*"Cut selection efficiency"                      |       468 |         95 |( 20.29915 +- 1.859291)% |
ParticleRangeFilter_84105c84           INFO Number of counters : 1
 |    Counter                                      |     #     |    sum     | mean/eff^* | rms/err^*  |     min     |     max     |
 |*"#passed"                                       |        40 |          0 |( 0.000000 +- 0.000000)% |
ParticleRangeFilter_841bdf0d           INFO Number of counters : 2
 |    Counter                                      |     #     |    sum     | mean/eff^* | rms/err^*  |     min     |     max     |
 |*"#passed"                                       |        40 |         40 |( 100.0000 +- 0.000000)% |
 |*"Cut selection efficiency"                      |      3385 |       2999 |( 88.59675 +- 0.5463159)% |
ParticleRangeFilter_8ba9fca9           INFO Number of counters : 2
 |    Counter                                      |     #     |    sum     | mean/eff^* | rms/err^*  |     min     |     max     |
 |*"#passed"                                       |        40 |         40 |( 100.0000 +- 0.000000)% |
 |*"Cut selection efficiency"                      |      3385 |       2067 |( 61.06352 +- 0.8380886)% |
ParticleRangeFilter_b2f18c4f           INFO Number of counters : 2
 |    Counter                                      |     #     |    sum     | mean/eff^* | rms/err^*  |     min     |     max     |
 |*"#passed"                                       |        40 |          6 |( 15.00000 +- 5.645795)% |
 |*"Cut selection efficiency"                      |      3618 |          9 |(0.2487562 +- 0.08281554)% |
ParticleRangeFilter_d0b80764           INFO Number of counters : 1
 |    Counter                                      |     #     |    sum     | mean/eff^* | rms/err^*  |     min     |     max     |
 |*"#passed"                                       |        40 |          0 |( 0.000000 +- 0.000000)% |
ParticleRangeFilter_e7b0b6a6           INFO Number of counters : 2
 |    Counter                                      |     #     |    sum     | mean/eff^* | rms/err^*  |     min     |     max     |
 |*"#passed"                                       |        40 |         40 |( 100.0000 +- 0.000000)% |
 |*"Cut selection efficiency"                      |      3385 |       2999 |( 88.59675 +- 0.5463159)% |
ParticleWithBremMaker_4c8d604e         INFO Number of counters : 1
 |    Counter                                      |     #     |    sum     | mean/eff^* | rms/err^*  |     min     |     max     |
 | "Nb of particles corrected with brem (including those without change)"|      3618 |
ParticleWithBremMaker_4c8d604e.S...    INFO Number of counters : 2
 |    Counter                                      |     #     |    sum     | mean/eff^* | rms/err^*  |     min     |     max     |
 | "Delta(E)"                                      |       293 |    1512520 |     5162.2 |     7537.6 |      30.428 |      62742. |
 | "Nb photons added to single electrons"          |      3618 |        293 |   0.080984 |    0.27281 |      0.0000 |      1.0000 |
PrCloneKillerSeed_ef902697             INFO Number of counters : 2
 |    Counter                                      |     #     |    sum     | mean/eff^* | rms/err^*  |     min     |     max     |
 | "nTracksInput"                                  |       100 |      16580 |     165.80 |
 | "nTracksSelected"                               |       100 |       8255 |     82.550 |
PrForwardTrackingVelo_e36730c9         INFO Number of counters : 10
 |    Counter                                      |     #     |    sum     | mean/eff^* | rms/err^*  |     min     |     max     |
 | "Accepted input tracks"                         |       100 |      18528 |     185.28 |
 | "Created long tracks"                           |       100 |      10158 |     101.58 |
 | "Input tracks"                                  |       100 |      19339 |     193.39 |
 | "Number of candidate bins per track"            |     18528 |     436297 |     23.548 |     35.888 |      0.0000 |      211.00 |
 | "Number of complete candidates/track 1st Loop"  |     17311 |      11575 |    0.66865 |    0.76578 |      0.0000 |      8.0000 |
 | "Number of complete candidates/track 2nd Loop"  |      9411 |       1109 |    0.11784 |    0.38075 |      0.0000 |      5.0000 |
 | "Number of x candidates per track 1st Loop"     |     17311 |      62541 |     3.6128 |     5.3616 |
 | "Number of x candidates per track 2nd Loop"     |      9411 |     108602 |     11.540 |     20.156 |
 | "Percentage second loop execution"              |     17311 |       9411 |    0.54364 |
 | "Removed duplicates"                            |       100 |        646 |     6.4600 |
PrHybridSeeding_97242385               INFO Number of counters : 21
 |    Counter                                      |     #     |    sum     | mean/eff^* | rms/err^*  |     min     |     max     |
 | "Created T2x1 three-hit combinations in case 0" |    403435 |     260307 |    0.64523 |    0.64926 |      0.0000 |      6.0000 |
 | "Created T2x1 three-hit combinations in case 1" |    552854 |     390364 |    0.70609 |    0.77467 |      0.0000 |      10.000 |
 | "Created T2x1 three-hit combinations in case 2" |    892748 |     814964 |    0.91287 |     1.0559 |      0.0000 |      21.000 |
 | "Created XZ tracks (part 0)"                    |       300 |      48828 |     162.76 |     362.25 |      2.0000 |      4348.0 |
 | "Created XZ tracks (part 1)"                    |       300 |      46852 |     156.17 |     312.38 |      1.0000 |      2819.0 |
 | "Created XZ tracks in case 0"                   |       200 |      26343 |     131.72 |     220.82 |      3.0000 |      1919.0 |
 | "Created XZ tracks in case 1"                   |       200 |      33001 |     165.00 |     321.44 |      1.0000 |      2784.0 |
 | "Created XZ tracks in case 2"                   |       200 |      36336 |     181.68 |     435.73 |      2.0000 |      4348.0 |
 | "Created full hit combinations in case 0"       |     51751 |      51751 |     1.0000 |     0.0000 |      1.0000 |      1.0000 |
 | "Created full hit combinations in case 1"       |     41973 |      41973 |     1.0000 |     0.0000 |      1.0000 |      1.0000 |
 | "Created full hit combinations in case 2"       |     59490 |      59490 |     1.0000 |     0.0000 |      1.0000 |      1.0000 |
 | "Created seed tracks"                           |       200 |      16580 |     82.900 |     71.082 |      4.0000 |      638.00 |
 | "Created seed tracks (part 0)"                  |       100 |       9405 |     94.050 |     80.639 |      7.0000 |      688.00 |
 | "Created seed tracks (part 1)"                  |       100 |       9135 |     91.350 |     75.798 |      5.0000 |      624.00 |
 | "Created seed tracks in case 0"                 |       200 |       8544 |     42.720 |     36.782 |      2.0000 |      331.00 |
 | "Created seed tracks in case 1"                 |       200 |      15282 |     76.410 |     59.988 |      4.0000 |      506.00 |
 | "Created seed tracks in case 2"                 |       200 |      17654 |     88.270 |     76.983 |      5.0000 |      681.00 |
 | "Created seed tracks in recovery step"          |       100 |        886 |     8.8600 |     5.6745 |      0.0000 |      25.000 |
 | "Created two-hit combinations in case 0"        |     40450 |    1230696 |     30.425 |     21.911 |      0.0000 |      131.00 |
 | "Created two-hit combinations in case 1"        |     36456 |    1528750 |     41.934 |     25.952 |      0.0000 |      178.00 |
 | "Created two-hit combinations in case 2"        |     29775 |    1920105 |     64.487 |     40.455 |      1.0000 |      254.00 |
PrKalmanFilterForward_6e770b57         INFO Number of counters : 6
 |    Counter                                      |     #     |    sum     | mean/eff^* | rms/err^*  |     min     |     max     |
 | "Pre outlier chi2 cut"                          |       414 |
 | "chi2 cut"                                      |       852 |
 | "nIterations"                                   |      2640 |       7388 |     2.7985 |
 | "nOutlierIterations"                            |      2226 |       2783 |     1.2502 |
 | "nTracksInput"                                  |       100 |       2640 |     26.400 |
 | "nTracksOutput"                                 |       100 |       1374 |     13.740 |
PrKalmanFilterMatch_245db08f           INFO Number of counters : 6
 |    Counter                                      |     #     |    sum     | mean/eff^* | rms/err^*  |     min     |     max     |
 | "Pre outlier chi2 cut"                          |       232 |
 | "chi2 cut"                                      |       942 |
 | "nIterations"                                   |      9810 |      21428 |     2.1843 |
 | "nOutlierIterations"                            |      9578 |       6970 |    0.72771 |
 | "nTracksInput"                                  |       100 |       9810 |     98.100 |
 | "nTracksOutput"                                 |       100 |       8636 |     86.360 |
PrLHCbID2MCParticleVPUTFTMU_28d1...    INFO Number of counters : 1
 |    Counter                                      |     #     |    sum     | mean/eff^* | rms/err^*  |     min     |     max     |
 | "#removed null MCParticles"                     |    362578 |        389 |  0.0010729 |
PrMatchNN_32a5c5c3                     INFO Number of counters : 3
 |    Counter                                      |     #     |    sum     | mean/eff^* | rms/err^*  |     min     |     max     |
 | "#MatchingChi2"                                 |       100 |   201459.7 |     2014.6 |
 | "#MatchingMLP"                                  |      9810 |   8098.018 |    0.82549 |
 | "#MatchingTracks"                               |       100 |       9810 |     98.100 |
PrStoreSciFiHits_fb0eba02              INFO Number of counters : 25
 |    Counter                                      |     #     |    sum     | mean/eff^* | rms/err^*  |     min     |     max     |
 | "Average X in T1U"                              |     41087 |   -1069904 |    -26.040 |     1194.6 |     -2656.2 |      2656.2 |
 | "Average X in T1V"                              |     41987 |    -106446 |    -2.5352 |     1182.7 |     -2656.1 |      2656.2 |
 | "Average X in T1X1"                             |     40450 |  -853725.1 |    -21.106 |     1211.4 |     -2646.1 |      2645.2 |
 | "Average X in T1X2"                             |     42408 |   168563.1 |     3.9748 |     1182.9 |     -2646.1 |      2646.0 |
 | "Average X in T2U"                              |     40289 |  -453979.4 |    -11.268 |     1201.2 |     -2656.0 |      2656.0 |
 | "Average X in T2V"                              |     41164 |  -406223.5 |    -9.8684 |     1192.8 |     -2656.2 |      2656.0 |
 | "Average X in T2X1"                             |     38853 |    -503772 |    -12.966 |     1208.9 |     -2645.9 |      2645.9 |
 | "Average X in T2X2"                             |     42306 |  -148664.1 |    -3.5140 |     1185.7 |     -2646.1 |      2645.5 |
 | "Average X in T3U"                              |     44420 |  -128347.8 |    -2.8894 |     1432.4 |     -3187.9 |      3188.3 |
 | "Average X in T3V"                              |     45380 |  -146329.5 |    -3.2245 |     1423.2 |     -3188.2 |      3188.4 |
 | "Average X in T3X1"                             |     42428 |   207997.5 |     4.9024 |     1432.4 |     -3175.9 |      3175.2 |
 | "Average X in T3X2"                             |     46425 |  -553485.2 |    -11.922 |     1404.9 |     -3175.9 |      3175.9 |
 | "Hits in T1U"                                   |       400 |      41087 |     102.72 |     42.277 |      21.000 |      269.00 |
 | "Hits in T1V"                                   |       400 |      41987 |     104.97 |     44.709 |      21.000 |      272.00 |
 | "Hits in T1X1"                                  |       400 |      40450 |     101.12 |     41.215 |      24.000 |      267.00 |
 | "Hits in T1X2"                                  |       400 |      42408 |     106.02 |     44.245 |      26.000 |      274.00 |
 | "Hits in T2U"                                   |       400 |      40289 |     100.72 |     42.236 |      32.000 |      260.00 |
 | "Hits in T2V"                                   |       400 |      41164 |     102.91 |     42.025 |      21.000 |      264.00 |
 | "Hits in T2X1"                                  |       400 |      38853 |     97.132 |     38.601 |      21.000 |      243.00 |
 | "Hits in T2X2"                                  |       400 |      42306 |     105.77 |     42.961 |      26.000 |      275.00 |
 | "Hits in T3U"                                   |       400 |      44420 |     111.05 |     45.036 |      29.000 |      290.00 |
 | "Hits in T3V"                                   |       400 |      45380 |     113.45 |     45.548 |      34.000 |      296.00 |
 | "Hits in T3X1"                                  |       400 |      42428 |     106.07 |     42.504 |      22.000 |      280.00 |
 | "Hits in T3X2"                                  |       400 |      46425 |     116.06 |     47.592 |      21.000 |      307.00 |
 | "Total number of hits"                          |       100 |     507197 |     5072.0 |     1928.5 |      1784.0 |      12379. |
PrStoreUTHitClusters_69298ec0          INFO Number of counters : 3
 |    Counter                                      |     #     |    sum     | mean/eff^* | rms/err^*  |     min     |     max     |
 | "# RawBank::UT banks"                           |        40 |       8640 |     216.00 |
 | "# RawBank::UTError banks"                      |        40 |          0 |     0.0000 |
 |*"Non-unique UT clusters in event"               |        40 |          0 |( 0.000000 +- 0.000000)% |
PrTrackAssociator_c955b3bf             INFO Number of counters : 2
 |    Counter                                      |     #     |    sum     | mean/eff^* | rms/err^*  |     min     |     max     |
 |*"Efficiency"                                    |      3618 |       3095 |( 85.54450 +- 0.5846263)% |
 | "MC particles per track"                        |      3095 |       3638 |     1.1754 |
PrVPHitsToVPLightClusters_f4088b5d     INFO Number of counters : 1
 |    Counter                                      |     #     |    sum     | mean/eff^* | rms/err^*  |     min     |     max     |
 | "Nb of Produced Clusters"                       |       100 |     229661 |     2296.6 |
Run2OSElectronTagger_1f50846e          INFO Number of counters : 3
 |    Counter                                      |     #     |    sum     | mean/eff^* | rms/err^*  |     min     |     max     |
 | "#BCandidates"                                  |         4 |          5 |     1.2500 |
 |*"#goodFlavourTags"                              |         1 |          1 |( 100.0000 +- 0.000000)% |
 | "#taggingElectrons"                             |         4 |          1 |    0.25000 |
Run2OSElectronTagger_b2e0048a          INFO Number of counters : 3
 |    Counter                                      |     #     |    sum     | mean/eff^* | rms/err^*  |     min     |     max     |
 | "#BCandidates"                                  |        40 |         45 |     1.1250 |
 |*"#goodFlavourTags"                              |         8 |          4 |( 50.00000 +- 17.67767)% |
 | "#taggingElectrons"                             |        40 |          7 |    0.17500 |
Run2OSKaonTagger_1a0f940c              INFO Number of counters : 3
 |    Counter                                      |     #     |    sum     | mean/eff^* | rms/err^*  |     min     |     max     |
 | "#BCandidates"                                  |         4 |          5 |     1.2500 |
 |*"#goodFlavourTags"                              |         5 |          3 |( 60.00000 +- 21.90890)% |
 | "#taggingKaons"                                 |         4 |        203 |     50.750 |
Run2OSKaonTagger_288fe2fd              INFO Number of counters : 3
 |    Counter                                      |     #     |    sum     | mean/eff^* | rms/err^*  |     min     |     max     |
 | "#BCandidates"                                  |        40 |         45 |     1.1250 |
 |*"#goodFlavourTags"                              |        45 |         13 |( 28.88889 +- 6.756595)% |
 | "#taggingKaons"                                 |        40 |       2002 |     50.050 |
Run2OSMuonTagger_c1a5e595              INFO Number of counters : 3
 |    Counter                                      |     #     |    sum     | mean/eff^* | rms/err^*  |     min     |     max     |
 | "#BCandidates"                                  |        40 |         45 |     1.1250 |
 | "#goodFlavourTags"                              |        45 |          1 |   0.022222 |
 | "#taggingKaons"                                 |        40 |         95 |     2.3750 |
Run2OSMuonTagger_dfd1992f              INFO Number of counters : 3
 |    Counter                                      |     #     |    sum     | mean/eff^* | rms/err^*  |     min     |     max     |
 | "#BCandidates"                                  |         4 |          5 |     1.2500 |
 | "#goodFlavourTags"                              |         5 |          0 |     0.0000 |
 | "#taggingKaons"                                 |         4 |         11 |     2.7500 |
Run2OSVertexChargeTagger_a3d878f1      INFO Number of counters : 3
 |    Counter                                      |     #     |    sum     | mean/eff^* | rms/err^*  |     min     |     max     |
 | "#BCandidates"                                  |        40 |         45 |     1.1250 |
 |*"#goodFlavourTags"                              |        45 |          9 |( 20.00000 +- 5.962848)% |
 | "#taggingParticles"                             |        40 |       2851 |     71.275 |
Run2OSVertexChargeTagger_a3d878f...    INFO Number of counters : 3
 |    Counter                                      |     #     |    sum     | mean/eff^* | rms/err^*  |     min     |     max     |
 | "#iterations/1"                                 |       319 |        433 |     1.3574 |    0.47922 |      1.0000 |      2.0000 |
 | "#iterations/2"                                 |       114 |        228 |     2.0000 |     0.0000 |      2.0000 |      2.0000 |
 | "#iterations/Opt"                               |       319 |        114 |    0.35737 |    0.47922 |      0.0000 |      1.0000 |
Run2OSVertexChargeTagger_cc53e43b      INFO Number of counters : 3
 |    Counter                                      |     #     |    sum     | mean/eff^* | rms/err^*  |     min     |     max     |
 | "#BCandidates"                                  |         4 |          5 |     1.2500 |
 |*"#goodFlavourTags"                              |         5 |          3 |( 60.00000 +- 21.90890)% |
 | "#taggingParticles"                             |         4 |        292 |     73.000 |
Run2OSVertexChargeTagger_cc53e43...    INFO Number of counters : 3
 |    Counter                                      |     #     |    sum     | mean/eff^* | rms/err^*  |     min     |     max     |
 | "#iterations/1"                                 |        69 |         91 |     1.3188 |    0.46603 |      1.0000 |      2.0000 |
 | "#iterations/2"                                 |        22 |         44 |     2.0000 |     0.0000 |      2.0000 |      2.0000 |
 | "#iterations/Opt"                               |        69 |         22 |    0.31884 |    0.46603 |      0.0000 |      1.0000 |
Run2SSKaonTagger_e9c3b5ab              INFO Number of counters : 3
 |    Counter                                      |     #     |    sum     | mean/eff^* | rms/err^*  |     min     |     max     |
 | "#BCandidates"                                  |        40 |         45 |     1.1250 |
 |*"#goodFlavourTags"                              |        45 |         23 |( 51.11111 +- 7.451719)% |
 | "#taggingKaons"                                 |        40 |       2851 |     71.275 |
Run2SSKaonTagger_eab644a6              INFO Number of counters : 3
 |    Counter                                      |     #     |    sum     | mean/eff^* | rms/err^*  |     min     |     max     |
 | "#BCandidates"                                  |         4 |          5 |     1.2500 |
 |*"#goodFlavourTags"                              |         5 |          3 |( 60.00000 +- 21.90890)% |
 | "#taggingKaons"                                 |         4 |        292 |     73.000 |
Run2SSPionTagger_ba30a1b6              INFO Number of counters : 3
 |    Counter                                      |     #     |    sum     | mean/eff^* | rms/err^*  |     min     |     max     |
 | "#BCandidates"                                  |        40 |         45 |     1.1250 |
 |*"#goodFlavourTags"                              |        45 |         24 |( 53.33333 +- 7.436978)% |
 | "#taggingPions"                                 |        40 |       1192 |     29.800 |
Run2SSPionTagger_ba30a1b6.Taggin...    INFO Number of counters : 3
 |    Counter                                      |     #     |    sum     | mean/eff^* | rms/err^*  |     min     |     max     |
 | "#iterations/1"                                 |        53 |         58 |     1.0943 |    0.29230 |      1.0000 |      2.0000 |
 | "#iterations/2"                                 |         5 |         10 |     2.0000 |     0.0000 |      2.0000 |      2.0000 |
 | "#iterations/Opt"                               |        53 |          5 |   0.094340 |    0.29230 |      0.0000 |      1.0000 |
Run2SSPionTagger_edf31242              INFO Number of counters : 3
 |    Counter                                      |     #     |    sum     | mean/eff^* | rms/err^*  |     min     |     max     |
 | "#BCandidates"                                  |         4 |          5 |     1.2500 |
 |*"#goodFlavourTags"                              |         5 |          4 |( 80.00000 +- 17.88854)% |
 | "#taggingPions"                                 |         4 |        133 |     33.250 |
Run2SSPionTagger_edf31242.Taggin...    INFO Number of counters : 3
 |    Counter                                      |     #     |    sum     | mean/eff^* | rms/err^*  |     min     |     max     |
 | "#iterations/1"                                 |         9 |         11 |     1.2222 |    0.41574 |      1.0000 |      2.0000 |
 | "#iterations/2"                                 |         2 |          4 |     2.0000 |     0.0000 |      2.0000 |      2.0000 |
 | "#iterations/Opt"                               |         9 |          2 |    0.22222 |    0.41574 |      0.0000 |      1.0000 |
Run2SSProtonTagger_4cb84e67            INFO Number of counters : 7
 |    Counter                                      |     #     |    sum     | mean/eff^* | rms/err^*  |     min     |     max     |
 | "#BCandidates"                                  |        40 |         45 |     1.1250 |
 | "#BCandidates2"                                 |        45 |         45 |     1.0000 |
 | "#Zero Bs"                                      |         1 |          0 |     0.0000 |
 | "#allFlavourTags"                               |        45 |         44 |    0.97778 |
 |*"#goodFlavourTags"                              |        44 |         24 |( 54.54545 +- 7.506571)% |
 | "#no tagresult"                                 |        20 |         20 |     1.0000 |
 | "#taggingProtons"                               |        40 |        570 |     14.250 |
Run2SSProtonTagger_4cb84e67.Tagg...    INFO Number of counters : 3
 |    Counter                                      |     #     |    sum     | mean/eff^* | rms/err^*  |     min     |     max     |
 | "#iterations/1"                                 |        46 |         69 |     1.5000 |    0.58048 |      1.0000 |      3.0000 |
 | "#iterations/2"                                 |        22 |         47 |     2.1364 |    0.34317 |      2.0000 |      3.0000 |
 | "#iterations/Opt"                               |        47 |         25 |    0.53191 |    0.61371 |      0.0000 |      2.0000 |
Run2SSProtonTagger_dc9ab892            INFO Number of counters : 6
 |    Counter                                      |     #     |    sum     | mean/eff^* | rms/err^*  |     min     |     max     |
 | "#BCandidates"                                  |         4 |          5 |     1.2500 |
 | "#BCandidates2"                                 |         5 |          5 |     1.0000 |
 | "#allFlavourTags"                               |         5 |          5 |     1.0000 |
 |*"#goodFlavourTags"                              |         5 |          4 |( 80.00000 +- 17.88854)% |
 | "#no tagresult"                                 |         1 |          1 |     1.0000 |
 | "#taggingProtons"                               |         4 |         57 |     14.250 |
Run2SSProtonTagger_dc9ab892.Tagg...    INFO Number of counters : 3
 |    Counter                                      |     #     |    sum     | mean/eff^* | rms/err^*  |     min     |     max     |
 | "#iterations/1"                                 |         5 |          8 |     1.6000 |    0.48990 |      1.0000 |      2.0000 |
 | "#iterations/2"                                 |         4 |          9 |     2.2500 |    0.43301 |      2.0000 |      3.0000 |
 | "#iterations/Opt"                               |         6 |          5 |    0.83333 |    0.68718 |      0.0000 |      2.0000 |
SelectHlt1HltDecReports                INFO Number of counters : 1
 |    Counter                                      |     #     |    sum     | mean/eff^* | rms/err^*  |     min     |     max     |
 |*"Number of selected banks"                      |        40 |          0 |( 0.000000 +- 0.000000)% |
SelectHlt1HltRoutingBits               INFO Number of counters : 1
 |    Counter                                      |     #     |    sum     | mean/eff^* | rms/err^*  |     min     |     max     |
 |*"Number of selected banks"                      |        40 |          0 |( 0.000000 +- 0.000000)% |
SelectHlt1HltSelReports                INFO Number of counters : 1
 |    Counter                                      |     #     |    sum     | mean/eff^* | rms/err^*  |     min     |     max     |
 |*"Number of selected banks"                      |        40 |          0 |( 0.000000 +- 0.000000)% |
SelectiveCombineRawBanks_for_def...    INFO Number of counters : 3
 |    Counter                                      |     #     |    sum     | mean/eff^* | rms/err^*  |     min     |     max     |
 | "Empty RawBank::View"                           |       320 |          0 |     0.0000 |     0.0000 | 1.7977e+308 |-1.7977e+308 |
TBTCForward_c0049665                   INFO Number of counters : 3
 |    Counter                                      |     #     |    sum     | mean/eff^* | rms/err^*  |     min     |     max     |
 |*"BadInput"                                      |      1282 |          0 |( 0.000000 +- 0.000000)% |
 |*"FitFailed"                                     |      1282 |          0 |( 0.000000 +- 0.000000)% |
 | "FittedBefore"                                  |      1282 |
TBTC_Match_a0c7d856                    INFO Number of counters : 3
 |    Counter                                      |     #     |    sum     | mean/eff^* | rms/err^*  |     min     |     max     |
 |*"BadInput"                                      |      7962 |          0 |( 0.000000 +- 0.000000)% |
 |*"FitFailed"                                     |      7962 |          0 |( 0.000000 +- 0.000000)% |
 | "FittedBefore"                                  |      7962 |
Test_Jpsi2MuMuMaker                    INFO Number of counters : 7
 |    Counter                                      |     #     |    sum     | mean/eff^* | rms/err^*  |     min     |     max     |
 |*"# passed"                                      |       100 |         58 |( 58.00000 +- 4.935585)% |
 |*"# passed CombinationCut"                       |       192 |         62 |( 32.29167 +- 3.374549)% |
 |*"# passed CompositeCut"                         |        62 |         60 |( 96.77419 +- 2.243898)% |
 |*"# passed vertex fit"                           |        62 |         62 |( 100.0000 +- 0.000000)% |
 | "Input1 size"                                   |       100 |        264 |     2.6400 |
 | "Input2 size"                                   |       100 |        264 |     2.6400 |
 | "candidate multiplicity"                        |        58 |         60 |     1.0345 |    0.18247 |      1.0000 |      2.0000 |
TrackBeamLineVertexFinderSoA_f48...    INFO Number of counters : 3
 |    Counter                                      |     #     |    sum     | mean/eff^* | rms/err^*  |     min     |     max     |
 |*"Fraction of failed PV fits"                    |       573 |          0 |( 0.000000 +- 0.000000)% |
 |*"Fraction of unconverged PV fits"               |       573 |         47 |( 8.202443 +- 1.146331)% |
 | "Nb PVs"                                        |       100 |        569 |     5.6900 |
UTHitClustersToUTHitHandlerConve...    INFO Number of counters : 1
 |    Counter                                      |     #     |    sum     | mean/eff^* | rms/err^*  |     min     |     max     |
 | "# Converted Clusters"                          |        40 |      57063 |     1426.6 |
VPLightClustersToVPMicroClusters...    INFO Number of counters : 1
 |    Counter                                      |     #     |    sum     | mean/eff^* | rms/err^*  |     min     |     max     |
 | "# Converted Clusters"                          |       100 |     229661 |     2296.6 |
VeloClusterTrackingSIMD_9d6e67b1       INFO Number of counters : 2
 |    Counter                                      |     #     |    sum     | mean/eff^* | rms/err^*  |     min     |     max     |
 | "Nb of Produced Clusters"                       |       100 |     229661 |     2296.6 |
 | "Nb of Produced Tracks"                         |       100 |      29398 |     293.98 |
b_hadron_16f1517a                      INFO Number of counters : 8
 |    Counter                                      |     #     |    sum     | mean/eff^* | rms/err^*  |     min     |     max     |
 |*"# passed"                                      |       100 |         40 |( 40.00000 +- 4.898979)% |
 |*"# passed CombinationCut"                       |      1832 |        202 |( 11.02620 +- 0.7317813)% |
 |*"# passed CompositeCut"                         |       202 |         45 |( 22.27723 +- 2.927717)% |
 |*"# passed vertex fit"                           |       202 |        202 |( 100.0000 +- 0.000000)% |
 | "Input1 size"                                   |       100 |         60 |    0.60000 |
 | "Input2 size"                                   |       100 |       2981 |     29.810 |
 | "Lifetime fit did not converge. Aborting."      |         5 |
 | "candidate multiplicity"                        |        40 |         45 |     1.1250 |    0.45758 |      1.0000 |      3.0000 |
b_hadron_447cea35                      INFO Number of counters : 8
 |    Counter                                      |     #     |    sum     | mean/eff^* | rms/err^*  |     min     |     max     |
 |*"# passed"                                      |       100 |          4 |( 4.000000 +- 1.959592)% |
 |*"# passed CombinationCut"                       |      1832 |        202 |( 11.02620 +- 0.7317813)% |
 |*"# passed CompositeCut"                         |       202 |          5 |( 2.475248 +- 1.093178)% |
 |*"# passed vertex fit"                           |       202 |        202 |( 100.0000 +- 0.000000)% |
 | "Input1 size"                                   |       100 |         60 |    0.60000 |
 | "Input2 size"                                   |       100 |       2981 |     29.810 |
 | "Lifetime fit did not converge. Aborting."      |         1 |
 | "candidate multiplicity"                        |         4 |          5 |     1.2500 |    0.43301 |      1.0000 |      2.0000 |
detached_kaons_7c23687c                INFO Number of counters : 2
 |    Counter                                      |     #     |    sum     | mean/eff^* | rms/err^*  |     min     |     max     |
 |*"#passed"                                       |       100 |        100 |( 100.0000 +- 0.000000)% |
 |*"Cut selection efficiency"                      |      8673 |       2981 |( 34.37104 +- 0.5099874)% |
fromPrSeedingTracksV1Tracks_2096...    INFO Number of counters : 1
 |    Counter                                      |     #     |    sum     | mean/eff^* | rms/err^*  |     min     |     max     |
 | "Nb of converted Tracks"                        |       100 |       8255 |     82.550 |
fromPrVeloTracksV1TracksMerger_d...    INFO Number of counters : 1
 |    Counter                                      |     #     |    sum     | mean/eff^* | rms/err^*  |     min     |     max     |
 | "Nb of converted Tracks"                        |       100 |      29398 |     293.98 |
fromV2MuonPIDV1MuonPIDLong_e60c416d    INFO Number of counters : 1
 |    Counter                                      |     #     |    sum     | mean/eff^* | rms/err^*  |     min     |     max     |
 | "Nb of Produced MuonPIDs"                       |       100 |       9244 |     92.440 |
require_pvs                            INFO Number of counters : 1
 |    Counter                                      |     #     |    sum     | mean/eff^* | rms/err^*  |     min     |     max     |
 |*"Cut selection efficiency"                      |       100 |        100 |( 100.0000 +- 0.000000)% |
GlobalMonitor__Hlt2Test_B2JpsiKM...    INFO 1D histograms in directory "GlobalMonitor__Hlt2Test_B2JpsiKModified_withFlavourTagging" : 1
 | ID                                                                               | Title                                                                            |      #     |     Mean   |    RMS     |  Skewness  |  Kurtosis  |
 | /Hlt2Test_B2JpsiKModified_withFlavourTagging/n_candidates                        | "Monitor_Hlt2Test_B2JpsiKModified_withFlavourTagging_n_candidates"               |          4 |       1.75 | 0.43301    |     1.1547 |   -0.66667 |
GlobalMonitor__Hlt2Test_B2JpsiK_...    INFO 1D histograms in directory "GlobalMonitor__Hlt2Test_B2JpsiK_withFlavourTagging" : 1
 | ID                                                                               | Title                                                                            |      #     |     Mean   |    RMS     |  Skewness  |  Kurtosis  |
 | /Hlt2Test_B2JpsiK_withFlavourTagging/n_candidates                                | "Monitor_Hlt2Test_B2JpsiK_withFlavourTagging_n_candidates"                       |         40 |      1.625 | 0.45758    |     3.5962 |     11.436 |
HLT2DecReportsMonitor                  INFO 1D histograms in directory "HLT2DecReportsMonitor" : 2
 | ID                                                                               | Title                                                                            |      #     |     Mean   |    RMS     |  Skewness  |  Kurtosis  |
 | pass_count                                                                       | "Number of positive decisions"                                                   |         26 |        1.5 | 0.0000     |          0 |          0 |
 | pass_count_ul                                                                    | "Number of positive decisions"                                                   |         26 |          1 | 0.0000     |          0 |          0 |
Monitor__Hlt2Test_B2JpsiKModifie...    INFO 1D histograms in directory "Monitor__Hlt2Test_B2JpsiKModified_withFlavourTagging" : 5
 | ID                                                                               | Title                                                                            |      #     |     Mean   |    RMS     |  Skewness  |  Kurtosis  |
 | /Hlt2Test_B2JpsiKModified_withFlavourTagging/eta                                 | "Monitor_Hlt2Test_B2JpsiKModified_withFlavourTagging_eta"                        |          5 |       3.65 | 0.29665    |   -0.27581 |    -1.7087 |
 | /Hlt2Test_B2JpsiKModified_withFlavourTagging/ipchi2                              | "Monitor_Hlt2Test_B2JpsiKModified_withFlavourTagging_ipchi2"                     |          5 |     79.688 | 120.46     |     1.4904 |    0.23774 |
 | /Hlt2Test_B2JpsiKModified_withFlavourTagging/m                                   | "Monitor_Hlt2Test_B2JpsiKModified_withFlavourTagging_m"                          |          5 |     5431.1 | 54.713     |    0.24777 |    -1.7156 |
 | /Hlt2Test_B2JpsiKModified_withFlavourTagging/pt                                  | "Monitor_Hlt2Test_B2JpsiKModified_withFlavourTagging_pt"                         |          5 |       6150 | 3541.2     |    0.99621 |   -0.27583 |
 | /Hlt2Test_B2JpsiKModified_withFlavourTagging/vchi2                               | "Monitor_Hlt2Test_B2JpsiKModified_withFlavourTagging_vchi2"                      |          5 |     9.9688 | 5.3968     |     0.3863 |     -1.662 |
Monitor__Hlt2Test_B2JpsiK_withFl...    INFO 1D histograms in directory "Monitor__Hlt2Test_B2JpsiK_withFlavourTagging" : 5
 | ID                                                                               | Title                                                                            |      #     |     Mean   |    RMS     |  Skewness  |  Kurtosis  |
 | /Hlt2Test_B2JpsiK_withFlavourTagging/eta                                         | "Monitor_Hlt2Test_B2JpsiK_withFlavourTagging_eta"                                |         45 |     3.5477 | 0.65104    |    0.19817 |    0.65109 |
 | /Hlt2Test_B2JpsiK_withFlavourTagging/ipchi2                                      | "Monitor_Hlt2Test_B2JpsiK_withFlavourTagging_ipchi2"                             |         45 |     18.229 | 46.701     |     6.0362 |      35.94 |
 | /Hlt2Test_B2JpsiK_withFlavourTagging/m                                           | "Monitor_Hlt2Test_B2JpsiK_withFlavourTagging_m"                                  |         45 |     5293.4 | 62.534     |     1.3025 |     3.2464 |
 | /Hlt2Test_B2JpsiK_withFlavourTagging/pt                                          | "Monitor_Hlt2Test_B2JpsiK_withFlavourTagging_pt"                                 |         45 |     5827.8 | 4077.0     |     1.1307 |     0.9082 |
 | /Hlt2Test_B2JpsiK_withFlavourTagging/vchi2                                       | "Monitor_Hlt2Test_B2JpsiK_withFlavourTagging_vchi2"                              |         45 |     3.2535 | 4.3660     |     1.9163 |     2.7523 |
HLT2DecReportsMonitor                  INFO 1D profile histograms in directory "HLT2DecReportsMonitor" : 2
 | ID                                                                               | Title                                                                            |      #     |     Mean   |    RMS     |  Skewness  |  Kurtosis  |
 | pass_frac                                                                        | "Accept fraction per decision"                                                   |         26 |        1.5 | 0.0000     |          0 |          0 |
 | pass_frac_ul                                                                     | "Accept fraction per decision"                                                   |         26 |          1 | 0.0000     |          0 |          0 |
