VeloUTTrackChecker_36982bf4            INFO Results
VeloUTTrackChecker_36982bf4            INFO **** VeloUT                                     1733 tracks including            243 ghosts [14.02 %], Event average 13.02 % ****
VeloUTTrackChecker_36982bf4            INFO   01_velo                                  :    1415 from     7233 [ 19.56 %]     20 clones [ 1.39 %], purity: 98.89 %, hitEff: 87.25 %
VeloUTTrackChecker_36982bf4            INFO   02_velo+UT                               :    1412 from     6261 [ 22.55 %]     20 clones [ 1.40 %], purity: 98.91 %, hitEff: 87.22 %
VeloUTTrackChecker_36982bf4            INFO   03_velo+UT_P>5GeV                        :     741 from     3289 [ 22.53 %]     12 clones [ 1.59 %], purity: 98.96 %, hitEff: 89.29 %
VeloUTTrackChecker_36982bf4            INFO   04_velo+notLong                          :     298 from     3050 [  9.77 %]      8 clones [ 2.61 %], purity: 98.35 %, hitEff: 84.58 %
VeloUTTrackChecker_36982bf4            INFO   05_velo+UT+notLong                       :     295 from     2132 [ 13.84 %]      8 clones [ 2.64 %], purity: 98.44 %, hitEff: 84.42 %
VeloUTTrackChecker_36982bf4            INFO   05_velo+UT+notLong_electron              :       5 from      825 [  0.61 %]      0 clones [ 0.00 %], purity: 96.18 %, hitEff: 85.00 %
VeloUTTrackChecker_36982bf4            INFO   05_velo+UT+notLong_electron_pairprod     :       5 from      757 [  0.66 %]      0 clones [ 0.00 %], purity: 96.18 %, hitEff: 85.00 %
VeloUTTrackChecker_36982bf4            INFO   05_velo+UT+notLong_fromB                 :      22 from      106 [ 20.75 %]      0 clones [ 0.00 %], purity: 99.31 %, hitEff: 81.14 %
VeloUTTrackChecker_36982bf4            INFO   05_velo+UT+notLong_fromB_electron        :       0 from       38 [  0.00 %]      0 clones [ 0.00 %], purity:  0.00 %, hitEff:  0.00 %
VeloUTTrackChecker_36982bf4            INFO   05_velo+UT+notLong_fromD                 :      13 from       72 [ 18.06 %]      0 clones [ 0.00 %], purity: 98.38 %, hitEff: 77.69 %
VeloUTTrackChecker_36982bf4            INFO   05_velo+UT+notLong_fromD_electron        :       0 from       27 [  0.00 %]      0 clones [ 0.00 %], purity:  0.00 %, hitEff:  0.00 %
VeloUTTrackChecker_36982bf4            INFO   06_velo+UT+notLong_P>5GeV                :      93 from      573 [ 16.23 %]      4 clones [ 4.12 %], purity: 98.68 %, hitEff: 89.14 %
VeloUTTrackChecker_36982bf4            INFO   06_velo+UT+notLong_electron_P>5GeV       :       0 from       38 [  0.00 %]      0 clones [ 0.00 %], purity:  0.00 %, hitEff:  0.00 %
VeloUTTrackChecker_36982bf4            INFO   07_long                                  :    1117 from     4183 [ 26.70 %]     12 clones [ 1.06 %], purity: 99.04 %, hitEff: 87.97 %
VeloUTTrackChecker_36982bf4            INFO   07_long_strange                          :      50 from      240 [ 20.83 %]      0 clones [ 0.00 %], purity: 98.27 %, hitEff: 84.30 %
VeloUTTrackChecker_36982bf4            INFO   08_long_P>5GeV                           :     648 from     2759 [ 23.49 %]      8 clones [ 1.22 %], purity: 99.00 %, hitEff: 89.32 %
VeloUTTrackChecker_36982bf4            INFO   08_long_strange_P>5GeV                   :      19 from      114 [ 16.67 %]      0 clones [ 0.00 %], purity: 97.62 %, hitEff: 85.53 %
VeloUTTrackChecker_36982bf4            INFO   09_long_fromB                            :     106 from      326 [ 32.52 %]      1 clones [ 0.93 %], purity: 98.68 %, hitEff: 87.54 %
VeloUTTrackChecker_36982bf4            INFO   09_long_fromD                            :      41 from      132 [ 31.06 %]      0 clones [ 0.00 %], purity: 98.26 %, hitEff: 88.13 %
VeloUTTrackChecker_36982bf4            INFO   10_long_fromB_P>5GeV                     :      93 from      267 [ 34.83 %]      1 clones [ 1.06 %], purity: 98.58 %, hitEff: 87.73 %
VeloUTTrackChecker_36982bf4            INFO   10_long_fromD_P>5GeV                     :      31 from       95 [ 32.63 %]      0 clones [ 0.00 %], purity: 97.95 %, hitEff: 87.85 %
VeloUTTrackChecker_36982bf4            INFO   11_long_electrons                        :      27 from      289 [  9.34 %]      1 clones [ 3.57 %], purity: 96.22 %, hitEff: 76.85 %
VeloUTTrackChecker_36982bf4            INFO   12_long_fromB_electrons                  :       3 from       22 [ 13.64 %]      0 clones [ 0.00 %], purity: 93.02 %, hitEff: 72.22 %
VeloUTTrackChecker_36982bf4            INFO   13_long_fromB_electrons_P>5GeV           :       2 from       13 [ 15.38 %]      0 clones [ 0.00 %], purity: 96.67 %, hitEff: 83.33 %
VeloUTTrackChecker_36982bf4            INFO   14_long_fromB_P>3GeV_Pt>0.5GeV           :      96 from      238 [ 40.34 %]      1 clones [ 1.03 %], purity: 98.68 %, hitEff: 87.94 %
VeloUTTrackChecker_36982bf4            INFO   14_long_fromB_electrons_P>3GeV_Pt>0.5GeV :       1 from        5 [ 20.00 %]      0 clones [ 0.00 %], purity:100.00 %, hitEff:100.00 %
VeloUTTrackChecker_36982bf4            INFO   14_long_fromD_P>3GeV_Pt>0.5GeV           :      33 from       77 [ 42.86 %]      0 clones [ 0.00 %], purity: 98.06 %, hitEff: 88.08 %
VeloUTTrackChecker_36982bf4            INFO   14_long_strange_P>3GeV_Pt>0.5GeV         :      22 from       64 [ 34.38 %]      0 clones [ 0.00 %], purity: 97.84 %, hitEff: 89.09 %
VeloUTTrackChecker_36982bf4            INFO   15_UT_long_fromB_P>3GeV_Pt>0.5GeV        :      96 from      238 [ 40.34 %]      1 clones [ 1.03 %], purity: 98.68 %, hitEff: 87.94 %
VeloUTTrackChecker_36982bf4            INFO
ApplicationMgr                         INFO Application Manager Finalized successfully
ApplicationMgr                         INFO Application Manager Terminated successfully
DefaultGECFilter                       INFO Number of counters : 2
 |    Counter                                      |     #     |    sum     | mean/eff^* | rms/err^*  |     min     |     max     |
 | "Nb Events Processed"                           |       100 |
 | "Nb events removed"                             |        37 |
HLTControlFlowMgr                      INFO Number of counters : 1
 |    Counter                                      |     #     |    sum     | mean/eff^* | rms/err^*  |     min     |     max     |
 | "Processed events"                              |       100 |
PrLHCbID2MCParticleVPUT_e30f8465       INFO Number of counters : 1
 |    Counter                                      |     #     |    sum     | mean/eff^* | rms/err^*  |     min     |     max     |
 | "#removed null MCParticles"                     |    221348 |          0 |     0.0000 |
PrStoreUTHitClusters_69298ec0          INFO Number of counters : 3
 |    Counter                                      |     #     |    sum     | mean/eff^* | rms/err^*  |     min     |     max     |
 | "# RawBank::UT banks"                           |        63 |      13608 |     216.00 |
 | "# RawBank::UTError banks"                      |        63 |          0 |     0.0000 |
 |*"Non-unique UT clusters in event"               |        63 |          0 |( 0.000000 +- 0.000000)% |
PrTrackAssociator_66bf5ec4             INFO Number of counters : 2
 |    Counter                                      |     #     |    sum     | mean/eff^* | rms/err^*  |     min     |     max     |
 |*"Efficiency"                                    |      1733 |       1490 |( 85.97807 +- 0.8340622)% |
 | "MC particles per track"                        |      1490 |       1490 |     1.0000 |
PrVPHitsToVPLightClusters_8cd36c45     INFO Number of counters : 1
 |    Counter                                      |     #     |    sum     | mean/eff^* | rms/err^*  |     min     |     max     |
 | "Nb of Produced Clusters"                       |        63 |     147230 |     2337.0 |
UTHitClustersToUTHitHandlerConve...    INFO Number of counters : 1
 |    Counter                                      |     #     |    sum     | mean/eff^* | rms/err^*  |     min     |     max     |
 | "# Converted Clusters"                          |        63 |      74118 |     1176.5 |
VPLightClustersToVPMicroClusters...    INFO Number of counters : 1
 |    Counter                                      |     #     |    sum     | mean/eff^* | rms/err^*  |     min     |     max     |
 | "# Converted Clusters"                          |        63 |     147230 |     2337.0 |
VeloRetinaClusterTrackingSIMD_66...    INFO Number of counters : 2
 |    Counter                                      |     #     |    sum     | mean/eff^* | rms/err^*  |     min     |     max     |
 | "Nb of Produced Clusters"                       |        63 |     147230 |     2337.0 |
 | "Nb of Produced Tracks"                         |        63 |      16417 |     260.59 |
VeloUTTrackChecker_36982bf4.LoKi...    INFO Number of counters : 1
 |    Counter                                      |     #     |    sum     | mean/eff^* | rms/err^*  |     min     |     max     |
 | "# loaded from PYTHON"                          |        29 |
fromV3TrackV1Track_a0c6957b            INFO Number of counters : 1
 |    Counter                                      |     #     |    sum     | mean/eff^* | rms/err^*  |     min     |     max     |
 | "Nb of Produced Tracks"                         |        63 |       1733 |     27.508 |
velo_consolidate_tracks                INFO Number of counters : 1
 |    Counter                                      |     #     |    sum     | mean/eff^* | rms/err^*  |     min     |     max     |
 | "n_velo_tracks"                                 |        63 |      16975 |     269.44 |
TransposeRawBanks_d381aaa1             INFO 1D histograms in directory "TransposeRawBanks_d381aaa1" : 1
 | ID                                            | Title                                         |      #     |     Mean   |    RMS     |  Skewness  |  Kurtosis  |
 | VP                                            | "VP"                                          |      13104 |     100.92 | 43.637     |     1.1284 |     3.4365 |
TransposeRawBanks_e9adf917             INFO 1D histograms in directory "TransposeRawBanks_e9adf917" : 1
 | ID                                            | Title                                         |      #     |     Mean   |    RMS     |  Skewness  |  Kurtosis  |
 | UT                                            | "UT"                                          |      13608 |      77.44 | 60.482     |     2.9123 |     14.406 |
velo_consolidate_tracks                INFO 1D histograms in directory "velo_consolidate_tracks" : 1
 | ID                                            | Title                                         |      #     |     Mean   |    RMS     |  Skewness  |  Kurtosis  |
 | n_velo_tracks_event                           | "n_velo_tracks_event"                         |         63 |     269.44 | 85.106     |    0.43159 |   -0.36981 |
velo_kalman_filter                     INFO 1D histograms in directory "velo_kalman_filter" : 9
 | ID                                            | Title                                         |      #     |     Mean   |    RMS     |  Skewness  |  Kurtosis  |
 | velo_backward_track_eta                       | "#backward_eta"                               |       6299 |     -3.025 | 0.80997    |   0.022024 |   -0.67287 |
 | velo_backward_track_nhits                     | "backward N. hits / track"                    |       6299 |     4.6096 | 1.4026     |     1.1853 |     2.0268 |
 | velo_backward_track_phi                       | "#backward_phi"                               |       6299 |  -0.028358 | 1.8036     | -0.0050948 |     -1.169 |
 | velo_forward_track_eta                        | "#forward_eta"                                |      10676 |     3.2465 | 1.0744     |    0.13172 |   -0.96508 |
 | velo_forward_track_nhits                      | "forward N. hits / track"                     |      10676 |     7.3765 | 3.4194     |    0.53782 |   -0.59888 |
 | velo_forward_track_phi                        | "#forward_phi"                                |      10676 |   0.012434 | 1.8129     |  -0.026208 |    -1.2048 |
 | velo_total_track_eta                          | "#total_eta"                                  |      16975 |    0.91931 | 3.1857     |   -0.38813 |    -1.4704 |
 | velo_total_track_nhits                        | "total N. hits / track"                       |      16975 |     6.3497 | 3.1416     |     1.0417 |    0.33229 |
 | velo_total_track_phi                          | "#total_phi"                                  |      16975 | -0.0027025 | 1.8096     |  -0.018284 |    -1.1918 |
