SeedAndMatchTrackChecker_4920259f      INFO Results
SeedAndMatchTrackChecker_4920259f      INFO **** SeedAndMatch                              45962 tracks including           1885 ghosts [ 4.10 %], Event average  3.15 % ****
SeedAndMatchTrackChecker_4920259f      INFO   01_long                                  :   40888 from    59002 [ 69.30 %]    881 clones [ 2.11 %], purity: 83.93 %, hitEff: 98.30 %
SeedAndMatchTrackChecker_4920259f      INFO   02_long_P>5GeV                           :   32522 from    37806 [ 86.02 %]    701 clones [ 2.11 %], purity: 84.01 %, hitEff: 98.57 %
SeedAndMatchTrackChecker_4920259f      INFO   03_long_strange                          :    1857 from     3239 [ 57.33 %]     30 clones [ 1.59 %], purity: 82.03 %, hitEff: 98.49 %
SeedAndMatchTrackChecker_4920259f      INFO   04_long_strange_P>5GeV                   :    1249 from     1484 [ 84.16 %]     18 clones [ 1.42 %], purity: 82.02 %, hitEff: 98.97 %
SeedAndMatchTrackChecker_4920259f      INFO   05_long_fromB                            :      52 from       87 [ 59.77 %]      1 clones [ 1.89 %], purity: 84.52 %, hitEff: 98.29 %
SeedAndMatchTrackChecker_4920259f      INFO   05_long_fromD                            :     497 from      693 [ 71.72 %]      9 clones [ 1.78 %], purity: 84.13 %, hitEff: 98.71 %
SeedAndMatchTrackChecker_4920259f      INFO   06_long_fromB_P>5GeV                     :      41 from       50 [ 82.00 %]      1 clones [ 2.38 %], purity: 84.40 %, hitEff: 98.23 %
SeedAndMatchTrackChecker_4920259f      INFO   06_long_fromD_P>5GeV                     :     411 from      463 [ 88.77 %]      9 clones [ 2.14 %], purity: 84.22 %, hitEff: 98.87 %
SeedAndMatchTrackChecker_4920259f      INFO   07_long_electrons                        :    1445 from     4165 [ 34.69 %]     35 clones [ 2.36 %], purity: 81.18 %, hitEff: 98.25 %
SeedAndMatchTrackChecker_4920259f      INFO   07_long_electrons_pairprod               :    1337 from     3893 [ 34.34 %]     34 clones [ 2.48 %], purity: 81.00 %, hitEff: 98.26 %
SeedAndMatchTrackChecker_4920259f      INFO   08_long_fromB_electrons                  :       5 from        7 [ 71.43 %]      1 clones [16.67 %], purity: 85.17 %, hitEff: 98.61 %
SeedAndMatchTrackChecker_4920259f      INFO   09_long_fromB_electrons_P>5GeV           :       4 from        6 [ 66.67 %]      1 clones [20.00 %], purity: 85.06 %, hitEff:100.00 %
SeedAndMatchTrackChecker_4920259f      INFO   10_long_fromB_P>3GeV_Pt>0.5GeV           :      28 from       39 [ 71.79 %]      1 clones [ 3.45 %], purity: 84.58 %, hitEff: 97.70 %
SeedAndMatchTrackChecker_4920259f      INFO   10_long_fromB_electrons_P>3GeV_Pt>0.5GeV :       4 from        6 [ 66.67 %]      1 clones [20.00 %], purity: 85.06 %, hitEff:100.00 %
SeedAndMatchTrackChecker_4920259f      INFO   10_long_fromD_P>3GeV_Pt>0.5GeV           :     316 from      363 [ 87.05 %]      7 clones [ 2.17 %], purity: 84.10 %, hitEff: 98.61 %
SeedAndMatchTrackChecker_4920259f      INFO   10_long_strange_P>3GeV_Pt>0.5GeV         :     634 from      755 [ 83.97 %]     11 clones [ 1.71 %], purity: 81.73 %, hitEff: 98.35 %
SeedAndMatchTrackChecker_4920259f      INFO   11_UT_long_fromB_P>3GeV_Pt>0.5GeV        :      28 from       39 [ 71.79 %]      1 clones [ 3.45 %], purity: 84.58 %, hitEff: 97.70 %
SeedAndMatchTrackChecker_4920259f      INFO
ApplicationMgr                         INFO Application Manager Finalized successfully
ApplicationMgr                         INFO Application Manager Terminated successfully
HLTControlFlowMgr                      INFO Number of counters : 1
 |    Counter                                      |     #     |    sum     | mean/eff^* | rms/err^*  |     min     |     max     |
 | "Processed events"                              |      1000 |
PrLHCbID2MCParticleVPFT_7b5311b2       INFO Number of counters : 1
 |    Counter                                      |     #     |    sum     | mean/eff^* | rms/err^*  |     min     |     max     |
 | "#removed null MCParticles"                     |   6374967 |          0 |     0.0000 |
PrTrackAssociator_88d30813             INFO Number of counters : 2
 |    Counter                                      |     #     |    sum     | mean/eff^* | rms/err^*  |     min     |     max     |
 |*"Efficiency"                                    |     45962 |      44077 |( 95.89879 +- 0.09250460)% |
 | "MC particles per track"                        |     44077 |      51256 |     1.1629 |
PrVPHitsToVPLightClusters_8cd36c45     INFO Number of counters : 1
 |    Counter                                      |     #     |    sum     | mean/eff^* | rms/err^*  |     min     |     max     |
 | "Nb of Produced Clusters"                       |      1000 |    2178998 |     2179.0 |
SeedAndMatchTrackChecker_4920259...    INFO Number of counters : 1
 |    Counter                                      |     #     |    sum     | mean/eff^* | rms/err^*  |     min     |     max     |
 | "# loaded from PYTHON"                          |        17 |
VPLightClustersToVPMicroClusters...    INFO Number of counters : 1
 |    Counter                                      |     #     |    sum     | mean/eff^* | rms/err^*  |     min     |     max     |
 | "# Converted Clusters"                          |      1000 |    2178998 |     2179.0 |
VeloRetinaClusterTrackingSIMD_66...    INFO Number of counters : 2
 |    Counter                                      |     #     |    sum     | mean/eff^* | rms/err^*  |     min     |     max     |
 | "Nb of Produced Clusters"                       |      1000 |    2178998 |     2179.0 |
 | "Nb of Produced Tracks"                         |      1000 |     240661 |     240.66 |
fromV3TrackV1Track_3957846e            INFO Number of counters : 2
 |    Counter                                      |     #     |    sum     | mean/eff^* | rms/err^*  |     min     |     max     |
 | "Nb of Produced Tracks"                         |      1000 |      45962 |     45.962 |
 | "Not all LHCbIDs were found as clusters."       |     45962 |
fromV3TrackV1Track_3957846e.AddC...    INFO Number of counters : 1
 |    Counter                                      |     #     |    sum     | mean/eff^* | rms/err^*  |     min     |     max     |
 | "Could not find all UT clusters"                |     45962 |
matching_consolidate_tracks_matc...    INFO Number of counters : 1
 |    Counter                                      |     #     |    sum     | mean/eff^* | rms/err^*  |     min     |     max     |
 | "n_long_tracks_matching"                        |      1000 |      45962 |     45.962 |
pv_beamline_cleanup                    INFO Number of counters : 1
 |    Counter                                      |     #     |    sum     | mean/eff^* | rms/err^*  |     min     |     max     |
 | "n_PVs"                                         |      1000 |       5108 |     5.1080 |
scifi_consolidate_seeds_matching       INFO Number of counters : 1
 |    Counter                                      |     #     |    sum     | mean/eff^* | rms/err^*  |     min     |     max     |
 | "n_seed_tracks"                                 |      1000 |      81412 |     81.412 |
velo_consolidate_tracks                INFO Number of counters : 1
 |    Counter                                      |     #     |    sum     | mean/eff^* | rms/err^*  |     min     |     max     |
 | "n_velo_tracks"                                 |      1000 |     249199 |     249.20 |
TransposeRawBanks_901cc252             INFO 1D histograms in directory "TransposeRawBanks_901cc252" : 1
 | ID                                            | Title                                         |      #     |     Mean   |    RMS     |  Skewness  |  Kurtosis  |
 | ECal                                          | "ECal"                                        |      72000 |      157.5 | 0.0000     |-nan        |-nan        |
TransposeRawBanks_abee1068             INFO 1D histograms in directory "TransposeRawBanks_abee1068" : 1
 | ID                                            | Title                                         |      #     |     Mean   |    RMS     |  Skewness  |  Kurtosis  |
 | FTCluster                                     | "FTCluster"                                   |     240000 |     43.621 | 27.730     |     1.7421 |     4.0042 |
TransposeRawBanks_c70b1079             INFO 1D histograms in directory "TransposeRawBanks_c70b1079" : 1
 | ID                                            | Title                                         |      #     |     Mean   |    RMS     |  Skewness  |  Kurtosis  |
 | Muon                                          | "Muon"                                        |      44000 |     35.585 | 14.369     |    0.72234 |    0.59958 |
TransposeRawBanks_d381aaa1             INFO 1D histograms in directory "TransposeRawBanks_d381aaa1" : 1
 | ID                                            | Title                                         |      #     |     Mean   |    RMS     |  Skewness  |  Kurtosis  |
 | VP                                            | "VP"                                          |     208000 |     93.461 | 56.368     |     1.2504 |     3.1052 |
TransposeRawBanks_e9adf917             INFO 1D histograms in directory "TransposeRawBanks_e9adf917" : 1
 | ID                                            | Title                                         |      #     |     Mean   |    RMS     |  Skewness  |  Kurtosis  |
 | UT                                            | "UT"                                          |     216000 |     69.797 | 61.476     |     2.6463 |     11.635 |
is_muon                                INFO 1D histograms in directory "is_muon" : 3
 | ID                                            | Title                                         |      #     |     Mean   |    RMS     |  Skewness  |  Kurtosis  |
 | n_muons                                       | "# muons"                                     |      45962 |    0.10889 | 0.31151    |     2.5111 |     4.3054 |
 | pv_x                                          | "pv_x"                                        |       3225 |          2 | 0.0000     |-nan        |-nan        |
 | pv_y                                          | "pv_y"                                        |       5005 |     515.41 | 331.91     |     2.6179 |     26.624 |
make_long_track_particles              INFO 1D histograms in directory "make_long_track_particles" : 4
 | ID                                            | Title                                         |      #     |     Mean   |    RMS     |  Skewness  |  Kurtosis  |
 | number_of_trks                                | "NTrks"                                       |        999 |     45.908 | 27.484     |    0.70438 |    0.14264 |
 | trk_eta                                       | "etaTrk"                                      |      45862 |     3.6641 | 0.71698    |   -0.12781 |   -0.84018 |
 | trk_phi                                       | "phiTrk"                                      |      45862 |  0.0035095 | 1.7920     |  -0.010375 |    -1.2286 |
 | trk_pt                                        | "ptTrk"                                       |      45856 |     660.25 | 590.01     |     3.4861 |      22.87 |
matching_consolidate_tracks_matc...    INFO 1D histograms in directory "matching_consolidate_tracks_matching" : 6
 | ID                                            | Title                                         |      #     |     Mean   |    RMS     |  Skewness  |  Kurtosis  |
 | long_track_ghost_prob                         | "GhostProb"                                   |      45962 |   0.080399 | 0.10176    |     2.0176 |     3.7016 |
 | long_track_matching_eta                       | "#eta"                                        |      45962 |     3.6635 | 0.71650    |   -0.12714 |   -0.83949 |
 | long_track_matching_nhits                     | "N. hits / track"                             |      45962 |     25.133 | 3.1809     |  -0.011723 |   -0.50355 |
 | long_track_matching_phi                       | "#phi"                                        |      45962 |  0.0039859 | 1.7920     |  -0.010261 |    -1.2282 |
 | long_track_matching_qop                       | "q/p"                                         |      45962 |-3.6791e-07 | 0.00015253 | -0.0027715 |   -0.82897 |
 | n_long_tracks_matching_event                  | "n_long_tracks_matching_event"                |       1000 |     45.962 | 27.524     |    0.70236 |    0.13093 |
pv_beamline_cleanup                    INFO 1D histograms in directory "pv_beamline_cleanup" : 5
 | ID                                            | Title                                         |      #     |     Mean   |    RMS     |  Skewness  |  Kurtosis  |
 | n_pvs_event                                   | "n_pvs_event"                                 |       1000 |      5.108 | 2.1896     |    0.40232 |   -0.12265 |
 | n_smog2_PVs                                   | "n_smog2_PVs"                                 |       1000 |          0 | 0.0000     |-nan        |-nan        |
 | pv_x                                          | "pv_x"                                        |       5102 | 0.00026578 | 0.028513   |   -0.18749 |     3.1562 |
 | pv_y                                          | "pv_y"                                        |       5102 |-0.00044767 | 0.028276   |   0.021878 |     1.3696 |
 | pv_z                                          | "pv_z"                                        |       5102 |    0.46319 | 59.430     |   -0.03759 |   -0.10541 |
scifi_consolidate_seeds_matching       INFO 1D histograms in directory "scifi_consolidate_seeds_matching" : 5
 | ID                                            | Title                                         |      #     |     Mean   |    RMS     |  Skewness  |  Kurtosis  |
 | n_scifi_seeds_event                           | "n_scifi_seeds_event"                         |       1000 |     81.412 | 53.966     |     1.3145 |     2.5332 |
 | scifi_track_eta                               | "#eta"                                        |      81412 |     2.6536 | 0.73499    |    0.65484 |    0.36864 |
 | scifi_track_nhits                             | "N. hits / track"                             |      81412 |     11.433 | 0.74658    |   -0.89392 |   -0.65945 |
 | scifi_track_phi                               | "#phi"                                        |      81412 |  0.0045988 | 2.0507     | -0.0032754 |    -1.0151 |
 | scifi_track_qop                               | "q/p"                                         |      81412 | -1.991e-06 | 0.00016279 |  0.0053202 |   -0.86142 |
velo_consolidate_tracks                INFO 1D histograms in directory "velo_consolidate_tracks" : 1
 | ID                                            | Title                                         |      #     |     Mean   |    RMS     |  Skewness  |  Kurtosis  |
 | n_velo_tracks_event                           | "n_velo_tracks_event"                         |       1000 |      249.2 | 138.92     |    0.80202 |    0.76951 |
velo_kalman_filter                     INFO 1D histograms in directory "velo_kalman_filter" : 9
 | ID                                            | Title                                         |      #     |     Mean   |    RMS     |  Skewness  |  Kurtosis  |
 | velo_backward_track_eta                       | "#backward_eta"                               |      93151 |    -3.0206 | 0.80389    |   0.033507 |   -0.62837 |
 | velo_backward_track_nhits                     | "backward N. hits / track"                    |      93151 |     4.5716 | 1.3436     |     1.1909 |     2.2091 |
 | velo_backward_track_phi                       | "#backward_phi"                               |      93151 |  -0.018661 | 1.8047     |   0.001279 |    -1.1806 |
 | velo_forward_track_eta                        | "#forward_eta"                                |     156047 |     3.2744 | 1.0906     |    0.11803 |   -0.98045 |
 | velo_forward_track_nhits                      | "forward N. hits / track"                     |     156048 |     7.3537 | 3.4396     |    0.54358 |   -0.64326 |
 | velo_forward_track_phi                        | "#forward_phi"                                |     156048 |  0.0021119 | 1.8087     |  -0.009059 |    -1.1931 |
 | velo_total_track_eta                          | "#total_eta"                                  |     249198 |    0.92132 | 3.2034     |   -0.37213 |    -1.4837 |
 | velo_total_track_nhits                        | "total N. hits / track"                       |     249199 |     6.3137 | 3.1456     |     1.0681 |    0.34532 |
 | velo_total_track_phi                          | "#total_phi"                                  |     249199 |  -0.005653 | 1.8072     | -0.0051748 |    -1.1885 |
