VeloTrackChecker_c2412b2b              INFO Results
VeloTrackChecker_c2412b2b              INFO **** Velo                                      35050 tracks including            823 ghosts [ 2.35 %], Event average  2.29 % ****
VeloTrackChecker_c2412b2b              INFO   01_velo                                  :   14747 from    15002 [ 98.30 %]    407 clones [ 2.69 %], purity: 99.61 %, hitEff: 95.69 %, hitEffFirst3: 95.94 %, hitEffLast: 95.39 %
VeloTrackChecker_c2412b2b              INFO   02_long                                  :    8661 from     8724 [ 99.28 %]    187 clones [ 2.11 %], purity: 99.74 %, hitEff: 96.76 %, hitEffFirst3: 96.83 %, hitEffLast: 96.68 %
VeloTrackChecker_c2412b2b              INFO   03_long_P>5GeV                           :    5762 from     5795 [ 99.43 %]    113 clones [ 1.92 %], purity: 99.76 %, hitEff: 97.29 %, hitEffFirst3: 97.49 %, hitEffLast: 97.18 %
VeloTrackChecker_c2412b2b              INFO   04_long_strange                          :     469 from      486 [ 96.50 %]     10 clones [ 2.09 %], purity: 98.89 %, hitEff: 95.16 %, hitEffFirst3: 94.99 %, hitEffLast: 94.55 %
VeloTrackChecker_c2412b2b              INFO   05_long_strange_P>5GeV                   :     238 from      247 [ 96.36 %]      5 clones [ 2.06 %], purity: 98.67 %, hitEff: 96.93 %, hitEffFirst3: 96.71 %, hitEffLast: 96.52 %
VeloTrackChecker_c2412b2b              INFO   06_long_fromB                            :     504 from      510 [ 98.82 %]     12 clones [ 2.33 %], purity: 99.64 %, hitEff: 97.04 %, hitEffFirst3: 96.96 %, hitEffLast: 97.05 %
VeloTrackChecker_c2412b2b              INFO   06_long_fromD                            :     237 from      239 [ 99.16 %]      6 clones [ 2.47 %], purity: 99.74 %, hitEff: 97.09 %, hitEffFirst3: 97.67 %, hitEffLast: 97.05 %
VeloTrackChecker_c2412b2b              INFO   07_long_fromB_P>5GeV                     :     414 from      417 [ 99.28 %]      9 clones [ 2.13 %], purity: 99.66 %, hitEff: 97.34 %, hitEffFirst3: 97.16 %, hitEffLast: 97.33 %
VeloTrackChecker_c2412b2b              INFO   07_long_fromD_P>5GeV                     :     174 from      175 [ 99.43 %]      4 clones [ 2.25 %], purity: 99.82 %, hitEff: 97.33 %, hitEffFirst3: 98.13 %, hitEffLast: 96.99 %
VeloTrackChecker_c2412b2b              INFO   08_long_electrons                        :     586 from      607 [ 96.54 %]     32 clones [ 5.18 %], purity: 97.95 %, hitEff: 94.96 %, hitEffFirst3: 94.77 %, hitEffLast: 94.87 %
VeloTrackChecker_c2412b2b              INFO   09_long_fromB_electrons                  :      32 from       33 [ 96.97 %]      3 clones [ 8.57 %], purity: 97.34 %, hitEff: 96.44 %, hitEffFirst3: 99.05 %, hitEffLast: 94.09 %
VeloTrackChecker_c2412b2b              INFO   10_long_fromB_electrons_P>5GeV           :      18 from       18 [100.00 %]      1 clones [ 5.26 %], purity: 97.91 %, hitEff: 95.99 %, hitEffFirst3: 98.25 %, hitEffLast: 94.50 %
VeloTrackChecker_c2412b2b              INFO   11_long_fromB_P>3GeV_Pt>0.5GeV           :     375 from      377 [ 99.47 %]      6 clones [ 1.57 %], purity: 99.67 %, hitEff: 97.49 %, hitEffFirst3: 97.20 %, hitEffLast: 97.63 %
VeloTrackChecker_c2412b2b              INFO   11_long_fromB_electrons_P>3GeV_Pt>0.5GeV :       9 from        9 [100.00 %]      1 clones [10.00 %], purity: 96.03 %, hitEff: 94.29 %, hitEffFirst3:100.00 %, hitEffLast: 90.97 %
VeloTrackChecker_c2412b2b              INFO   11_long_fromD_P>3GeV_Pt>0.5GeV           :     136 from      137 [ 99.27 %]      2 clones [ 1.45 %], purity: 99.76 %, hitEff: 97.66 %, hitEffFirst3: 98.07 %, hitEffLast: 97.73 %
VeloTrackChecker_c2412b2b              INFO   11_long_strange_P>3GeV_Pt>0.5GeV         :     126 from      132 [ 95.45 %]      3 clones [ 2.33 %], purity: 98.33 %, hitEff: 94.83 %, hitEffFirst3: 94.57 %, hitEffLast: 94.75 %
VeloTrackChecker_c2412b2b              INFO   12_UT_long_fromB_P>3GeV_Pt>0.5GeV        :     375 from      377 [ 99.47 %]      6 clones [ 1.57 %], purity: 99.67 %, hitEff: 97.49 %, hitEffFirst3: 97.20 %, hitEffLast: 97.63 %
VeloTrackChecker_c2412b2b              INFO
ApplicationMgr                         INFO Application Manager Finalized successfully
ApplicationMgr                         INFO Application Manager Terminated successfully
HLTControlFlowMgr                      INFO Number of counters : 1
 |    Counter                                      |     #     |    sum     | mean/eff^* | rms/err^*  |     min     |     max     |
 | "Processed events"                              |       100 |
PrLHCbID2MCParticleVP_116b424a         INFO Number of counters : 1
 |    Counter                                      |     #     |    sum     | mean/eff^* | rms/err^*  |     min     |     max     |
 | "#removed null MCParticles"                     |    300473 |          0 |     0.0000 |
PrTrackAssociator_bd14ef89             INFO Number of counters : 2
 |    Counter                                      |     #     |    sum     | mean/eff^* | rms/err^*  |     min     |     max     |
 |*"Efficiency"                                    |     35050 |      34227 |( 97.65193 +- 0.08088208)% |
 | "MC particles per track"                        |     34227 |      34368 |     1.0041 |
PrVPHitsToVPLightClusters_8cd36c45     INFO Number of counters : 1
 |    Counter                                      |     #     |    sum     | mean/eff^* | rms/err^*  |     min     |     max     |
 | "Nb of Produced Clusters"                       |       100 |     300473 |     3004.7 |
VPLightClustersToVPMicroClusters...    INFO Number of counters : 1
 |    Counter                                      |     #     |    sum     | mean/eff^* | rms/err^*  |     min     |     max     |
 | "# Converted Clusters"                          |       100 |     300473 |     3004.7 |
VeloRetinaClusterTrackingSIMD_66...    INFO Number of counters : 2
 |    Counter                                      |     #     |    sum     | mean/eff^* | rms/err^*  |     min     |     max     |
 | "Nb of Produced Clusters"                       |       100 |     300473 |     3004.7 |
 | "Nb of Produced Tracks"                         |       100 |      33914 |     339.14 |
VeloTrackChecker_c2412b2b.LoKi::...    INFO Number of counters : 1
 |    Counter                                      |     #     |    sum     | mean/eff^* | rms/err^*  |     min     |     max     |
 | "# loaded from PYTHON"                          |        17 |
fromV3TrackV1Track_8cb534ec            INFO Number of counters : 1
 |    Counter                                      |     #     |    sum     | mean/eff^* | rms/err^*  |     min     |     max     |
 | "Nb of Produced Tracks"                         |       100 |      22285 |     222.85 |
fromV3TrackV1Track_ccafc722            INFO Number of counters : 1
 |    Counter                                      |     #     |    sum     | mean/eff^* | rms/err^*  |     min     |     max     |
 | "Nb of Produced Tracks"                         |       100 |      12765 |     127.65 |
velo_consolidate_tracks                INFO Number of counters : 1
 |    Counter                                      |     #     |    sum     | mean/eff^* | rms/err^*  |     min     |     max     |
 | "n_velo_tracks"                                 |       100 |      35050 |     350.50 |
TransposeRawBanks_d381aaa1             INFO 1D histograms in directory "TransposeRawBanks_d381aaa1" : 1
 | ID                                            | Title                                         |      #     |     Mean   |    RMS     |  Skewness  |  Kurtosis  |
 | VP                                            | "VP"                                          |      20800 |     129.31 | 62.668     |     1.0728 |     2.1427 |
velo_consolidate_tracks                INFO 1D histograms in directory "velo_consolidate_tracks" : 1
 | ID                                            | Title                                         |      #     |     Mean   |    RMS     |  Skewness  |  Kurtosis  |
 | n_velo_tracks_event                           | "n_velo_tracks_event"                         |        100 |      350.5 | 140.23     |    0.50161 |   -0.54666 |
velo_kalman_filter                     INFO 1D histograms in directory "velo_kalman_filter" : 9
 | ID                                            | Title                                         |      #     |     Mean   |    RMS     |  Skewness  |  Kurtosis  |
 | velo_backward_track_eta                       | "#backward_eta"                               |      12579 |    -3.0224 | 0.81116    |   0.019577 |    -0.6512 |
 | velo_backward_track_nhits                     | "backward N. hits / track"                    |      12579 |     4.6338 | 1.3984     |     1.1579 |     1.8773 |
 | velo_backward_track_phi                       | "#backward_phi"                               |      12579 | -0.0080869 | 1.7940     | -0.0051611 |    -1.1618 |
 | velo_forward_track_eta                        | "#forward_eta"                                |      21927 |      3.265 | 1.0798     |    0.11397 |   -0.95894 |
 | velo_forward_track_nhits                      | "forward N. hits / track"                     |      21927 |     7.3646 | 3.4118     |    0.53658 |   -0.62635 |
 | velo_forward_track_phi                        | "#forward_phi"                                |      21927 |-0.00096114 | 1.8217     |   -0.00413 |    -1.2109 |
 | velo_total_track_eta                          | "#total_eta"                                  |      34506 |    0.97295 | 3.1840     |    -0.4115 |    -1.4466 |
 | velo_total_track_nhits                        | "total N. hits / track"                       |      34506 |     6.3691 | 3.1364     |     1.0306 |    0.28482 |
 | velo_total_track_phi                          | "#total_phi"                                  |      34506 | -0.0035588 | 1.8117     |  -0.004412 |    -1.1933 |
