VertexCompare_464c71df                 INFO  ============================================
VertexCompare_464c71df                 INFO  Efficiencies for reconstructed vertices:
VertexCompare_464c71df                 INFO  ============================================
VertexCompare_464c71df                 INFO
VertexCompare_464c71df                 INFO  Total number of PVs in input1: 5108, input2: 5068, matched 4969
VertexCompare_464c71df                 INFO  Efficiency wrt input1 size: 97.2788 %
VertexCompare_464c71df                 INFO  Efficiency wrt input2 size: 98.0466 %
VertexCompare_464c71df                 INFO       ---------------------------------------
VertexCompare_464c71df                 INFO  Number of PVs with ntracks>=10:
VertexCompare_464c71df                 INFO  in input1 4820, matched from input1 4741
VertexCompare_464c71df                 INFO  in input2 4502, matched from input2 4478
VertexCompare_464c71df                 INFO  Efficiency wrt input1, ntracks>=10: 98.361 %
VertexCompare_464c71df                 INFO  Efficiency wrt input2, ntracks>=10: 99.4669 %
VertexCompare_464c71df                 INFO  Efficiency wrt input1, ntracks<10:  79.1667 %
VertexCompare_464c71df                 INFO  Efficiency wrt input2, ntracks<10:  86.7491 %
VertexCompare_464c71df                 INFO dx: mean =  0.000 +/- 0.000, RMS =  0.009 +/- 0.001
VertexCompare_464c71df                 INFO dy: mean =  -0.000 +/- 0.000, RMS =  0.009 +/- 0.001
VertexCompare_464c71df                 INFO dz: mean =  -0.000 +/- 0.001, RMS =  0.086 +/- 0.007
VertexCompare_464c71df                 INFO       ---------------------------------------
VertexCompare_464c71df                 INFO pullx: mean =  -0.004 +/- 0.005, RMS =  0.387 +/- 0.010
VertexCompare_464c71df                 INFO pully: mean =  -0.000 +/- 0.006, RMS =  0.388 +/- 0.012
VertexCompare_464c71df                 INFO pullz: mean =  0.009 +/- 0.007, RMS =  0.486 +/- 0.014
VertexCompare_464c71df                 INFO       ---------------------------------------
VertexCompare_464c71df                 INFO diff in x: 0.178 +/- 0.004
VertexCompare_464c71df                 INFO diff in y: 0.178 +/- 0.005
VertexCompare_464c71df                 INFO diff in z: 0.219 +/- 0.006
VertexCompare_464c71df                 INFO       ============================================
VertexCompare_53f56e63                 INFO  ============================================
VertexCompare_53f56e63                 INFO  Efficiencies for reconstructed vertices:
VertexCompare_53f56e63                 INFO  ============================================
VertexCompare_53f56e63                 INFO
VertexCompare_53f56e63                 INFO  Total number of PVs in input1: 5108, input2: 4959, matched 4867
VertexCompare_53f56e63                 INFO  Efficiency wrt input1 size: 95.2819 %
VertexCompare_53f56e63                 INFO  Efficiency wrt input2 size: 98.1448 %
VertexCompare_53f56e63                 INFO       ---------------------------------------
VertexCompare_53f56e63                 INFO  Number of PVs with ntracks>=10:
VertexCompare_53f56e63                 INFO  in input1 4820, matched from input1 4695
VertexCompare_53f56e63                 INFO  in input2 4134, matched from input2 4124
VertexCompare_53f56e63                 INFO  Efficiency wrt input1, ntracks>=10: 97.4066 %
VertexCompare_53f56e63                 INFO  Efficiency wrt input2, ntracks>=10: 99.7581 %
VertexCompare_53f56e63                 INFO  Efficiency wrt input1, ntracks<10:  59.7222 %
VertexCompare_53f56e63                 INFO  Efficiency wrt input2, ntracks<10:  90.0606 %
VertexCompare_53f56e63                 INFO dx: mean =  0.000 +/- 0.000, RMS =  0.012 +/- 0.001
VertexCompare_53f56e63                 INFO dy: mean =  -0.000 +/- 0.000, RMS =  0.012 +/- 0.001
VertexCompare_53f56e63                 INFO dz: mean =  0.001 +/- 0.002, RMS =  0.107 +/- 0.008
VertexCompare_53f56e63                 INFO       ---------------------------------------
VertexCompare_53f56e63                 INFO pullx: mean =  0.001 +/- 0.007, RMS =  0.493 +/- 0.019
VertexCompare_53f56e63                 INFO pully: mean =  -0.000 +/- 0.007, RMS =  0.504 +/- 0.017
VertexCompare_53f56e63                 INFO pullz: mean =  0.011 +/- 0.008, RMS =  0.566 +/- 0.017
VertexCompare_53f56e63                 INFO       ---------------------------------------
VertexCompare_53f56e63                 INFO diff in x: 0.222 +/- 0.008
VertexCompare_53f56e63                 INFO diff in y: 0.227 +/- 0.007
VertexCompare_53f56e63                 INFO diff in z: 0.251 +/- 0.007
VertexCompare_53f56e63                 INFO       ============================================
VertexCompare_6bc1847d                 INFO  ============================================
VertexCompare_6bc1847d                 INFO  Efficiencies for reconstructed vertices:
VertexCompare_6bc1847d                 INFO  ============================================
VertexCompare_6bc1847d                 INFO
VertexCompare_6bc1847d                 INFO  Total number of PVs in input1: 5068, input2: 4959, matched 4856
VertexCompare_6bc1847d                 INFO  Efficiency wrt input1 size: 95.8169 %
VertexCompare_6bc1847d                 INFO  Efficiency wrt input2 size: 97.923 %
VertexCompare_6bc1847d                 INFO       ---------------------------------------
VertexCompare_6bc1847d                 INFO  Number of PVs with ntracks>=10:
VertexCompare_6bc1847d                 INFO  in input1 4502, matched from input1 4433
VertexCompare_6bc1847d                 INFO  in input2 4134, matched from input2 4119
VertexCompare_6bc1847d                 INFO  Efficiency wrt input1, ntracks>=10: 98.4673 %
VertexCompare_6bc1847d                 INFO  Efficiency wrt input2, ntracks>=10: 99.6372 %
VertexCompare_6bc1847d                 INFO  Efficiency wrt input1, ntracks<10:  74.735 %
VertexCompare_6bc1847d                 INFO  Efficiency wrt input2, ntracks<10:  89.3333 %
VertexCompare_6bc1847d                 INFO dx: mean =  -0.000 +/- 0.000, RMS =  0.010 +/- 0.001
VertexCompare_6bc1847d                 INFO dy: mean =  -0.000 +/- 0.000, RMS =  0.011 +/- 0.001
VertexCompare_6bc1847d                 INFO dz: mean =  -0.000 +/- 0.001, RMS =  0.090 +/- 0.007
VertexCompare_6bc1847d                 INFO       ---------------------------------------
VertexCompare_6bc1847d                 INFO pullx: mean =  -0.000 +/- 0.005, RMS =  0.361 +/- 0.020
VertexCompare_6bc1847d                 INFO pully: mean =  0.000 +/- 0.005, RMS =  0.368 +/- 0.022
VertexCompare_6bc1847d                 INFO pullz: mean =  0.000 +/- 0.006, RMS =  0.401 +/- 0.021
VertexCompare_6bc1847d                 INFO       ---------------------------------------
VertexCompare_6bc1847d                 INFO diff in x: 0.167 +/- 0.009
VertexCompare_6bc1847d                 INFO diff in y: 0.170 +/- 0.009
VertexCompare_6bc1847d                 INFO diff in z: 0.184 +/- 0.009
VertexCompare_6bc1847d                 INFO       ============================================
ApplicationMgr                         INFO Application Manager Finalized successfully
ApplicationMgr                         INFO Application Manager Terminated successfully
GaudiAllenPVsToPrimaryVertexCont...    INFO Number of counters : 1
 |    Counter                                      |     #     |    sum     | mean/eff^* | rms/err^*  |     min     |     max     |
 | "Nb PVs"                                        |      1000 |       5108 |     5.1080 |
HLTControlFlowMgr                      INFO Number of counters : 1
 |    Counter                                      |     #     |    sum     | mean/eff^* | rms/err^*  |     min     |     max     |
 | "Processed events"                              |      1000 |
PatPV3DFuture_7d18808c                 INFO Number of counters : 1
 |    Counter                                      |     #     |    sum     | mean/eff^* | rms/err^*  |     min     |     max     |
 | "Nb PVs"                                        |      1000 |       4959 |     4.9590 |
PrVPHitsToVPLightClusters_8cd36c45     INFO Number of counters : 1
 |    Counter                                      |     #     |    sum     | mean/eff^* | rms/err^*  |     min     |     max     |
 | "Nb of Produced Clusters"                       |      1000 |    2178998 |     2179.0 |
TrackBeamLineVertexFinderSoA_609...    INFO Number of counters : 3
 |    Counter                                      |     #     |    sum     | mean/eff^* | rms/err^*  |     min     |     max     |
 |*"Fraction of failed PV fits"                    |      5177 |          6 |(0.1158972 +- 0.04728742)% |
 |*"Fraction of unconverged PV fits"               |      5177 |        294 |( 5.678965 +- 0.3216620)% |
 | "Nb PVs"                                        |      1000 |       5068 |     5.0680 |
VPLightClustersToVPMicroClusters...    INFO Number of counters : 1
 |    Counter                                      |     #     |    sum     | mean/eff^* | rms/err^*  |     min     |     max     |
 | "# Converted Clusters"                          |      1000 |    2178998 |     2179.0 |
VeloRetinaClusterTrackingSIMD_66...    INFO Number of counters : 2
 |    Counter                                      |     #     |    sum     | mean/eff^* | rms/err^*  |     min     |     max     |
 | "Nb of Produced Clusters"                       |      1000 |    2178998 |     2179.0 |
 | "Nb of Produced Tracks"                         |      1000 |     240661 |     240.66 |
VertexCompare_464c71df                 INFO Number of counters : 8
 |    Counter                                      |     #     |    sum     | mean/eff^* | rms/err^*  |     min     |     max     |
 | "Event number"                                  |     15145 |
 | "Number of pairs of vertices in processed events"|      4969 |
 | "Number of vertices in input1"                  |      5108 |
 | "Number of vertices in input1 with more or exactly 10 tracks"|      4820 |
 | "Number of vertices in input2"                  |      5068 |
 | "Number of vertices in input2 with more or exactly 10 tracks"|      4502 |
 | "Number of vertices with more or exactly 10 tracks in matched subset of input1"|      4741 |
 | "Number of vertices with more or exactly 10 tracks in matched subset of input2"|      4478 |
VertexCompare_53f56e63                 INFO Number of counters : 8
 |    Counter                                      |     #     |    sum     | mean/eff^* | rms/err^*  |     min     |     max     |
 | "Event number"                                  |     14934 |
 | "Number of pairs of vertices in processed events"|      4867 |
 | "Number of vertices in input1"                  |      5108 |
 | "Number of vertices in input1 with more or exactly 10 tracks"|      4820 |
 | "Number of vertices in input2"                  |      4959 |
 | "Number of vertices in input2 with more or exactly 10 tracks"|      4134 |
 | "Number of vertices with more or exactly 10 tracks in matched subset of input1"|      4695 |
 | "Number of vertices with more or exactly 10 tracks in matched subset of input2"|      4124 |
VertexCompare_6bc1847d                 INFO Number of counters : 8
 |    Counter                                      |     #     |    sum     | mean/eff^* | rms/err^*  |     min     |     max     |
 | "Event number"                                  |     14883 |
 | "Number of pairs of vertices in processed events"|      4856 |
 | "Number of vertices in input1"                  |      5068 |
 | "Number of vertices in input1 with more or exactly 10 tracks"|      4502 |
 | "Number of vertices in input2"                  |      4959 |
 | "Number of vertices in input2 with more or exactly 10 tracks"|      4134 |
 | "Number of vertices with more or exactly 10 tracks in matched subset of input1"|      4433 |
 | "Number of vertices with more or exactly 10 tracks in matched subset of input2"|      4119 |
fromPrVeloTracksV1TracksMerger_8...    INFO Number of counters : 1
 |    Counter                                      |     #     |    sum     | mean/eff^* | rms/err^*  |     min     |     max     |
 | "Nb of converted Tracks"                        |      1000 |     240661 |     240.66 |
pv_beamline_cleanup                    INFO Number of counters : 1
 |    Counter                                      |     #     |    sum     | mean/eff^* | rms/err^*  |     min     |     max     |
 | "n_PVs"                                         |       999 |       5101 |     5.1061 |
velo_consolidate_tracks                INFO Number of counters : 1
 |    Counter                                      |     #     |    sum     | mean/eff^* | rms/err^*  |     min     |     max     |
 | "n_velo_tracks"                                 |      1000 |     249199 |     249.20 |
TransposeRawBanks_d381aaa1             INFO 1D histograms in directory "TransposeRawBanks_d381aaa1" : 1
 | ID                                            | Title                                         |      #     |     Mean   |    RMS     |  Skewness  |  Kurtosis  |
 | VP                                            | "VP"                                          |     208000 |     93.461 | 56.368     |     1.2504 |     3.1052 |
VertexCompare_464c71df                 INFO 1D histograms in directory "VertexCompare_464c71df" : 9
 | ID                                            | Title                                         |      #     |     Mean   |    RMS     |  Skewness  |  Kurtosis  |
 | dtracks                                       | "Difference in the number of tracks in tw..." |       4969 |     2.3933 | 3.0018     |     5.0138 |     32.502 |
 | dx                                            | "dx, mm"                                      |       4969 | 6.0386e-06 | 0.0082110  |   -0.52165 |     45.748 |
 | dy                                            | "dy, mm"                                      |       4969 | -2.114e-05 | 0.0079114  |   -0.45053 |     23.241 |
 | dz                                            | "dz, mm"                                      |       4969 |-0.00036843 | 0.083151   |    -3.9341 |     73.273 |
 | ntracks_set1                                  | "Number of tracks in PV set 1"                |       4969 |       40.3 | 28.538     |     1.2319 |     1.0467 |
 | ntracks_set2                                  | "Number of tracks in PV set 2"                |       4969 |     34.643 | 25.694     |     1.2787 |     1.3039 |
 | pullx                                         | "pull x"                                      |       4969 | -0.0063896 | 0.42211    |  -0.042175 |     8.4305 |
 | pully                                         | "pull y"                                      |       4969 |-0.00050322 | 0.41254    |    0.10857 |     7.0585 |
 | pullz                                         | "pull z"                                      |       4969 |   0.010314 | 0.51336    |   -0.41196 |     11.241 |
VertexCompare_53f56e63                 INFO 1D histograms in directory "VertexCompare_53f56e63" : 9
 | ID                                            | Title                                         |      #     |     Mean   |    RMS     |  Skewness  |  Kurtosis  |
 | dtracks                                       | "Difference in the number of tracks in tw..." |       4867 |     5.0099 | 5.7102     |     2.2572 |     5.9437 |
 | dx                                            | "dx, mm"                                      |       4867 | 0.00020181 | 0.010211   |    0.74283 |     38.819 |
 | dy                                            | "dy, mm"                                      |       4867 |-7.9613e-05 | 0.010862   |   -0.35619 |     40.022 |
 | dz                                            | "dz, mm"                                      |       4867 | 0.00022816 | 0.10186    |     -1.592 |     62.435 |
 | ntracks_set1                                  | "Number of tracks in PV set 1"                |       4867 |     41.011 | 28.484     |     1.2172 |     1.0113 |
 | ntracks_set2                                  | "Number of tracks in PV set 2"                |       4867 |     34.186 | 28.036     |     1.3326 |     1.3178 |
 | pullx                                         | "pull x"                                      |       4867 |   0.004781 | 0.48879    |    0.22547 |     10.745 |
 | pully                                         | "pull y"                                      |       4867 | 0.00077081 | 0.51255    |   0.030194 |     13.349 |
 | pullz                                         | "pull z"                                      |       4867 |    0.01392 | 0.58765    |   -0.49164 |      12.59 |
VertexCompare_6bc1847d                 INFO 1D histograms in directory "VertexCompare_6bc1847d" : 9
 | ID                                            | Title                                         |      #     |     Mean   |    RMS     |  Skewness  |  Kurtosis  |
 | dtracks                                       | "Difference in the number of tracks in tw..." |       4856 |     4.2815 | 5.7244     |     3.2975 |     13.877 |
 | dx                                            | "dx, mm"                                      |       4856 | 2.8442e-05 | 0.0086244  |   -0.26474 |     57.608 |
 | dy                                            | "dy, mm"                                      |       4856 |-8.1014e-05 | 0.0094423  |    -1.2304 |     84.129 |
 | dz                                            | "dz, mm"                                      |       4856 |-0.00064882 | 0.091379   |   0.045724 |     88.187 |
 | ntracks_set1                                  | "Number of tracks in PV set 1"                |       4856 |     35.238 | 25.687     |      1.265 |     1.2642 |
 | ntracks_set2                                  | "Number of tracks in PV set 2"                |       4856 |     34.236 | 28.067     |     1.3332 |     1.3197 |
 | pullx                                         | "pull x"                                      |       4856 |  0.0022151 | 0.39801    |   0.048002 |     19.841 |
 | pully                                         | "pull y"                                      |       4856 |-0.00041203 | 0.40872    |    0.29797 |     24.265 |
 | pullz                                         | "pull z"                                      |       4856 |-0.00082372 | 0.46378    |   -0.26458 |     29.055 |
pv_beamline_cleanup                    INFO 1D histograms in directory "pv_beamline_cleanup" : 5
 | ID                                            | Title                                         |      #     |     Mean   |    RMS     |  Skewness  |  Kurtosis  |
 | n_pvs_event                                   | "n_pvs_event"                                 |        999 |     5.1061 | 2.1899     |    0.40451 |   -0.12039 |
 | n_smog2_PVs                                   | "n_smog2_PVs"                                 |        999 |          0 | 0.0000     |-nan        |-nan        |
 | pv_x                                          | "pv_x"                                        |       5095 | 0.00025319 | 0.028517   |   -0.18738 |     3.1594 |
 | pv_y                                          | "pv_y"                                        |       5095 |-0.00045731 | 0.028272   |   0.023512 |     1.3735 |
 | pv_z                                          | "pv_z"                                        |       5095 |     0.4981 | 59.435     |  -0.037816 |   -0.10584 |
velo_consolidate_tracks                INFO 1D histograms in directory "velo_consolidate_tracks" : 1
 | ID                                            | Title                                         |      #     |     Mean   |    RMS     |  Skewness  |  Kurtosis  |
 | n_velo_tracks_event                           | "n_velo_tracks_event"                         |       1000 |      249.2 | 138.92     |    0.80202 |    0.76951 |
velo_kalman_filter                     INFO 1D histograms in directory "velo_kalman_filter" : 9
 | ID                                            | Title                                         |      #     |     Mean   |    RMS     |  Skewness  |  Kurtosis  |
 | velo_backward_track_eta                       | "#backward_eta"                               |      93151 |    -3.0206 | 0.80389    |   0.033507 |   -0.62837 |
 | velo_backward_track_nhits                     | "backward N. hits / track"                    |      93151 |     4.5716 | 1.3436     |     1.1909 |     2.2091 |
 | velo_backward_track_phi                       | "#backward_phi"                               |      93151 |  -0.018661 | 1.8047     |   0.001279 |    -1.1806 |
 | velo_forward_track_eta                        | "#forward_eta"                                |     156047 |     3.2744 | 1.0906     |    0.11803 |   -0.98045 |
 | velo_forward_track_nhits                      | "forward N. hits / track"                     |     156048 |     7.3537 | 3.4396     |    0.54358 |   -0.64326 |
 | velo_forward_track_phi                        | "#forward_phi"                                |     156048 |  0.0021119 | 1.8087     |  -0.009059 |    -1.1931 |
 | velo_total_track_eta                          | "#total_eta"                                  |     249198 |    0.92132 | 3.2034     |   -0.37213 |    -1.4837 |
 | velo_total_track_nhits                        | "total N. hits / track"                       |     249199 |     6.3137 | 3.1456     |     1.0681 |    0.34532 |
 | velo_total_track_phi                          | "#total_phi"                                  |     249199 |  -0.005653 | 1.8072     | -0.0051748 |    -1.1885 |
