GraphClustering_72971694               INFO Built <153.876> graph calo clustering clusters/event
ApplicationMgr                         INFO Application Manager Finalized successfully
ApplicationMgr                         INFO Application Manager Terminated successfully
CaloAcceptanceBremAlg_Downstream...    INFO Number of counters : 2
 |    Counter                                      |     #     |    sum     | mean/eff^* | rms/err^*  |     min     |     max     |
 | "#total tracks"                                 |        89 |       1053 |     11.831 |     8.1119 |      0.0000 |      30.000 |
 | "#tracks in acceptance"                         |        89 |        760 |     8.5393 |     6.1773 |      0.0000 |      22.000 |
CaloAcceptanceBremAlg_Long_daa67159    INFO Number of counters : 2
 |    Counter                                      |     #     |    sum     | mean/eff^* | rms/err^*  |     min     |     max     |
 | "#total tracks"                                 |        89 |       4692 |     52.719 |     28.978 |      3.0000 |      122.00 |
 | "#tracks in acceptance"                         |        89 |       3496 |     39.281 |     22.001 |      3.0000 |      97.000 |
CaloAcceptanceEcalAlg_Downstream...    INFO Number of counters : 2
 |    Counter                                      |     #     |    sum     | mean/eff^* | rms/err^*  |     min     |     max     |
 | "#total tracks"                                 |        89 |       1053 |     11.831 |     8.1119 |      0.0000 |      30.000 |
 | "#tracks in acceptance"                         |        89 |        812 |     9.1236 |     6.6143 |      0.0000 |      25.000 |
CaloAcceptanceEcalAlg_Long_d60dc17f    INFO Number of counters : 2
 |    Counter                                      |     #     |    sum     | mean/eff^* | rms/err^*  |     min     |     max     |
 | "#total tracks"                                 |        89 |       4692 |     52.719 |     28.978 |      3.0000 |      122.00 |
 | "#tracks in acceptance"                         |        89 |       3949 |     44.371 |     24.328 |      3.0000 |      105.00 |
CaloAcceptanceEcalAlg_Ttrack_792...    INFO Number of counters : 2
 |    Counter                                      |     #     |    sum     | mean/eff^* | rms/err^*  |     min     |     max     |
 | "#total tracks"                                 |        89 |       2838 |     31.888 |     17.013 |      0.0000 |      65.000 |
 | "#tracks in acceptance"                         |        89 |       2233 |     25.090 |     13.759 |      0.0000 |      52.000 |
CaloAcceptanceHcalAlg_Downstream...    INFO Number of counters : 2
 |    Counter                                      |     #     |    sum     | mean/eff^* | rms/err^*  |     min     |     max     |
 | "#total tracks"                                 |        89 |       1053 |     11.831 |     8.1119 |      0.0000 |      30.000 |
 | "#tracks in acceptance"                         |        89 |        730 |     8.2022 |     6.0692 |      0.0000 |      25.000 |
CaloAcceptanceHcalAlg_Long_46b27da0    INFO Number of counters : 2
 |    Counter                                      |     #     |    sum     | mean/eff^* | rms/err^*  |     min     |     max     |
 | "#total tracks"                                 |        89 |       4692 |     52.719 |     28.978 |      3.0000 |      122.00 |
 | "#tracks in acceptance"                         |        89 |       3726 |     41.865 |     23.016 |      3.0000 |      99.000 |
CaloFutureClusterCovarianceAlg_5...    INFO Number of counters : 1
 |    Counter                                      |     #     |    sum     | mean/eff^* | rms/err^*  |     min     |     max     |
 | "# clusters"                                    |     13695 |
CaloFutureClusterCovarianceAlg_5...    INFO Number of counters : 3
 |    Counter                                      |     #     |    sum     | mean/eff^* | rms/err^*  |     min     |     max     |
 | "Corrected Clusters: # cells "                  |      1466 |       6247 |     4.2613 |     1.2867 |      2.0000 |      10.000 |
 | "Corrected Clusters: ET"                        |      1466 |   346317.8 |     236.23 |     273.50 |      2.0000 |      3286.4 |
 | "Corrected Clusters: size ratio"                |      1466 |   760.9261 |    0.51905 |    0.45622 | -3.6723e-16 |      3.1267 |
CaloFutureMergedPi0_200c3e5f           INFO Number of counters : 12
 |    Counter                                      |     #     |    sum     | mean/eff^* | rms/err^*  |     min     |     max     |
 |*"Cluster without 2nd seed found"                |       234 |          0 |( 0.000000 +- 0.000000)% |
 | "Corrected energy"                              |       468 |    5450449 |     11646. |     12560. |      143.96 |      82446. |
 |*"Fails to set covariance"                       |       468 |          0 |( 0.000000 +- 0.000000)% |
 |*"Fails to set spread"                           |       468 |          0 |( 0.000000 +- 0.000000)% |
 |*"Fails to tag(E) cluster (1)"                   |       234 |          0 |( 0.000000 +- 0.000000)% |
 |*"Fails to tag(E) cluster (2)"                   |       234 |          0 |( 0.000000 +- 0.000000)% |
 | "Photon Delta(E)"                               |       468 |  -206882.9 |    -442.06 |     581.85 |     -3260.2 |      1609.9 |
 | "Photon Delta(X)"                               |       468 |   315.6231 |    0.67441 |     12.778 |     -22.781 |      28.613 |
 | "Photon Delta(Y)"                               |       468 |  -436.7163 |   -0.93315 |     12.906 |     -22.774 |      33.869 |
 | "Photon Delta(Z)"                               |       468 |   37776.88 |     80.720 |     11.718 |      27.925 |      110.74 |
 | "clusters => mergedPi0s"                        |        89 |        234 |     2.6292 |
 | "clusters => splitClusters"                     |        89 |        468 |     5.2584 |
CaloFutureMergedPi0_200c3e5f.Cal...    INFO Number of counters : 6
 |    Counter                                      |     #     |    sum     | mean/eff^* | rms/err^*  |     min     |     max     |
 | "<alpha> Inner"                                 |       138 |   136.8808 |    0.99189 |   0.022736 |     0.96494 |      1.0563 |
 | "<alpha> Middle"                                |        80 |   79.97888 |    0.99974 |   0.017107 |     0.97767 |      1.0702 |
 | "<alpha> Outer"                                 |       250 |   248.7891 |    0.99516 |   0.017589 |     0.97376 |      1.0947 |
 | "Pileup offset"                                 |       468 |   156953.6 |     335.37 |     389.90 |      1.8529 |      2511.2 |
 | "Pileup scale"                                  |       468 |       2520 |     5.3846 |     1.6939 |      1.0000 |      9.0000 |
 | "Pileup subtracted ratio"                       |       468 |   451.4542 |    0.96465 |   0.030145 |     0.80699 |     0.99927 |
CaloFutureMergedPi0_200c3e5f.Eca...    INFO Number of counters : 3
 |    Counter                                      |     #     |    sum     | mean/eff^* | rms/err^*  |     min     |     max     |
 | "Corrected Clusters: # cells "                  |        56 |        324 |     5.7857 |     1.5085 |      4.0000 |      9.0000 |
 | "Corrected Clusters: ET"                        |        56 |      51404 |     917.93 |     707.96 |      77.400 |      3240.0 |
 | "Corrected Clusters: size ratio"                |        56 |   23.12214 |    0.41290 |    0.36794 |    0.034043 |      1.9012 |
CaloSelectiveBremMatchAlg_Downst...    INFO Number of counters : 3
 |    Counter                                      |     #     |    sum     | mean/eff^* | rms/err^*  |     min     |     max     |
 | "#links in table"                               |        89 |        227 |     2.5506 |     2.8324 |      0.0000 |      17.000 |
 | "average chi2"                                  |       227 |   1071.327 |     4.7195 |     5.1786 |    0.010921 |      31.628 |
 | "average energy (track based)"                  |       760 |   40559.93 |     53.368 |     227.79 |      0.0000 |      4162.1 |
CaloSelectiveBremMatchAlg_Long_f...    INFO Number of counters : 3
 |    Counter                                      |     #     |    sum     | mean/eff^* | rms/err^*  |     min     |     max     |
 | "#links in table"                               |        89 |       1216 |     13.663 |     11.734 |      0.0000 |      57.000 |
 | "average chi2"                                  |      1216 |   1381.835 |     1.1364 |     1.9671 |  6.6361e-05 |      34.251 |
 | "average energy (track based)"                  |      3496 |   67718.86 |     19.370 |     60.208 |      0.0000 |      1348.3 |
CaloSelectiveElectronMatchAlg_Do...    INFO Number of counters : 2
 |    Counter                                      |     #     |    sum     | mean/eff^* | rms/err^*  |     min     |     max     |
 | "#links in table"                               |        89 |        729 |     8.1910 |     6.2976 |      0.0000 |      24.000 |
 | "average chi2"                                  |       729 |   15598.15 |     21.397 |     87.219 |  0.00084626 |      2153.4 |
CaloSelectiveElectronMatchAlg_Lo...    INFO Number of counters : 2
 |    Counter                                      |     #     |    sum     | mean/eff^* | rms/err^*  |     min     |     max     |
 | "#links in table"                               |        89 |       3152 |     35.416 |     21.264 |      2.0000 |      93.000 |
 | "average chi2"                                  |      3152 |   16596.94 |     5.2655 |     10.492 |   0.0030368 |      180.71 |
CaloSelectiveTrackMatchAlg_Downs...    INFO Number of counters : 2
 |    Counter                                      |     #     |    sum     | mean/eff^* | rms/err^*  |     min     |     max     |
 | "#links in table"                               |        89 |        730 |     8.2022 |     6.2928 |      0.0000 |      24.000 |
 | "average chi2"                                  |       730 |   469.5819 |    0.64326 |     1.1176 |  3.5423e-05 |      14.590 |
CaloSelectiveTrackMatchAlg_Long_...    INFO Number of counters : 2
 |    Counter                                      |     #     |    sum     | mean/eff^* | rms/err^*  |     min     |     max     |
 | "#links in table"                               |        89 |       3191 |     35.854 |     21.412 |      2.0000 |      93.000 |
 | "average chi2"                                  |      3191 |   569.2585 |    0.17840 |    0.36246 |  8.5308e-06 |      8.8096 |
CaloSelectiveTrackMatchAlg_Ttrac...    INFO Number of counters : 2
 |    Counter                                      |     #     |    sum     | mean/eff^* | rms/err^*  |     min     |     max     |
 | "#links in table"                               |        89 |       1827 |     20.528 |     11.486 |      0.0000 |      43.000 |
 | "average chi2"                                  |      1827 |    525.967 |    0.28789 |    0.41546 |  3.9493e-05 |      4.0810 |
CaloTrackBasedElectronShowerAlg_...    INFO Number of counters : 2
 |    Counter                                      |     #     |    sum     | mean/eff^* | rms/err^*  |     min     |     max     |
 | "average DLL"                                   |       812 |  -146.7805 |   -0.18076 |    0.63692 |     -7.3612 |      3.2939 |
 | "average E/p"                                   |       812 |   40.93281 |   0.050410 |   0.077133 |      0.0000 |     0.93229 |
CaloTrackBasedElectronShowerAlg_...    INFO Number of counters : 2
 |    Counter                                      |     #     |    sum     | mean/eff^* | rms/err^*  |     min     |     max     |
 | "average DLL"                                   |      3949 |  -290.0339 |  -0.073445 |    0.12745 |     -2.6917 |     0.57223 |
 | "average E/p"                                   |      3949 |   29.49324 |  0.0074685 |   0.010810 |      0.0000 |     0.16361 |
CaloTrackToHcalEnergyAlg_Downstr...    INFO Number of counters : 1
 |    Counter                                      |     #     |    sum     | mean/eff^* | rms/err^*  |     min     |     max     |
 | "energy (calo) associated to track"             |       730 |    3604398 |     4937.5 |     11146. |      0.0000 |  1.0735e+05 |
CaloTrackToHcalEnergyAlg_Long_b9...    INFO Number of counters : 1
 |    Counter                                      |     #     |    sum     | mean/eff^* | rms/err^*  |     min     |     max     |
 | "energy (calo) associated to track"             |      3726 |1.487981e+07 |     3993.5 |     7763.9 |      0.0000 |  1.0735e+05 |
ChargedProtoParticleMaker_7af2c458     INFO Number of counters : 1
 |    Counter                                      |     #     |    sum     | mean/eff^* | rms/err^*  |     min     |     max     |
 | "CreatedProtos"                                 |      8279 |
ClassifyPhotonElectronAlg_9f1f5b04     INFO Number of counters : 14
 |    Counter                                      |     #     |    sum     | mean/eff^* | rms/err^*  |     min     |     max     |
 | "Electron Delta(E)"                             |      4660 |   -1671486 |    -358.69 |     496.02 |     -3769.8 |      1429.8 |
 | "Electron Delta(X)"                             |      4660 |  -1698.167 |   -0.36441 |     12.452 |     -87.161 |      29.057 |
 | "Electron Delta(Y)"                             |      4660 |  -570.1796 |   -0.12236 |     12.351 |     -32.805 |      22.670 |
 | "Electron Delta(Z)"                             |      4660 |   320592.8 |     68.797 |     13.208 |      14.527 |      108.52 |
 | "Electron corrected energy"                     |      4660 |2.669763e+07 |     5729.1 |     6710.8 |      113.39 |      96127. |
 | "Electrons pT-rejected after correction"        |        44 |
 | "Photon Delta(E)"                               |      9639 |   -2167233 |    -224.84 |     383.42 |     -4036.0 |      817.22 |
 | "Photon Delta(X)"                               |      9639 |  -3090.616 |   -0.32064 |     12.647 |     -91.984 |      32.112 |
 | "Photon Delta(Y)"                               |      9639 |  -2357.959 |   -0.24463 |     12.549 |     -91.966 |      38.582 |
 | "Photon Delta(Z)"                               |      9639 |   570619.6 |     59.199 |     12.949 |     -1.1826 |      114.41 |
 | "Photon corrected energy"                       |      9639 |3.255813e+07 |     3377.7 |     5630.2 |      38.834 |  1.2636e+05 |
 | "Photons pT-rejected after correction"          |       202 |
 | "electronHypos"                                 |        89 |       4616 |     51.865 |     26.331 |      6.0000 |      110.00 |
 | "photonHypos"                                   |        89 |       9437 |     106.03 |     46.944 |      10.000 |      204.00 |
ClassifyPhotonElectronAlg_9f1f5b...    INFO Number of counters : 7
 |    Counter                                      |     #     |    sum     | mean/eff^* | rms/err^*  |     min     |     max     |
 | "<alpha> Inner"                                 |      4087 |   4066.405 |    0.99496 |   0.020031 |     0.96438 |      1.1318 |
 | "<alpha> Middle"                                |      3785 |   3808.331 |     1.0062 |   0.020766 |     0.97692 |      1.2128 |
 | "<alpha> Outer"                                 |      6394 |   6391.626 |    0.99963 |   0.016624 |     0.97371 |      1.1067 |
 | "Pileup offset"                                 |     14266 |    4848785 |     339.88 |     406.67 |      2.6870 |      3722.1 |
 | "Pileup scale"                                  |     14299 |      71742 |     5.0173 |     1.7975 |      1.0000 |      9.0000 |
 | "Pileup subtracted ratio"                       |     14266 |   12572.82 |    0.88131 |    0.12538 |   0.0072416 |     0.99895 |
 | "Skip negative energy correction"               |        33 |
DefaultGECFilter                       INFO Number of counters : 2
 |    Counter                                      |     #     |    sum     | mean/eff^* | rms/err^*  |     min     |     max     |
 | "Nb Events Processed"                           |       100 |
 | "Nb events removed"                             |        11 |
FutureNeutralProtoPAlg_b8afe2a2        INFO Number of counters : 4
 |    Counter                                      |     #     |    sum     | mean/eff^* | rms/err^*  |     min     |     max     |
 | "Neutral Protos"                                |        89 |      10139 |     113.92 |     52.836 |      10.000 |      213.00 |
 | "Neutral Protos from MergedPi0s"                |        89 |        234 |     2.6292 |     2.5894 |      0.0000 |      11.000 |
 | "Neutral Protos from Photons"                   |        89 |       9437 |     106.03 |     46.944 |      10.000 |      204.00 |
 | "Neutral Protos from SplitPhotons"              |        89 |        468 |     5.2584 |     5.1789 |      0.0000 |      22.000 |
GraphClustering_72971694               INFO Number of counters : 4
 |    Counter                                      |     #     |    sum     | mean/eff^* | rms/err^*  |     min     |     max     |
 | "# clusters"                                    |        89 |      13695 |     153.88 |     67.941 |      16.000 |      283.00 |
 | "Cluster energy"                                |     13695 |5.899148e+07 |     4307.5 |     6278.1 |      9.6000 |  1.3040e+05 |
 | "Cluster size"                                  |     13695 |     137677 |     10.053 |     2.3216 |      6.0000 |      24.000 |
 | "Negative energy clusters"                      |         1 |          1 |     1.0000 |     0.0000 |      1.0000 |      1.0000 |
HLTControlFlowMgr                      INFO Number of counters : 1
 |    Counter                                      |     #     |    sum     | mean/eff^* | rms/err^*  |     min     |     max     |
 | "Processed events"                              |       100 |
LHCb__Converters__Track__SOA__fr...    INFO Number of counters : 1
 |    Counter                                      |     #     |    sum     | mean/eff^* | rms/err^*  |     min     |     max     |
 | "Nb of Produced Tracks"                         |        89 |       2838 |     31.888 |
LHCb__Converters__Track__SOA__fr...    INFO Number of counters : 1
 |    Counter                                      |     #     |    sum     | mean/eff^* | rms/err^*  |     min     |     max     |
 | "Nb of Produced Tracks"                         |        89 |       1053 |     11.831 |
LHCb__Converters__Track__SOA__fr...    INFO Number of counters : 1
 |    Counter                                      |     #     |    sum     | mean/eff^* | rms/err^*  |     min     |     max     |
 | "Nb of Produced Tracks"                         |        89 |       4692 |     52.719 |
MuonIDHlt2AlgDownstream_378a9775       INFO Number of counters : 7
 |    Counter                                      |     #     |    sum     | mean/eff^* | rms/err^*  |     min     |     max     |
 | "BgLL"                                          |        63 |  -22.90832 |   -0.36362 |    0.93245 |     -5.8649 |      0.0000 |
 | "MuLL"                                          |        63 |  -635.2242 |    -10.083 |     2.8626 |     -11.513 |    -0.16347 |
 | "muonMVAStat"                                   |        63 |  -43.91073 |   -0.69700 |    0.70545 |     -2.1182 |     0.85955 |
 |*"nInAcceptance"                                 |      1053 |        745 |( 70.75024 +- 1.401880)% |
 |*"nIsMuon"                                       |      1053 |         63 |( 5.982906 +- 0.7308787)% |
 |*"nIsMuonTight"                                  |      1053 |         17 |( 1.614435 +- 0.3883844)% |
 |*"nMomentumCut"                                  |      1053 |        811 |( 77.01804 +- 1.296509)% |
MuonIDHlt2AlgLong_42e6dd28             INFO Number of counters : 7
 |    Counter                                      |     #     |    sum     | mean/eff^* | rms/err^*  |     min     |     max     |
 | "BgLL"                                          |       356 |  -175.1272 |   -0.49193 |    0.92357 |     -6.1916 |      0.0000 |
 | "MuLL"                                          |       356 |  -3338.735 |    -9.3785 |     3.0690 |     -11.513 |    -0.12309 |
 | "muonMVAStat"                                   |       356 |  -193.0948 |   -0.54240 |    0.90534 |     -3.0272 |      4.2029 |
 |*"nInAcceptance"                                 |      4692 |       3682 |( 78.47400 +- 0.6000198)% |
 |*"nIsMuon"                                       |      4692 |        356 |( 7.587383 +- 0.3865740)% |
 |*"nIsMuonTight"                                  |      4692 |        146 |( 3.111679 +- 0.2534861)% |
 |*"nMomentumCut"                                  |      4692 |       3969 |( 84.59079 +- 0.5270753)% |
MuonPIDV2ToMuonTracks_Downstream...    INFO Number of counters : 1
 |    Counter                                      |     #     |    sum     | mean/eff^* | rms/err^*  |     min     |     max     |
 | "Nb of input v2 MuonPIDs"                       |        89 |       1053 |     11.831 |
MuonPIDV2ToMuonTracks_Long_e9e2296c    INFO Number of counters : 1
 |    Counter                                      |     #     |    sum     | mean/eff^* | rms/err^*  |     min     |     max     |
 | "Nb of input v2 MuonPIDs"                       |        89 |       4692 |     52.719 |
PrForwardTrackingVelo_28e595bd         INFO Number of counters : 10
 |    Counter                                      |     #     |    sum     | mean/eff^* | rms/err^*  |     min     |     max     |
 | "Accepted input tracks"                         |        89 |      10572 |     118.79 |
 | "Created long tracks"                           |        89 |       4910 |     55.169 |
 | "Input tracks"                                  |        89 |      11046 |     124.11 |
 | "Number of candidate bins per track"            |     10572 |      46334 |     4.3827 |     4.5356 |      0.0000 |      31.000 |
 | "Number of complete candidates/track 1st Loop"  |      8843 |       5194 |    0.58736 |    0.62473 |      0.0000 |      5.0000 |
 | "Number of complete candidates/track 2nd Loop"  |      4574 |        351 |   0.076738 |    0.27427 |      0.0000 |      3.0000 |
 | "Number of x candidates per track 1st Loop"     |      8843 |      10977 |     1.2413 |     1.1937 |
 | "Number of x candidates per track 2nd Loop"     |      4574 |       9313 |     2.0361 |     2.1840 |
 | "Percentage second loop execution"              |      8843 |       4574 |    0.51725 |
 | "Removed duplicates"                            |        89 |        246 |     2.7640 |
PrForwardTrackingVelo_28e595bd.P...    INFO Number of counters : 2
 |    Counter                                      |     #     |    sum     | mean/eff^* | rms/err^*  |     min     |     max     |
 | "#UT hits added"                                |      4354 |      17480 |     4.0147 |
 | "#tracks with hits added"                       |      4354 |
PrHybridSeeding_97242385               INFO Number of counters : 21
 |    Counter                                      |     #     |    sum     | mean/eff^* | rms/err^*  |     min     |     max     |
 | "Created T2x1 three-hit combinations in case 0" |    130312 |      78704 |    0.60397 |    0.61475 |      0.0000 |      5.0000 |
 | "Created T2x1 three-hit combinations in case 1" |    187203 |     120538 |    0.64389 |    0.71600 |      0.0000 |      10.000 |
 | "Created T2x1 three-hit combinations in case 2" |    340870 |     264258 |    0.77525 |    0.95055 |      0.0000 |      22.000 |
 | "Created XZ tracks (part 0)"                    |       267 |      12197 |     45.682 |     48.745 |      0.0000 |      396.00 |
 | "Created XZ tracks (part 1)"                    |       267 |      10414 |     39.004 |     32.852 |      0.0000 |      166.00 |
 | "Created XZ tracks in case 0"                   |       178 |       7523 |     42.264 |     33.502 |      2.0000 |      197.00 |
 | "Created XZ tracks in case 1"                   |       178 |       8328 |     46.787 |     41.371 |      2.0000 |      293.00 |
 | "Created XZ tracks in case 2"                   |       178 |       6760 |     37.978 |     48.412 |      0.0000 |      396.00 |
 | "Created full hit combinations in case 0"       |     11507 |      11507 |     1.0000 |     0.0000 |      1.0000 |      1.0000 |
 | "Created full hit combinations in case 1"       |      9790 |       9790 |     1.0000 |     0.0000 |      1.0000 |      1.0000 |
 | "Created full hit combinations in case 2"       |     10258 |      10258 |     1.0000 |     0.0000 |      1.0000 |      1.0000 |
 | "Created seed tracks"                           |       178 |       8096 |     45.483 |     24.022 |      3.0000 |      97.000 |
 | "Created seed tracks (part 0)"                  |        89 |       4539 |     51.000 |     27.695 |      6.0000 |      108.00 |
 | "Created seed tracks (part 1)"                  |        89 |       4454 |     50.045 |     26.378 |      3.0000 |      106.00 |
 | "Created seed tracks in case 0"                 |       178 |       4160 |     23.371 |     12.821 |      2.0000 |      53.000 |
 | "Created seed tracks in case 1"                 |       178 |       7620 |     42.809 |     22.427 |      3.0000 |      89.000 |
 | "Created seed tracks in case 2"                 |       178 |       8520 |     47.865 |     25.367 |      3.0000 |      99.000 |
 | "Created seed tracks in recovery step"          |        89 |        473 |     5.3146 |     3.9707 |      0.0000 |      16.000 |
 | "Created two-hit combinations in case 0"        |     26343 |     552986 |     20.992 |     14.317 |      0.0000 |      73.000 |
 | "Created two-hit combinations in case 1"        |     23300 |     689671 |     29.600 |     16.786 |      0.0000 |      91.000 |
 | "Created two-hit combinations in case 2"        |     20201 |     930957 |     46.085 |     26.089 |      1.0000 |      149.00 |
PrLongLivedTracking_83484006           INFO Number of counters : 8
 |    Counter                                      |     #     |    sum     | mean/eff^* | rms/err^*  |     min     |     max     |
 | "#Downstream tracks made"                       |        89 |       5112 |     57.438 |
 | "#Good XUVcand"                                 |      7395 |      27549 |     3.7254 |
 | "#Good Xcand"                                   |      7395 |      81577 |     11.031 |
 | "#Presel hits0"                                 |      7395 |      80448 |     10.879 |
 | "#Presel hits1"                                 |      7395 |      80434 |     10.877 |
 | "#Presel hits2"                                 |      7395 |      76944 |     10.405 |
 | "#Presel hits3"                                 |      7395 |      79568 |     10.760 |
 | "#Seeds"                                        |        89 |       8096 |     90.966 |
PrMatchNN_1965807d                     INFO Number of counters : 3
 |    Counter                                      |     #     |    sum     | mean/eff^* | rms/err^*  |     min     |     max     |
 | "#MatchingChi2"                                 |        89 |   69385.95 |     779.62 |
 | "#MatchingMLP"                                  |      5036 |   4242.533 |    0.84244 |
 | "#MatchingTracks"                               |        89 |       5036 |     56.584 |
PrMatchNN_1965807d.PrAddUTHitsTool     INFO Number of counters : 2
 |    Counter                                      |     #     |    sum     | mean/eff^* | rms/err^*  |     min     |     max     |
 | "#UT hits added"                                |      4334 |      17391 |     4.0127 |
 | "#tracks with hits added"                       |      4334 |
PrStoreSciFiHits_fb0eba02              INFO Number of counters : 25
 |    Counter                                      |     #     |    sum     | mean/eff^* | rms/err^*  |     min     |     max     |
 | "Average X in T1U"                              |     26216 |   440257.9 |     16.793 |     1225.9 |     -2656.0 |      2656.4 |
 | "Average X in T1V"                              |     26632 |   195916.4 |     7.3564 |     1213.1 |     -2656.3 |      2656.0 |
 | "Average X in T1X1"                             |     26343 |   683907.3 |     25.962 |     1245.5 |     -2646.0 |      2646.1 |
 | "Average X in T1X2"                             |     26741 |   450260.8 |     16.838 |     1202.5 |     -2643.4 |      2646.1 |
 | "Average X in T2U"                              |     25802 |     619820 |     24.022 |     1224.9 |     -2656.3 |      2656.0 |
 | "Average X in T2V"                              |     26388 |   876520.8 |     33.217 |     1217.7 |     -2655.6 |      2655.5 |
 | "Average X in T2X1"                             |     24757 |     105855 |     4.2758 |     1228.8 |     -2646.0 |      2646.2 |
 | "Average X in T2X2"                             |     27009 |   154871.3 |     5.7341 |     1203.8 |     -2646.1 |      2645.4 |
 | "Average X in T3U"                              |     28406 |   578823.8 |     20.377 |     1484.4 |     -3187.0 |      3188.4 |
 | "Average X in T3V"                              |     29187 |   192103.6 |     6.5818 |     1457.6 |     -3188.2 |      3187.8 |
 | "Average X in T3X1"                             |     27622 |   224835.5 |     8.1397 |     1464.3 |     -3175.7 |      3176.0 |
 | "Average X in T3X2"                             |     30227 |   454808.9 |     15.046 |     1452.2 |     -3176.1 |      3176.1 |
 | "Hits in T1U"                                   |       356 |      26216 |     73.640 |     28.499 |      24.000 |      153.00 |
 | "Hits in T1V"                                   |       356 |      26632 |     74.809 |     29.435 |      20.000 |      154.00 |
 | "Hits in T1X1"                                  |       356 |      26343 |     73.997 |     28.722 |      14.000 |      155.00 |
 | "Hits in T1X2"                                  |       356 |      26741 |     75.115 |     29.255 |      17.000 |      183.00 |
 | "Hits in T2U"                                   |       356 |      25802 |     72.478 |     27.862 |      17.000 |      168.00 |
 | "Hits in T2V"                                   |       356 |      26388 |     74.124 |     28.152 |      17.000 |      149.00 |
 | "Hits in T2X1"                                  |       356 |      24757 |     69.542 |     26.646 |      17.000 |      157.00 |
 | "Hits in T2X2"                                  |       356 |      27009 |     75.868 |     29.082 |      18.000 |      162.00 |
 | "Hits in T3U"                                   |       356 |      28406 |     79.792 |     30.863 |      20.000 |      238.00 |
 | "Hits in T3V"                                   |       356 |      29187 |     81.986 |     30.568 |      20.000 |      191.00 |
 | "Hits in T3X1"                                  |       356 |      27622 |     77.590 |     27.482 |      24.000 |      156.00 |
 | "Hits in T3X2"                                  |       356 |      30227 |     84.907 |     30.442 |      22.000 |      168.00 |
 | "Total number of hits"                          |        89 |     325330 |     3655.4 |     1223.4 |      1293.0 |      5701.0 |
PrStoreUTHitClusters_69298ec0          INFO Number of counters : 3
 |    Counter                                      |     #     |    sum     | mean/eff^* | rms/err^*  |     min     |     max     |
 | "# RawBank::UT banks"                           |        89 |      19224 |     216.00 |
 | "# RawBank::UTError banks"                      |        89 |          0 |     0.0000 |
 |*"Non-unique UT clusters in event"               |        89 |          0 |( 0.000000 +- 0.000000)% |
PrVPHitsToVPLightClusters_52398a4c     INFO Number of counters : 1
 |    Counter                                      |     #     |    sum     | mean/eff^* | rms/err^*  |     min     |     max     |
 | "Nb of Produced Clusters"                       |        89 |     164362 |     1846.8 |
PrVeloUT_7a26ce52                      INFO Number of counters : 2
 |    Counter                                      |     #     |    sum     | mean/eff^* | rms/err^*  |     min     |     max     |
 | "#seeds"                                        |        89 |      11046 |     124.11 |
 | "#tracks"                                       |        89 |       7168 |     80.539 |
PrVeloUT_9a58c922                      INFO Number of counters : 2
 |    Counter                                      |     #     |    sum     | mean/eff^* | rms/err^*  |     min     |     max     |
 | "#seeds"                                        |        89 |      11046 |     124.11 |
 | "#tracks"                                       |        89 |       2619 |     29.427 |
SciFiTrackForwarding_8b975f22          INFO Number of counters : 2
 |    Counter                                      |     #     |    sum     | mean/eff^* | rms/err^*  |     min     |     max     |
 | "2nd Loop"                                      |      1220 |
 | "Created long tracks"                           |        89 |       1612 |     18.112 |
TrackBeamLineVertexFinderSoA_86e...    INFO Number of counters : 3
 |    Counter                                      |     #     |    sum     | mean/eff^* | rms/err^*  |     min     |     max     |
 |*"Fraction of failed PV fits"                    |       405 |          1 |(0.2469136 +- 0.2466086)% |
 |*"Fraction of unconverged PV fits"               |       405 |         21 |( 5.185185 +- 1.101775)% |
 | "Nb PVs"                                        |        89 |        392 |     4.4045 |
TrackBestTrackCreator_f98ed11e         INFO Number of counters : 32
 |    Counter                                      |     #     |    sum     | mean/eff^* | rms/err^*  |     min     |     max     |
 |*"BadInput"                                      |     21649 |          0 |( 0.000000 +- 0.000000)% |
 |*"Downstream.badChisq"                           |      1372 |        385 |( 28.06122 +- 1.212992)% |
 | "Downstream.chisqProbSum"                       |      1372 |   385.6177 |    0.28106 |
 |*"Downstream.flipCharge"                         |      1372 |          0 |( 0.000000 +- 0.000000)% |
 | "Downstream.ghostProbability"                   |      1372 |   496.6215 |    0.36197 |
 | "Downstream.numOutliers"                        |      1372 |        964 |    0.70262 |
 |*"FitFailed"                                     |     21649 |          0 |( 0.000000 +- 0.000000)% |
 |*"Long.badChisq"                                 |      6267 |       2899 |( 46.25818 +- 0.6298260)% |
 | "Long.chisqProbSum"                             |      6267 |    976.139 |    0.15576 |
 |*"Long.flipCharge"                               |      6267 |          0 |( 0.000000 +- 0.000000)% |
 | "Long.ghostProbability"                         |      6267 |   1415.182 |    0.22581 |
 | "Long.numOutliers"                              |      6267 |       7219 |     1.1519 |
 |*"Ttrack.badChisq"                               |      2838 |         63 |( 2.219873 +- 0.2765561)% |
 | "Ttrack.chisqProbSum"                           |      2838 |   1207.605 |    0.42551 |
 |*"Ttrack.flipCharge"                             |      2838 |         35 |( 1.233263 +- 0.2071701)% |
 | "Ttrack.ghostProbability"                       |      2838 |   271.4514 |   0.095649 |
 | "Ttrack.numOutliers"                            |      2838 |        937 |    0.33016 |
 |*"Upstream.badChisq"                             |      3387 |       1171 |( 34.57337 +- 0.8172229)% |
 | "Upstream.chisqProbSum"                         |      3387 |    947.732 |    0.27981 |
 |*"Upstream.flipCharge"                           |      3387 |        102 |( 3.011515 +- 0.2936601)% |
 | "Upstream.ghostProbability"                     |      3387 |   1342.444 |    0.39635 |
 | "Upstream.numOutliers"                          |      3387 |       3285 |    0.96988 |
 |*"Velo.badChisq"                                 |      4154 |        863 |( 20.77516 +- 0.6294621)% |
 | "Velo.chisqProbSum"                             |      4154 |   1390.161 |    0.33466 |
 |*"Velo.flipCharge"                               |      4154 |          0 |( 0.000000 +- 0.000000)% |
 | "Velo.ghostProbability"                         |      4154 |   533.4777 |    0.12843 |
 | "Velo.numOutliers"                              |      4154 |       3870 |    0.93163 |
 |*"VeloBackward.badChisq"                         |      3631 |        247 |( 6.802534 +- 0.4178537)% |
 | "VeloBackward.chisqProbSum"                     |      3631 |   1663.882 |    0.45824 |
 |*"VeloBackward.flipCharge"                       |      3631 |          0 |( 0.000000 +- 0.000000)% |
 | "VeloBackward.ghostProbability"                 |      3631 |   1375.806 |    0.37891 |
 | "VeloBackward.numOutliers"                      |      3631 |        908 |    0.25007 |
UTHitClustersToPrUTHitsConverter...    INFO Number of counters : 1
 |    Counter                                      |     #     |    sum     | mean/eff^* | rms/err^*  |     min     |     max     |
 | "# Converted Clusters"                          |        89 |      81145 |     911.74 |
UTHitClustersToUTHitHandlerConve...    INFO Number of counters : 1
 |    Counter                                      |     #     |    sum     | mean/eff^* | rms/err^*  |     min     |     max     |
 | "# Converted Clusters"                          |        89 |      81145 |     911.74 |
VPLightClustersToVPMicroClusters...    INFO Number of counters : 1
 |    Counter                                      |     #     |    sum     | mean/eff^* | rms/err^*  |     min     |     max     |
 | "# Converted Clusters"                          |        89 |     164362 |     1846.8 |
VeloKalman_9f0b2543                    INFO Number of counters : 1
 |    Counter                                      |     #     |    sum     | mean/eff^* | rms/err^*  |     min     |     max     |
 | "Nb of Produced Tracks"                         |        89 |       1612 |     18.112 |
VeloRetinaClusterTrackingSIMD_eb...    INFO Number of counters : 2
 |    Counter                                      |     #     |    sum     | mean/eff^* | rms/err^*  |     min     |     max     |
 | "Nb of Produced Clusters"                       |        89 |     164362 |     1846.8 |
 | "Nb of Produced Tracks"                         |        89 |      14680 |     164.94 |
fromPrDownstreamTracksV1Tracks_b...    INFO Number of counters : 1
 |    Counter                                      |     #     |    sum     | mean/eff^* | rms/err^*  |     min     |     max     |
 | "Nb of converted Tracks"                        |        89 |       5112 |     57.438 |
fromPrForwardTracksV1Tracks_a1c2...    INFO Number of counters : 1
 |    Counter                                      |     #     |    sum     | mean/eff^* | rms/err^*  |     min     |     max     |
 | "Nb of converted Tracks"                        |        89 |       4910 |     55.169 |
fromPrMatchTracksV1Tracks_7ada9d2f     INFO Number of counters : 1
 |    Counter                                      |     #     |    sum     | mean/eff^* | rms/err^*  |     min     |     max     |
 | "Nb of converted Tracks"                        |        89 |       5036 |     56.584 |
fromPrSeedingTracksV1Tracks_6cb7...    INFO Number of counters : 1
 |    Counter                                      |     #     |    sum     | mean/eff^* | rms/err^*  |     min     |     max     |
 | "Nb of converted Tracks"                        |        89 |       8096 |     90.966 |
fromPrUpstreamTracksV1Tracks_d9b...    INFO Number of counters : 1
 |    Counter                                      |     #     |    sum     | mean/eff^* | rms/err^*  |     min     |     max     |
 | "Nb of converted Tracks"                        |        89 |       7168 |     80.539 |
fromPrVeloTracksV1TracksMerger_8...    INFO Number of counters : 1
 |    Counter                                      |     #     |    sum     | mean/eff^* | rms/err^*  |     min     |     max     |
 | "Nb of converted Tracks"                        |        89 |      14680 |     164.94 |
fromV2MuonPIDV1MuonPIDDownstream...    INFO Number of counters : 1
 |    Counter                                      |     #     |    sum     | mean/eff^* | rms/err^*  |     min     |     max     |
 | "Nb of Produced MuonPIDs"                       |        89 |       1053 |     11.831 |
fromV2MuonPIDV1MuonPIDLong_65e689e9    INFO Number of counters : 1
 |    Counter                                      |     #     |    sum     | mean/eff^* | rms/err^*  |     min     |     max     |
 | "Nb of Produced MuonPIDs"                       |        89 |       4692 |     52.719 |
fromV3TrackV1Track_537483e4            INFO Number of counters : 1
 |    Counter                                      |     #     |    sum     | mean/eff^* | rms/err^*  |     min     |     max     |
 | "Nb of Produced Tracks"                         |        89 |       1612 |     18.112 |
