CaloClusterEff                      SUCCESS Booked 1 N-Tuples and 0 Event Tag Collections
CaloClusterEff                      SUCCESS List of booked N-Tuples in directory "FILE1/CaloClusterEff"
CaloClusterEff                      SUCCESS  ID=clusEff       Title="clusEff"                                 #items=13 {endVtx_X,endVtx_Y,endVtx_Z,endVtx_type,max_fMCP,f_cl,cl_e,cl_et,cl_x,cl_y,cl_z,cl}
CaloClusterEff_mergedPi0            SUCCESS Booked 1 N-Tuples and 0 Event Tag Collections
CaloClusterEff_mergedPi0            SUCCESS List of booked N-Tuples in directory "FILE1/CaloClusterEff_mergedPi0"
CaloClusterEff_mergedPi0            SUCCESS  ID=clusEff       Title="clusEff"                                 #items=13 {endVtx_X,endVtx_Y,endVtx_Z,endVtx_type,max_fMCP,f_cl,cl_e,cl_et,cl_x,cl_y,cl_z,cl}
CaloClusterEff_resolvedPi0          SUCCESS Booked 1 N-Tuples and 0 Event Tag Collections
CaloClusterEff_resolvedPi0          SUCCESS List of booked N-Tuples in directory "FILE1/CaloClusterEff_resolvedPi0"
CaloClusterEff_resolvedPi0          SUCCESS  ID=clusEff       Title="clusEff"                                 #items=13 {endVtx_X,endVtx_Y,endVtx_Z,endVtx_type,max_fMCP,f_cl,cl_e,cl_et,cl_x,cl_y,cl_z,cl}
CaloHypoEff                         SUCCESS Booked 3 N-Tuples and 0 Event Tag Collections
CaloHypoEff                         SUCCESS List of booked N-Tuples in directory "FILE1/CaloHypoEff"
CaloHypoEff                         SUCCESS  ID=ElectronHypos Title="ElectronHypos"                           #items=29 {hypo_trueID,hypo_3charge,hypo_parentID,hypo_origVtxX,hypo_origVtxY,hypo_origVtxZ,}
CaloHypoEff                         SUCCESS  ID=MCParts       Title="MCParts"                                 #items=10 {MCP_trueID,MCP_parentID,MCP_PE,MCP_PT,MCP_ETA,MCP_originVtxX,MCP_originVtxY,MCP_o}
CaloHypoEff                         SUCCESS  ID=PhotonHypos   Title="PhotonHypos"                             #items=29 {hypo_trueID,hypo_3charge,hypo_parentID,hypo_origVtxX,hypo_origVtxY,hypo_origVtxZ,}
GraphClustering_72971694               INFO Built <224.791> graph calo clustering clusters/event
NTupleSvc                              INFO NTuples saved successfully
ApplicationMgr                         INFO Application Manager Finalized successfully
ApplicationMgr                         INFO Application Manager Terminated successfully
CaloAcceptanceEcalAlg_Downstream...    INFO Number of counters : 2
 |    Counter                                      |     #     |    sum     | mean/eff^* | rms/err^*  |     min     |     max     |
 | "#total tracks"                                 |      1000 |      20458 |     20.458 |     11.080 |      0.0000 |      76.000 |
 | "#tracks in acceptance"                         |      1000 |      15634 |     15.634 |     8.7496 |      0.0000 |      61.000 |
CaloAcceptanceEcalAlg_Long_5a8cc41d    INFO Number of counters : 2
 |    Counter                                      |     #     |    sum     | mean/eff^* | rms/err^*  |     min     |     max     |
 | "#total tracks"                                 |      1000 |      88622 |     88.622 |     41.396 |      3.0000 |      285.00 |
 | "#tracks in acceptance"                         |      1000 |      74703 |     74.703 |     35.103 |      3.0000 |      252.00 |
CaloAcceptanceEcalAlg_Ttrack_da5...    INFO Number of counters : 2
 |    Counter                                      |     #     |    sum     | mean/eff^* | rms/err^*  |     min     |     max     |
 | "#total tracks"                                 |      1000 |      60334 |     60.334 |     57.409 |      1.0000 |      574.00 |
 | "#tracks in acceptance"                         |      1000 |      48817 |     48.817 |     49.077 |      1.0000 |      498.00 |
CaloClusterEff                         INFO Number of counters : 5
 |    Counter                                      |     #     |    sum     | mean/eff^* | rms/err^*  |     min     |     max     |
 | "# reconstructed"                               |      1000 |        353 |    0.35300 |    0.47999 |      0.0000 |      2.0000 |
 | "# reconstructible"                             |      1000 |        429 |    0.42900 |    0.49896 |      0.0000 |      2.0000 |
 | "# signal"                                      |      1000 |       2028 |     2.0280 |    0.25143 |      2.0000 |      6.0000 |
 | "More than 1 endVertex found for signal"        |         2 |
 |*"reco efficiency"                               |       429 |        353 |( 82.28438 +- 1.843352)% |
CaloClusterEff_mergedPi0               INFO Number of counters : 4
 |    Counter                                      |     #     |    sum     | mean/eff^* | rms/err^*  |     min     |     max     |
 | "# reconstructed"                               |      1000 |          2 |  0.0020000 |   0.044677 |      0.0000 |      1.0000 |
 | "# reconstructible"                             |      1000 |         25 |   0.025000 |    0.17993 |      0.0000 |      3.0000 |
 | "# signal"                                      |      1000 |        282 |    0.28200 |    0.92762 |      0.0000 |      8.0000 |
 |*"reco efficiency"                               |        25 |          2 |( 8.000000 +- 5.425864)% |
CaloClusterEff_resolvedPi0             INFO Number of counters : 5
 |    Counter                                      |     #     |    sum     | mean/eff^* | rms/err^*  |     min     |     max     |
 | "# reconstructed"                               |      1000 |         17 |   0.017000 |    0.14391 |      0.0000 |      2.0000 |
 | "# reconstructible"                             |      1000 |         62 |   0.062000 |    0.31009 |      0.0000 |      3.0000 |
 | "# signal"                                      |      1000 |        494 |    0.49400 |     1.6468 |      0.0000 |      14.000 |
 | "More than 1 endVertex found for signal"        |         2 |
 |*"reco efficiency"                               |        62 |         17 |( 27.41935 +- 5.665564)% |
CaloClusterMCTruth_f74c042c            INFO Number of counters : 2
 |    Counter                                      |     #     |    sum     | mean/eff^* | rms/err^*  |     min     |     max     |
 | "#CC2MC links"                                  |      1000 |    4762667 |     4762.7 |
 |*"No MC information for the cluster is found"    |    224791 |        517 |(0.2299914 +- 0.01010337)% |
CaloFutureClusterCovarianceAlg_5...    INFO Number of counters : 1
 |    Counter                                      |     #     |    sum     | mean/eff^* | rms/err^*  |     min     |     max     |
 | "# clusters"                                    |    224791 |
CaloFutureClusterCovarianceAlg_5...    INFO Number of counters : 3
 |    Counter                                      |     #     |    sum     | mean/eff^* | rms/err^*  |     min     |     max     |
 | "Corrected Clusters: # cells "                  |     18983 |      82308 |     4.3359 |     1.3348 |      2.0000 |      12.000 |
 | "Corrected Clusters: ET"                        |     18983 |    5181420 |     272.95 |     492.65 |      1.8000 |      18718. |
 | "Corrected Clusters: size ratio"                |     18983 |    9717.55 |    0.51191 |    0.44661 | -1.4689e-15 |      4.7587 |
CaloFutureDigit2MCLinks2Table_b7...    INFO Number of counters : 2
 |    Counter                                      |     #     |    sum     | mean/eff^* | rms/err^*  |     min     |     max     |
 | "#CD2MC links"                                  |      1000 |          0 |     0.0000 |
 | "Empty Relation table"                          |      1000 |
CaloHypoEff                            INFO Number of counters : 6
 |    Counter                                      |     #     |    sum     | mean/eff^* | rms/err^*  |     min     |     max     |
 | "# Electrons with reco cluster"                 |      1000 |          5 |  0.0050000 |   0.070534 |      0.0000 |      1.0000 |
 | "# Photons with reco cluster"                   |      1000 |        309 |    0.30900 |    0.46424 |      0.0000 |      2.0000 |
 |*"Bkg fraction in Electron hypos"                |     27052 |       1155 |( 4.269555 +- 0.1229183)% |
 |*"Bkg fraction in Photon hypos"                  |     47853 |      18069 |( 37.75939 +- 0.2216128)% |
 |*"Electron hypo efficiency"                      |         5 |          4 |( 80.00000 +- 17.88854)% |
 |*"Photon hypo efficiency"                        |       309 |        294 |( 95.14563 +- 1.222592)% |
CaloSelectiveTrackMatchAlg_Downs...    INFO Number of counters : 2
 |    Counter                                      |     #     |    sum     | mean/eff^* | rms/err^*  |     min     |     max     |
 | "#links in table"                               |      1000 |      14058 |     14.058 |     8.4050 |      0.0000 |      56.000 |
 | "average chi2"                                  |     14058 |   6428.646 |    0.45729 |    0.85697 |  1.3598e-05 |      31.822 |
CaloSelectiveTrackMatchAlg_Long_...    INFO Number of counters : 2
 |    Counter                                      |     #     |    sum     | mean/eff^* | rms/err^*  |     min     |     max     |
 | "#links in table"                               |      1000 |      63580 |     63.580 |     31.963 |      3.0000 |      219.00 |
 | "average chi2"                                  |     63580 |   7417.972 |    0.11667 |    0.17865 |  2.4193e-07 |      4.0616 |
CaloSelectiveTrackMatchAlg_Ttrac...    INFO Number of counters : 2
 |    Counter                                      |     #     |    sum     | mean/eff^* | rms/err^*  |     min     |     max     |
 | "#links in table"                               |      1000 |      38715 |     38.715 |     35.771 |      0.0000 |      391.00 |
 | "average chi2"                                  |     38715 |   8175.862 |    0.21118 |    0.32867 |  6.0678e-07 |      10.600 |
ClassifyPhotonElectronAlg_b9a3b6be     INFO Number of counters : 14
 |    Counter                                      |     #     |    sum     | mean/eff^* | rms/err^*  |     min     |     max     |
 | "Electron Delta(E)"                             |     85238 |-3.832286e+07 |    -449.60 |     586.46 |     -7858.1 |      11705. |
 | "Electron Delta(X)"                             |     85238 |  -21919.65 |   -0.25716 |     12.275 |     -91.527 |      62.141 |
 | "Electron Delta(Y)"                             |     85238 |  -14474.62 |   -0.16981 |     12.248 |     -51.316 |      60.572 |
 | "Electron Delta(Z)"                             |     85238 |    5997739 |     70.365 |     13.468 |     -5.0801 |      134.22 |
 | "Electron corrected energy"                     |     85238 |5.648835e+08 |     6627.1 |     8517.0 |      29.867 |  5.5005e+05 |
 | "Electrons pT-rejected after correction"        |       609 |
 | "Photon Delta(E)"                               |    153791 |-4.226729e+07 |    -274.84 |     458.35 |     -16904. |      11705. |
 | "Photon Delta(X)"                               |    153791 |  -42559.07 |   -0.27673 |     12.596 |     -111.65 |      71.722 |
 | "Photon Delta(Y)"                               |    153791 |   -40460.7 |   -0.26309 |     12.595 |     -91.936 |      82.069 |
 | "Photon Delta(Z)"                               |    153791 |    9328394 |     60.656 |     13.441 |     -9.1475 |      134.80 |
 | "Photon corrected energy"                       |    153791 |6.007082e+08 |     3906.0 |     7548.6 |      21.995 |  5.7479e+05 |
 | "Photons pT-rejected after correction"          |      2438 |
 | "electronHypos"                                 |      1000 |      84629 |     84.629 |     37.742 |      4.0000 |      262.00 |
 | "photonHypos"                                   |      1000 |     151353 |     151.35 |     47.583 |      11.000 |      264.00 |
ClassifyPhotonElectronAlg_b9a3b6...    INFO Number of counters : 7
 |    Counter                                      |     #     |    sum     | mean/eff^* | rms/err^*  |     min     |     max     |
 | "<alpha> Inner"                                 |     67912 |   67519.04 |    0.99421 |   0.019402 |     0.96433 |      1.1636 |
 | "<alpha> Middle"                                |     64773 |   65150.12 |     1.0058 |   0.020023 |     0.97675 |      1.1990 |
 | "<alpha> Outer"                                 |    105917 |   105843.3 |    0.99930 |   0.016009 |     0.97360 |      1.1329 |
 | "Pileup offset"                                 |    238602 |9.703902e+07 |     406.70 |     479.49 |     -110.90 |      5703.9 |
 | "Pileup scale"                                  |    239029 |    1535680 |     6.4247 |     2.1730 |      1.0000 |      14.000 |
 | "Pileup subtracted ratio"                       |    238602 |   209602.9 |    0.87846 |    0.12059 |  0.00073091 |      1.1127 |
 | "Skip negative energy correction"               |       427 |
GraphClustering_72971694               INFO Number of counters : 4
 |    Counter                                      |     #     |    sum     | mean/eff^* | rms/err^*  |     min     |     max     |
 | "# clusters"                                    |      1000 |     224791 |     224.79 |     72.342 |      16.000 |      420.00 |
 | "Cluster energy"                                |    224791 |1.143519e+09 |     5087.0 |     8064.1 |      5.2000 |  5.9169e+05 |
 | "Cluster size"                                  |    224791 |    2301926 |     10.240 |     2.4572 |      4.0000 |      29.000 |
 | "Negative energy clusters"                      |         8 |          9 |     1.1250 |    0.33072 |      1.0000 |      2.0000 |
HLTControlFlowMgr                      INFO Number of counters : 1
 |    Counter                                      |     #     |    sum     | mean/eff^* | rms/err^*  |     min     |     max     |
 | "Processed events"                              |      1000 |
LHCb__Converters__Track__SOA__fr...    INFO Number of counters : 1
 |    Counter                                      |     #     |    sum     | mean/eff^* | rms/err^*  |     min     |     max     |
 | "Nb of Produced Tracks"                         |      1000 |      60334 |     60.334 |
LHCb__Converters__Track__SOA__fr...    INFO Number of counters : 1
 |    Counter                                      |     #     |    sum     | mean/eff^* | rms/err^*  |     min     |     max     |
 | "Nb of Produced Tracks"                         |      1000 |      20458 |     20.458 |
LHCb__Converters__Track__SOA__fr...    INFO Number of counters : 1
 |    Counter                                      |     #     |    sum     | mean/eff^* | rms/err^*  |     min     |     max     |
 | "Nb of Produced Tracks"                         |      1000 |      88622 |     88.622 |
PrForwardTrackingVelo_31a96f70         INFO Number of counters : 10
 |    Counter                                      |     #     |    sum     | mean/eff^* | rms/err^*  |     min     |     max     |
 | "Accepted input tracks"                         |      1000 |     190754 |     190.75 |
 | "Created long tracks"                           |      1000 |      99144 |     99.144 |
 | "Input tracks"                                  |      1000 |     199771 |     199.77 |
 | "Number of candidate bins per track"            |    190754 |    3321536 |     17.413 |     23.219 |      0.0000 |      177.00 |
 | "Number of complete candidates/track 1st Loop"  |    177592 |     111144 |    0.62584 |    0.70810 |      0.0000 |      7.0000 |
 | "Number of complete candidates/track 2nd Loop"  |     97176 |       8624 |   0.088746 |    0.30397 |      0.0000 |      4.0000 |
 | "Number of x candidates per track 1st Loop"     |    177592 |     487659 |     2.7460 |     3.4688 |
 | "Number of x candidates per track 2nd Loop"     |     97176 |     771861 |     7.9429 |     11.905 |
 | "Percentage second loop execution"              |    177592 |      97176 |    0.54719 |
 | "Removed duplicates"                            |      1000 |       6160 |     6.1600 |
PrForwardTrackingVelo_31a96f70.P...    INFO Number of counters : 2
 |    Counter                                      |     #     |    sum     | mean/eff^* | rms/err^*  |     min     |     max     |
 | "#UT hits added"                                |     84343 |     336366 |     3.9881 |
 | "#tracks with hits added"                       |     84343 |
PrHybridSeeding_97242385               INFO Number of counters : 21
 |    Counter                                      |     #     |    sum     | mean/eff^* | rms/err^*  |     min     |     max     |
 | "Created T2x1 three-hit combinations in case 0" |   3779483 |    2392721 |    0.63308 |    0.64329 |      0.0000 |      6.0000 |
 | "Created T2x1 three-hit combinations in case 1" |   5195895 |    3609253 |    0.69464 |    0.77289 |      0.0000 |      12.000 |
 | "Created T2x1 three-hit combinations in case 2" |   8578752 |    7705329 |    0.89819 |     1.0710 |      0.0000 |      24.000 |
 | "Created XZ tracks (part 0)"                    |      3000 |     425512 |     141.84 |     232.19 |      0.0000 |      3026.0 |
 | "Created XZ tracks (part 1)"                    |      3000 |     401643 |     133.88 |     235.89 |      0.0000 |      4566.0 |
 | "Created XZ tracks in case 0"                   |      2000 |     230785 |     115.39 |     147.08 |      0.0000 |      1698.0 |
 | "Created XZ tracks in case 1"                   |      2000 |     285985 |     142.99 |     224.56 |      1.0000 |      2901.0 |
 | "Created XZ tracks in case 2"                   |      2000 |     310385 |     155.19 |     302.48 |      0.0000 |      4566.0 |
 | "Created full hit combinations in case 0"       |    435449 |     435449 |     1.0000 |     0.0000 |      1.0000 |      1.0000 |
 | "Created full hit combinations in case 1"       |    359127 |     359127 |     1.0000 |     0.0000 |      1.0000 |      1.0000 |
 | "Created full hit combinations in case 2"       |    509135 |     509135 |     1.0000 |     0.0000 |      1.0000 |      1.0000 |
 | "Created seed tracks"                           |      2000 |     157468 |     78.734 |     47.971 |      2.0000 |      541.00 |
 | "Created seed tracks (part 0)"                  |      1000 |      89214 |     89.214 |     53.982 |      4.0000 |      458.00 |
 | "Created seed tracks (part 1)"                  |      1000 |      86989 |     86.989 |     54.397 |      2.0000 |      602.00 |
 | "Created seed tracks in case 0"                 |      2000 |      81270 |     40.635 |     24.711 |      0.0000 |      271.00 |
 | "Created seed tracks in case 1"                 |      2000 |     145990 |     72.995 |     41.883 |      2.0000 |      466.00 |
 | "Created seed tracks in case 2"                 |      2000 |     166891 |     83.445 |     52.447 |      2.0000 |      593.00 |
 | "Created seed tracks in recovery step"          |      1000 |       9312 |     9.3120 |     6.0220 |      0.0000 |      36.000 |
 | "Created two-hit combinations in case 0"        |    401702 |1.198102e+07 |     29.826 |     20.606 |      0.0000 |      144.00 |
 | "Created two-hit combinations in case 1"        |    359193 |1.479005e+07 |     41.176 |     24.719 |      0.0000 |      176.00 |
 | "Created two-hit combinations in case 2"        |    294712 |1.881542e+07 |     63.843 |     38.578 |      1.0000 |      247.00 |
PrLongLivedTracking_83484006           INFO Number of counters : 8
 |    Counter                                      |     #     |    sum     | mean/eff^* | rms/err^*  |     min     |     max     |
 | "#Downstream tracks made"                       |      1000 |      98135 |     98.135 |
 | "#Good XUVcand"                                 |    144649 |     881987 |     6.0974 |
 | "#Good Xcand"                                   |    144649 |    2734823 |     18.907 |
 | "#Presel hits0"                                 |    144649 |    2175814 |     15.042 |
 | "#Presel hits1"                                 |    144649 |    2167121 |     14.982 |
 | "#Presel hits2"                                 |    144649 |    2088616 |     14.439 |
 | "#Presel hits3"                                 |    144649 |    2137263 |     14.776 |
 | "#Seeds"                                        |      1000 |     157468 |     157.47 |
PrMatchNN_632e9edc                     INFO Number of counters : 3
 |    Counter                                      |     #     |    sum     | mean/eff^* | rms/err^*  |     min     |     max     |
 | "#MatchingChi2"                                 |      1000 |    1877771 |     1877.8 |
 | "#MatchingMLP"                                  |     98170 |   81580.59 |    0.83101 |
 | "#MatchingTracks"                               |      1000 |      98170 |     98.170 |
PrMatchNN_632e9edc.PrAddUTHitsTool     INFO Number of counters : 2
 |    Counter                                      |     #     |    sum     | mean/eff^* | rms/err^*  |     min     |     max     |
 | "#UT hits added"                                |     83120 |     331392 |     3.9869 |
 | "#tracks with hits added"                       |     83120 |
PrStoreSciFiHits_fb0eba02              INFO Number of counters : 25
 |    Counter                                      |     #     |    sum     | mean/eff^* | rms/err^*  |     min     |     max     |
 | "Average X in T1U"                              |    409865 |    9549410 |     23.299 |     1192.3 |     -2656.3 |      2656.4 |
 | "Average X in T1V"                              |    414230 |    4546185 |     10.975 |     1182.3 |     -2656.3 |      2656.4 |
 | "Average X in T1X1"                             |    401702 |1.519778e+07 |     37.833 |     1208.1 |     -2646.2 |      2646.2 |
 | "Average X in T1X2"                             |    419395 |    3837679 |     9.1505 |     1177.0 |     -2646.2 |      2646.2 |
 | "Average X in T2U"                              |    401676 |    7643412 |     19.029 |     1198.1 |     -2656.3 |      2656.4 |
 | "Average X in T2V"                              |    413121 |    6143523 |     14.871 |     1188.5 |     -2656.3 |      2656.4 |
 | "Average X in T2X1"                             |    385791 |    7054072 |     18.285 |     1203.0 |     -2646.2 |      2646.2 |
 | "Average X in T2X2"                             |    424480 |    5345190 |     12.592 |     1182.4 |     -2646.2 |      2646.2 |
 | "Average X in T3U"                              |    443864 |    4558037 |     10.269 |     1421.1 |     -3188.4 |      3188.4 |
 | "Average X in T3V"                              |    455860 |    4809457 |     10.550 |     1412.8 |     -3188.4 |      3188.4 |
 | "Average X in T3X1"                             |    428141 |    2610582 |     6.0975 |     1424.8 |     -3176.2 |      3176.2 |
 | "Average X in T3X2"                             |    470442 |    7651813 |     16.265 |     1402.7 |     -3176.2 |      3176.2 |
 | "Hits in T1U"                                   |      4000 |     409865 |     102.47 |     37.578 |      15.000 |      266.00 |
 | "Hits in T1V"                                   |      4000 |     414230 |     103.56 |     38.016 |      20.000 |      282.00 |
 | "Hits in T1X1"                                  |      4000 |     401702 |     100.43 |     36.313 |      19.000 |      257.00 |
 | "Hits in T1X2"                                  |      4000 |     419395 |     104.85 |     37.797 |      18.000 |      261.00 |
 | "Hits in T2U"                                   |      4000 |     401676 |     100.42 |     36.496 |      12.000 |      267.00 |
 | "Hits in T2V"                                   |      4000 |     413121 |     103.28 |     37.425 |      15.000 |      355.00 |
 | "Hits in T2X1"                                  |      4000 |     385791 |     96.448 |     34.676 |      8.0000 |      274.00 |
 | "Hits in T2X2"                                  |      4000 |     424480 |     106.12 |     38.520 |      11.000 |      267.00 |
 | "Hits in T3U"                                   |      4000 |     443864 |     110.97 |     39.174 |      21.000 |      307.00 |
 | "Hits in T3V"                                   |      4000 |     455860 |     113.97 |     40.567 |      21.000 |      361.00 |
 | "Hits in T3X1"                                  |      4000 |     428141 |     107.04 |     37.825 |      18.000 |      283.00 |
 | "Hits in T3X2"                                  |      4000 |     470442 |     117.61 |     41.439 |      26.000 |      288.00 |
 | "Total number of hits"                          |      1000 |    5068567 |     5068.6 |     1647.9 |      1069.0 |      10813. |
PrStoreUTHitClusters_69298ec0          INFO Number of counters : 3
 |    Counter                                      |     #     |    sum     | mean/eff^* | rms/err^*  |     min     |     max     |
 | "# RawBank::UT banks"                           |      1000 |     216000 |     216.00 |
 | "# RawBank::UTError banks"                      |      1000 |          0 |     0.0000 |
 |*"Non-unique UT clusters in event"               |      1000 |          0 |( 0.000000 +- 0.000000)% |
PrVPHitsToVPLightClusters_f4088b5d     INFO Number of counters : 1
 |    Counter                                      |     #     |    sum     | mean/eff^* | rms/err^*  |     min     |     max     |
 | "Nb of Produced Clusters"                       |      1000 |    2708972 |     2709.0 |
PrVeloUT_bc6199c2                      INFO Number of counters : 2
 |    Counter                                      |     #     |    sum     | mean/eff^* | rms/err^*  |     min     |     max     |
 | "#seeds"                                        |      1000 |     199771 |     199.77 |
 | "#tracks"                                       |      1000 |     132698 |     132.70 |
PrVeloUT_bee3bd0f                      INFO Number of counters : 2
 |    Counter                                      |     #     |    sum     | mean/eff^* | rms/err^*  |     min     |     max     |
 | "#seeds"                                        |      1000 |     199771 |     199.77 |
 | "#tracks"                                       |      1000 |      50732 |     50.732 |
SciFiTrackForwarding_3f0a01be          INFO Number of counters : 2
 |    Counter                                      |     #     |    sum     | mean/eff^* | rms/err^*  |     min     |     max     |
 | "2nd Loop"                                      |     22900 |
 | "Created long tracks"                           |      1000 |      32080 |     32.080 |
TrackBeamLineVertexFinderSoA_f48...    INFO Number of counters : 3
 |    Counter                                      |     #     |    sum     | mean/eff^* | rms/err^*  |     min     |     max     |
 |*"Fraction of failed PV fits"                    |      6029 |          7 |(0.1161055 +- 0.04385827)% |
 |*"Fraction of unconverged PV fits"               |      6029 |        334 |( 5.539891 +- 0.2946132)% |
 | "Nb PVs"                                        |      1000 |       5915 |     5.9150 |
TrackBestTrackCreator_6818fe5b         INFO Number of counters : 33
 |    Counter                                      |     #     |    sum     | mean/eff^* | rms/err^*  |     min     |     max     |
 |*"BadInput"                                      |    473114 |          0 |( 0.000000 +- 0.000000)% |
 |*"Downstream.badChisq"                           |     30580 |      11875 |( 38.83257 +- 0.2787016)% |
 | "Downstream.chisqProbSum"                       |     30580 |   6859.897 |    0.22433 |
 |*"Downstream.flipCharge"                         |     30580 |          0 |( 0.000000 +- 0.000000)% |
 | "Downstream.ghostProbability"                   |     30580 |   13717.51 |    0.44858 |
 | "Downstream.numOutliers"                        |     30580 |      29035 |    0.94948 |
 |*"FitFailed"                                     |    473114 |          1 |(0.0002113655 +- 0.0002113653)% |
 |*"Long.badChisq"                                 |    131657 |      70814 |( 53.78673 +- 0.1374039)% |
 | "Long.chisqProbSum"                             |    131657 |    17446.8 |    0.13252 |
 |*"Long.flipCharge"                               |    131657 |          9 |(0.006835945 +- 0.002278570)% |
 | "Long.ghostProbability"                         |    131657 |   33137.61 |    0.25170 |
 | "Long.numOutliers"                              |    131657 |     175844 |     1.3356 |
 | "Ttrack.FitFailed"                              |         1 |          1 |     1.0000 |
 |*"Ttrack.badChisq"                               |     60334 |       2323 |( 3.850234 +- 0.07833153)% |
 | "Ttrack.chisqProbSum"                           |     60334 |   21816.81 |    0.36160 |
 |*"Ttrack.flipCharge"                             |     60334 |       2867 |( 4.751881 +- 0.08661237)% |
 | "Ttrack.ghostProbability"                       |     60334 |   12448.69 |    0.20633 |
 | "Ttrack.numOutliers"                            |     60334 |      30139 |    0.49954 |
 |*"Upstream.badChisq"                             |     65202 |      23152 |( 35.50811 +- 0.1874070)% |
 | "Upstream.chisqProbSum"                         |     65202 |   17926.85 |    0.27494 |
 |*"Upstream.flipCharge"                           |     65202 |       1834 |( 2.812797 +- 0.06475052)% |
 | "Upstream.ghostProbability"                     |     65202 |   27413.75 |    0.42044 |
 | "Upstream.numOutliers"                          |     65202 |      68050 |     1.0437 |
 |*"Velo.badChisq"                                 |     72632 |      15855 |( 21.82922 +- 0.1532771)% |
 | "Velo.chisqProbSum"                             |     72632 |   24318.63 |    0.33482 |
 |*"Velo.flipCharge"                               |     72632 |          0 |( 0.000000 +- 0.000000)% |
 | "Velo.ghostProbability"                         |     72632 |   9424.636 |    0.12976 |
 | "Velo.numOutliers"                              |     72632 |      66040 |    0.90924 |
 |*"VeloBackward.badChisq"                         |    112708 |       6558 |( 5.818575 +- 0.06972902)% |
 | "VeloBackward.chisqProbSum"                     |    112708 |   50543.75 |    0.44845 |
 |*"VeloBackward.flipCharge"                       |    112708 |          0 |( 0.000000 +- 0.000000)% |
 | "VeloBackward.ghostProbability"                 |    112708 |   29642.55 |    0.26300 |
 | "VeloBackward.numOutliers"                      |    112708 |      43408 |    0.38514 |
TrackBestTrackCreator_6818fe5b.T...    INFO Number of counters : 2
 |    Counter                                      |     #     |    sum     | mean/eff^* | rms/err^*  |     min     |     max     |
 | "Problem updating transport"                    |         1 |
 | "Unable to update the ref vectors"              |         1 |
TrackBestTrackCreator_6818fe5b.T...    INFO Number of counters : 1
 |    Counter                                      |     #     |    sum     | mean/eff^* | rms/err^*  |     min     |     max     |
 | "RungeKuttaExtrapolator failed with code: RK: Curling"|         1 |
UTHitClustersToPrUTHitsConverter...    INFO Number of counters : 1
 |    Counter                                      |     #     |    sum     | mean/eff^* | rms/err^*  |     min     |     max     |
 | "# Converted Clusters"                          |      1000 |    1417678 |     1417.7 |
UTHitClustersToUTHitHandlerConve...    INFO Number of counters : 1
 |    Counter                                      |     #     |    sum     | mean/eff^* | rms/err^*  |     min     |     max     |
 | "# Converted Clusters"                          |      1000 |    1417678 |     1417.7 |
VPLightClustersToVPMicroClusters...    INFO Number of counters : 1
 |    Counter                                      |     #     |    sum     | mean/eff^* | rms/err^*  |     min     |     max     |
 | "# Converted Clusters"                          |      1000 |    2708972 |     2709.0 |
VeloClusterTrackingSIMD_9d6e67b1       INFO Number of counters : 2
 |    Counter                                      |     #     |    sum     | mean/eff^* | rms/err^*  |     min     |     max     |
 | "Nb of Produced Clusters"                       |      1000 |    2708972 |     2709.0 |
 | "Nb of Produced Tracks"                         |      1000 |     312656 |     312.66 |
VeloKalman_c83102ad                    INFO Number of counters : 1
 |    Counter                                      |     #     |    sum     | mean/eff^* | rms/err^*  |     min     |     max     |
 | "Nb of Produced Tracks"                         |      1000 |      32080 |     32.080 |
fromPrDownstreamTracksV1Tracks_e...    INFO Number of counters : 1
 |    Counter                                      |     #     |    sum     | mean/eff^* | rms/err^*  |     min     |     max     |
 | "Nb of converted Tracks"                        |      1000 |      98135 |     98.135 |
fromPrForwardTracksV1Tracks_bf32...    INFO Number of counters : 1
 |    Counter                                      |     #     |    sum     | mean/eff^* | rms/err^*  |     min     |     max     |
 | "Nb of converted Tracks"                        |      1000 |      99144 |     99.144 |
fromPrMatchTracksV1Tracks_9dc1a3cf     INFO Number of counters : 1
 |    Counter                                      |     #     |    sum     | mean/eff^* | rms/err^*  |     min     |     max     |
 | "Nb of converted Tracks"                        |      1000 |      98170 |     98.170 |
fromPrSeedingTracksV1Tracks_4f20...    INFO Number of counters : 1
 |    Counter                                      |     #     |    sum     | mean/eff^* | rms/err^*  |     min     |     max     |
 | "Nb of converted Tracks"                        |      1000 |     157468 |     157.47 |
fromPrUpstreamTracksV1Tracks_80b...    INFO Number of counters : 1
 |    Counter                                      |     #     |    sum     | mean/eff^* | rms/err^*  |     min     |     max     |
 | "Nb of converted Tracks"                        |      1000 |     132698 |     132.70 |
fromPrVeloTracksV1TracksMerger_d...    INFO Number of counters : 1
 |    Counter                                      |     #     |    sum     | mean/eff^* | rms/err^*  |     min     |     max     |
 | "Nb of converted Tracks"                        |      1000 |     312656 |     312.66 |
fromV3TrackV1Track_98231ec2            INFO Number of counters : 1
 |    Counter                                      |     #     |    sum     | mean/eff^* | rms/err^*  |     min     |     max     |
 | "Nb of Produced Tracks"                         |      1000 |      32080 |     32.080 |
