GraphClustering_72971694               INFO Built <167.327> graph calo clustering clusters/event
ApplicationMgr                         INFO Application Manager Finalized successfully
ApplicationMgr                         INFO Application Manager Terminated successfully
CaloAcceptanceBremAlg_Downstream...    INFO Number of counters : 2
 |    Counter                                      |     #     |    sum     | mean/eff^* | rms/err^*  |     min     |     max     |
 | "#total tracks"                                 |        98 |          0 |     0.0000 |     0.0000 |      0.0000 |      0.0000 |
 | "#tracks in acceptance"                         |        98 |          0 |     0.0000 |     0.0000 |      0.0000 |      0.0000 |
CaloAcceptanceBremAlg_Long_142dbbc6    INFO Number of counters : 2
 |    Counter                                      |     #     |    sum     | mean/eff^* | rms/err^*  |     min     |     max     |
 | "#total tracks"                                 |        98 |       6124 |     62.490 |     38.361 |      3.0000 |      168.00 |
 | "#tracks in acceptance"                         |        98 |       4439 |     45.296 |     27.934 |      3.0000 |      130.00 |
CaloAcceptanceEcalAlg_Downstream...    INFO Number of counters : 2
 |    Counter                                      |     #     |    sum     | mean/eff^* | rms/err^*  |     min     |     max     |
 | "#total tracks"                                 |        98 |          0 |     0.0000 |     0.0000 |      0.0000 |      0.0000 |
 | "#tracks in acceptance"                         |        98 |          0 |     0.0000 |     0.0000 |      0.0000 |      0.0000 |
CaloAcceptanceEcalAlg_Long_71599283    INFO Number of counters : 2
 |    Counter                                      |     #     |    sum     | mean/eff^* | rms/err^*  |     min     |     max     |
 | "#total tracks"                                 |        98 |       6124 |     62.490 |     38.361 |      3.0000 |      168.00 |
 | "#tracks in acceptance"                         |        98 |       5108 |     52.122 |     31.971 |      3.0000 |      137.00 |
CaloAcceptanceEcalAlg_Ttrack_b29...    INFO Number of counters : 2
 |    Counter                                      |     #     |    sum     | mean/eff^* | rms/err^*  |     min     |     max     |
 | "#total tracks"                                 |        98 |       4581 |     46.745 |     32.052 |      0.0000 |      226.00 |
 | "#tracks in acceptance"                         |        98 |       3626 |     37.000 |     25.823 |      0.0000 |      181.00 |
CaloAcceptanceHcalAlg_Downstream...    INFO Number of counters : 2
 |    Counter                                      |     #     |    sum     | mean/eff^* | rms/err^*  |     min     |     max     |
 | "#total tracks"                                 |        98 |          0 |     0.0000 |     0.0000 |      0.0000 |      0.0000 |
 | "#tracks in acceptance"                         |        98 |          0 |     0.0000 |     0.0000 |      0.0000 |      0.0000 |
CaloAcceptanceHcalAlg_Long_1fd97970    INFO Number of counters : 2
 |    Counter                                      |     #     |    sum     | mean/eff^* | rms/err^*  |     min     |     max     |
 | "#total tracks"                                 |        98 |       6124 |     62.490 |     38.361 |      3.0000 |      168.00 |
 | "#tracks in acceptance"                         |        98 |       4802 |     49.000 |     29.890 |      3.0000 |      126.00 |
CaloFutureClusterCovarianceAlg_5...    INFO Number of counters : 1
 |    Counter                                      |     #     |    sum     | mean/eff^* | rms/err^*  |     min     |     max     |
 | "# clusters"                                    |     16398 |
CaloFutureClusterCovarianceAlg_5...    INFO Number of counters : 3
 |    Counter                                      |     #     |    sum     | mean/eff^* | rms/err^*  |     min     |     max     |
 | "Corrected Clusters: # cells "                  |      1634 |       6981 |     4.2723 |     1.2968 |      2.0000 |      11.000 |
 | "Corrected Clusters: ET"                        |      1634 |   386124.3 |     236.31 |     270.49 |      2.0000 |      3286.4 |
 | "Corrected Clusters: size ratio"                |      1634 |   840.8146 |    0.51457 |    0.45271 | -3.6723e-16 |      3.1267 |
CaloFutureMergedPi0_eb4f3a3b           INFO Number of counters : 12
 |    Counter                                      |     #     |    sum     | mean/eff^* | rms/err^*  |     min     |     max     |
 |*"Cluster without 2nd seed found"                |       345 |          0 |( 0.000000 +- 0.000000)% |
 | "Corrected energy"                              |       690 |    8381802 |     12148. |     13129. |      143.96 |      82446. |
 |*"Fails to set covariance"                       |       690 |          0 |( 0.000000 +- 0.000000)% |
 |*"Fails to set spread"                           |       690 |          0 |( 0.000000 +- 0.000000)% |
 |*"Fails to tag(E) cluster (1)"                   |       345 |          0 |( 0.000000 +- 0.000000)% |
 |*"Fails to tag(E) cluster (2)"                   |       345 |          0 |( 0.000000 +- 0.000000)% |
 | "Photon Delta(E)"                               |       690 |  -352995.2 |    -511.59 |     658.77 |     -3260.2 |      1609.9 |
 | "Photon Delta(X)"                               |       690 |   155.2859 |    0.22505 |     12.878 |     -22.781 |      28.613 |
 | "Photon Delta(Y)"                               |       690 |  -486.1097 |   -0.70451 |     13.085 |     -22.779 |      33.869 |
 | "Photon Delta(Z)"                               |       690 |   56105.96 |     81.313 |     11.501 |      27.925 |      120.27 |
 | "clusters => mergedPi0s"                        |        98 |        345 |     3.5204 |
 | "clusters => splitClusters"                     |        98 |        690 |     7.0408 |
CaloFutureMergedPi0_eb4f3a3b.Cal...    INFO Number of counters : 6
 |    Counter                                      |     #     |    sum     | mean/eff^* | rms/err^*  |     min     |     max     |
 | "<alpha> Inner"                                 |       208 |   206.3091 |    0.99187 |   0.021238 |     0.96494 |      1.0563 |
 | "<alpha> Middle"                                |       110 |   109.9655 |    0.99969 |   0.017677 |     0.97767 |      1.0702 |
 | "<alpha> Outer"                                 |       372 |    370.542 |    0.99608 |   0.016898 |     0.97376 |      1.0947 |
 | "Pileup offset"                                 |       690 |   277733.3 |     402.51 |     472.47 |      1.8529 |      2709.6 |
 | "Pileup scale"                                  |       690 |       4208 |     6.0986 |     1.8263 |      1.0000 |      9.0000 |
 | "Pileup subtracted ratio"                       |       690 |   662.7133 |    0.96045 |   0.033123 |     0.74604 |     0.99927 |
CaloFutureMergedPi0_eb4f3a3b.Eca...    INFO Number of counters : 3
 |    Counter                                      |     #     |    sum     | mean/eff^* | rms/err^*  |     min     |     max     |
 | "Corrected Clusters: # cells "                  |        74 |        413 |     5.5811 |     1.5157 |      4.0000 |      9.0000 |
 | "Corrected Clusters: ET"                        |        74 |    62421.4 |     843.53 |     690.44 |      77.400 |      3240.0 |
 | "Corrected Clusters: size ratio"                |        74 |   37.57774 |    0.50781 |    0.49163 |    0.034043 |      2.1598 |
CaloSelectiveBremMatchAlg_Downst...    INFO Number of counters : 1
 |    Counter                                      |     #     |    sum     | mean/eff^* | rms/err^*  |     min     |     max     |
 | "#links in table"                               |        98 |          0 |     0.0000 |     0.0000 |      0.0000 |      0.0000 |
CaloSelectiveBremMatchAlg_Long_e...    INFO Number of counters : 3
 |    Counter                                      |     #     |    sum     | mean/eff^* | rms/err^*  |     min     |     max     |
 | "#links in table"                               |        98 |       1631 |     16.643 |     15.103 |      0.0000 |      66.000 |
 | "average chi2"                                  |      1631 |   1494.925 |    0.91657 |     1.7461 |  9.6623e-06 |      36.441 |
 | "average energy (track based)"                  |      4439 |   85142.25 |     19.181 |     56.709 |      0.0000 |      1333.3 |
CaloSelectiveElectronMatchAlg_Do...    INFO Number of counters : 1
 |    Counter                                      |     #     |    sum     | mean/eff^* | rms/err^*  |     min     |     max     |
 | "#links in table"                               |        98 |          0 |     0.0000 |     0.0000 |      0.0000 |      0.0000 |
CaloSelectiveElectronMatchAlg_Lo...    INFO Number of counters : 2
 |    Counter                                      |     #     |    sum     | mean/eff^* | rms/err^*  |     min     |     max     |
 | "#links in table"                               |        98 |       4201 |     42.867 |     29.276 |      2.0000 |      122.00 |
 | "average chi2"                                  |      4201 |   21000.91 |     4.9990 |     10.377 |   0.0014907 |      199.03 |
CaloSelectiveTrackMatchAlg_Downs...    INFO Number of counters : 1
 |    Counter                                      |     #     |    sum     | mean/eff^* | rms/err^*  |     min     |     max     |
 | "#links in table"                               |        98 |          0 |     0.0000 |     0.0000 |      0.0000 |      0.0000 |
CaloSelectiveTrackMatchAlg_Long_...    INFO Number of counters : 2
 |    Counter                                      |     #     |    sum     | mean/eff^* | rms/err^*  |     min     |     max     |
 | "#links in table"                               |        98 |       4244 |     43.306 |     29.334 |      2.0000 |      122.00 |
 | "average chi2"                                  |      4244 |   657.6216 |    0.15495 |    0.31411 |  7.1399e-06 |      8.8313 |
CaloSelectiveTrackMatchAlg_Ttrac...    INFO Number of counters : 2
 |    Counter                                      |     #     |    sum     | mean/eff^* | rms/err^*  |     min     |     max     |
 | "#links in table"                               |        98 |       2997 |     30.582 |     20.149 |      0.0000 |      120.00 |
 | "average chi2"                                  |      2997 |   210.5376 |   0.070249 |    0.12039 |  6.6733e-06 |      1.9901 |
CaloTrackBasedElectronShowerAlg_...    INFO Number of counters : 2
 |    Counter                                      |     #     |    sum     | mean/eff^* | rms/err^*  |     min     |     max     |
 | "average DLL"                                   |      5108 |  -311.1581 |  -0.060916 |    0.11347 |     -2.7206 |     0.57219 |
 | "average E/p"                                   |      5108 |   33.64947 |  0.0065876 |  0.0093521 |      0.0000 |     0.14788 |
CaloTrackToHcalEnergyAlg_Long_d4...    INFO Number of counters : 1
 |    Counter                                      |     #     |    sum     | mean/eff^* | rms/err^*  |     min     |     max     |
 | "energy (calo) associated to track"             |      4802 |2.186798e+07 |     4553.9 |     8771.1 |      0.0000 |  1.0735e+05 |
ChargedProtoParticleMaker_Long_9...    INFO Number of counters : 1
 |    Counter                                      |     #     |    sum     | mean/eff^* | rms/err^*  |     min     |     max     |
 | "CreatedProtos"                                 |      6124 |
ClassifyPhotonElectronAlg_8ec9e29e     INFO Number of counters : 14
 |    Counter                                      |     #     |    sum     | mean/eff^* | rms/err^*  |     min     |     max     |
 | "Electron Delta(E)"                             |      5783 |   -2295671 |    -396.97 |     541.53 |     -5254.2 |      2738.6 |
 | "Electron Delta(X)"                             |      5783 |   -2277.65 |   -0.39385 |     12.446 |     -91.805 |      29.057 |
 | "Electron Delta(Y)"                             |      5783 |    -479.83 |  -0.082973 |     12.293 |     -32.805 |      22.670 |
 | "Electron Delta(Z)"                             |      5783 |   401737.5 |     69.469 |     13.364 |     -10.624 |      123.98 |
 | "Electron corrected energy"                     |      5783 |3.518478e+07 |     6084.2 |     7280.6 |      19.963 |      96127. |
 | "Electrons pT-rejected after correction"        |        48 |
 | "Photon Delta(E)"                               |     11136 |   -2581483 |    -231.81 |     387.42 |     -4036.0 |      935.44 |
 | "Photon Delta(X)"                               |     11136 |  -4984.953 |   -0.44764 |     12.691 |     -91.984 |      32.112 |
 | "Photon Delta(Y)"                               |     11136 |  -2810.634 |   -0.25239 |     12.620 |     -91.966 |      38.582 |
 | "Photon Delta(Z)"                               |     11136 |   661816.4 |     59.430 |     13.061 |     -8.7578 |      123.98 |
 | "Photon corrected energy"                       |     11136 |3.844706e+07 |     3452.5 |     6019.4 |      22.782 |  1.2636e+05 |
 | "Photons pT-rejected after correction"          |       217 |
 | "electronHypos"                                 |        98 |       5735 |     58.520 |     32.914 |      6.0000 |      151.00 |
 | "photonHypos"                                   |        98 |      10919 |     111.42 |     50.042 |      10.000 |      202.00 |
ClassifyPhotonElectronAlg_8ec9e2...    INFO Number of counters : 7
 |    Counter                                      |     #     |    sum     | mean/eff^* | rms/err^*  |     min     |     max     |
 | "<alpha> Inner"                                 |      4772 |   4746.529 |    0.99466 |   0.019867 |     0.96438 |      1.1318 |
 | "<alpha> Middle"                                |      4488 |   4515.008 |     1.0060 |   0.020551 |     0.97692 |      1.2128 |
 | "<alpha> Outer"                                 |      7611 |    7606.56 |    0.99942 |   0.016370 |     0.97371 |      1.1067 |
 | "Pileup offset"                                 |     16871 |    6052449 |     358.75 |     426.64 |      2.6870 |      3722.1 |
 | "Pileup scale"                                  |     16919 |      92864 |     5.4887 |     1.9119 |      1.0000 |      9.0000 |
 | "Pileup subtracted ratio"                       |     16871 |   14853.45 |    0.88041 |    0.12376 |  0.00047684 |     0.99895 |
 | "Skip negative energy correction"               |        48 |
CloneKillerForward_88e428e1            INFO Number of counters : 2
 |    Counter                                      |     #     |    sum     | mean/eff^* | rms/err^*  |     min     |     max     |
 | "nTracksInput"                                  |        98 |       6277 |     64.051 |
 | "nTracksSelected"                               |        98 |       1052 |     10.735 |
DefaultGECFilter                       INFO Number of counters : 2
 |    Counter                                      |     #     |    sum     | mean/eff^* | rms/err^*  |     min     |     max     |
 | "Nb Events Processed"                           |       100 |
 | "Nb events removed"                             |         2 |
FutureNeutralProtoPAlg_8a4fb7d2        INFO Number of counters : 4
 |    Counter                                      |     #     |    sum     | mean/eff^* | rms/err^*  |     min     |     max     |
 | "Neutral Protos"                                |        98 |      11954 |     121.98 |     59.509 |      10.000 |      247.00 |
 | "Neutral Protos from MergedPi0s"                |        98 |        345 |     3.5204 |     4.0839 |      0.0000 |      20.000 |
 | "Neutral Protos from Photons"                   |        98 |      10919 |     111.42 |     50.042 |      10.000 |      202.00 |
 | "Neutral Protos from SplitPhotons"              |        98 |        690 |     7.0408 |     8.1678 |      0.0000 |      40.000 |
GraphClustering_72971694               INFO Number of counters : 4
 |    Counter                                      |     #     |    sum     | mean/eff^* | rms/err^*  |     min     |     max     |
 | "# clusters"                                    |        98 |      16398 |     167.33 |     77.536 |      16.000 |      319.00 |
 | "Cluster energy"                                |     16398 |7.476223e+07 |     4559.2 |     6800.9 |      8.8000 |  1.3040e+05 |
 | "Cluster size"                                  |     16398 |     165961 |     10.121 |     2.3742 |      6.0000 |      24.000 |
 | "Negative energy clusters"                      |         1 |          1 |     1.0000 |     0.0000 |      1.0000 |      1.0000 |
HLTControlFlowMgr                      INFO Number of counters : 1
 |    Counter                                      |     #     |    sum     | mean/eff^* | rms/err^*  |     min     |     max     |
 | "Processed events"                              |       100 |
LHCb__Converters__Track__SOA__fr...    INFO Number of counters : 2
 |    Counter                                      |     #     |    sum     | mean/eff^* | rms/err^*  |     min     |     max     |
 | "Nb of Events without Tracks"                   |         1 |          0 |     0.0000 |
 | "Nb of Produced Tracks"                         |        97 |       4581 |     47.227 |
LHCb__Converters__Track__SOA__fr...    INFO Number of counters : 1
 |    Counter                                      |     #     |    sum     | mean/eff^* | rms/err^*  |     min     |     max     |
 | "Nb of Produced Tracks"                         |        98 |       6124 |     62.490 |
LHCb__Converters__Track__SOA__fr...    INFO Number of counters : 1
 |    Counter                                      |     #     |    sum     | mean/eff^* | rms/err^*  |     min     |     max     |
 | "Nb of Events without Tracks"                   |        98 |          0 |     0.0000 |
MuonIDHlt2AlgLong_ebde3a89             INFO Number of counters : 7
 |    Counter                                      |     #     |    sum     | mean/eff^* | rms/err^*  |     min     |     max     |
 | "BgLL"                                          |       497 |  -211.6963 |   -0.42595 |    0.83264 |     -6.0696 |      0.0000 |
 | "MuLL"                                          |       497 |  -4766.578 |    -9.5907 |     2.9028 |     -11.513 |    -0.13634 |
 | "muonMVAStat"                                   |       497 |  -308.7631 |   -0.62125 |    0.86497 |     -3.0272 |      4.1483 |
 |*"nInAcceptance"                                 |      6124 |       4826 |( 78.80470 +- 0.5222497)% |
 |*"nIsMuon"                                       |      6124 |        497 |( 8.115611 +- 0.3489505)% |
 |*"nIsMuonTight"                                  |      6124 |        203 |( 3.314827 +- 0.2287667)% |
 |*"nMomentumCut"                                  |      6124 |       5178 |( 84.55258 +- 0.4618211)% |
MuonPIDV2ToMuonTracks_Long_da5469c1    INFO Number of counters : 1
 |    Counter                                      |     #     |    sum     | mean/eff^* | rms/err^*  |     min     |     max     |
 | "Nb of input v2 MuonPIDs"                       |        98 |       6124 |     62.490 |
PrCloneKillerSeed_8e934c5f             INFO Number of counters : 2
 |    Counter                                      |     #     |    sum     | mean/eff^* | rms/err^*  |     min     |     max     |
 | "nTracksInput"                                  |        98 |      10266 |     104.76 |
 | "nTracksSelected"                               |        98 |       4581 |     46.745 |
PrForwardTrackingVelo_6f363eca         INFO Number of counters : 10
 |    Counter                                      |     #     |    sum     | mean/eff^* | rms/err^*  |     min     |     max     |
 | "Accepted input tracks"                         |        98 |      13082 |     133.49 |
 | "Created long tracks"                           |        98 |       6277 |     64.051 |
 | "Input tracks"                                  |        98 |      13678 |     139.57 |
 | "Number of candidate bins per track"            |     13082 |     107258 |     8.1989 |     10.940 |      0.0000 |      82.000 |
 | "Number of complete candidates/track 1st Loop"  |     11332 |       6797 |    0.59981 |    0.65287 |      0.0000 |      5.0000 |
 | "Number of complete candidates/track 2nd Loop"  |      5988 |        467 |   0.077989 |    0.27914 |      0.0000 |      3.0000 |
 | "Number of x candidates per track 1st Loop"     |     11332 |      19823 |     1.7493 |     1.9793 |
 | "Number of x candidates per track 2nd Loop"     |      5988 |      23286 |     3.8888 |     5.4752 |
 | "Percentage second loop execution"              |     11332 |       5988 |    0.52842 |
 | "Removed duplicates"                            |        98 |        359 |     3.6633 |
PrHybridSeeding_97242385               INFO Number of counters : 21
 |    Counter                                      |     #     |    sum     | mean/eff^* | rms/err^*  |     min     |     max     |
 | "Created T2x1 three-hit combinations in case 0" |    195799 |     121451 |    0.62028 |    0.62488 |      0.0000 |      6.0000 |
 | "Created T2x1 three-hit combinations in case 1" |    278174 |     185563 |    0.66708 |    0.73094 |      0.0000 |      10.000 |
 | "Created T2x1 three-hit combinations in case 2" |    486265 |     402939 |    0.82864 |    0.98913 |      0.0000 |      22.000 |
 | "Created XZ tracks (part 0)"                    |       294 |      18582 |     63.204 |     83.147 |      0.0000 |      703.00 |
 | "Created XZ tracks (part 1)"                    |       294 |      18693 |     63.582 |     110.10 |      0.0000 |      1301.0 |
 | "Created XZ tracks in case 0"                   |       196 |      11291 |     57.607 |     63.271 |      2.0000 |      451.00 |
 | "Created XZ tracks in case 1"                   |       196 |      13492 |     68.837 |     94.940 |      2.0000 |      804.00 |
 | "Created XZ tracks in case 2"                   |       196 |      12492 |     63.735 |     124.39 |      0.0000 |      1301.0 |
 | "Created full hit combinations in case 0"       |     19100 |      19100 |     1.0000 |     0.0000 |      1.0000 |      1.0000 |
 | "Created full hit combinations in case 1"       |     16335 |      16335 |     1.0000 |     0.0000 |      1.0000 |      1.0000 |
 | "Created full hit combinations in case 2"       |     19790 |      19790 |     1.0000 |     0.0000 |      1.0000 |      1.0000 |
 | "Created seed tracks"                           |       196 |      10266 |     52.378 |     32.505 |      3.0000 |      191.00 |
 | "Created seed tracks (part 0)"                  |        98 |       5713 |     58.296 |     35.806 |      6.0000 |      195.00 |
 | "Created seed tracks (part 1)"                  |        98 |       5773 |     58.908 |     38.825 |      3.0000 |      221.00 |
 | "Created seed tracks in case 0"                 |       196 |       5231 |     26.689 |     16.446 |      2.0000 |      84.000 |
 | "Created seed tracks in case 1"                 |       196 |       9629 |     49.128 |     30.009 |      3.0000 |      161.00 |
 | "Created seed tracks in case 2"                 |       196 |      10859 |     55.403 |     35.104 |      3.0000 |      212.00 |
 | "Created seed tracks in recovery step"          |        98 |        627 |     6.3980 |     5.1344 |      0.0000 |      20.000 |
 | "Created two-hit combinations in case 0"        |     31208 |     735236 |     23.559 |     16.840 |      0.0000 |      109.00 |
 | "Created two-hit combinations in case 1"        |     27644 |     916108 |     33.139 |     20.096 |      0.0000 |      120.00 |
 | "Created two-hit combinations in case 2"        |     23712 |    1215364 |     51.255 |     31.041 |      1.0000 |      179.00 |
PrKalmanFilterForward_92f61463         INFO Number of counters : 6
 |    Counter                                      |     #     |    sum     | mean/eff^* | rms/err^*  |     min     |     max     |
 | "Pre outlier chi2 cut"                          |        92 |
 | "chi2 cut"                                      |       281 |
 | "nIterations"                                   |      1052 |       2737 |     2.6017 |
 | "nOutlierIterations"                            |       960 |        897 |    0.93437 |
 | "nTracksInput"                                  |        98 |       1052 |     10.735 |
 | "nTracksOutput"                                 |        98 |        679 |     6.9286 |
PrKalmanFilterMatch_fdc68e9f           INFO Number of counters : 6
 |    Counter                                      |     #     |    sum     | mean/eff^* | rms/err^*  |     min     |     max     |
 | "Pre outlier chi2 cut"                          |       116 |
 | "chi2 cut"                                      |       400 |
 | "nIterations"                                   |      6418 |      13832 |     2.1552 |
 | "nOutlierIterations"                            |      6302 |       3179 |    0.50444 |
 | "nTracksInput"                                  |        98 |       6418 |     65.490 |
 | "nTracksOutput"                                 |        98 |       5902 |     60.224 |
PrMatchNN_946089ac                     INFO Number of counters : 3
 |    Counter                                      |     #     |    sum     | mean/eff^* | rms/err^*  |     min     |     max     |
 | "#MatchingChi2"                                 |        98 |   101289.5 |     1033.6 |
 | "#MatchingMLP"                                  |      6418 |    5354.59 |    0.83431 |
 | "#MatchingTracks"                               |        98 |       6418 |     65.490 |
PrStoreSciFiHits_fb0eba02              INFO Number of counters : 25
 |    Counter                                      |     #     |    sum     | mean/eff^* | rms/err^*  |     min     |     max     |
 | "Average X in T1U"                              |     31252 |   492878.3 |     15.771 |     1220.1 |     -2656.0 |      2656.4 |
 | "Average X in T1V"                              |     31590 |   371026.5 |     11.745 |     1203.8 |     -2656.3 |      2656.0 |
 | "Average X in T1X1"                             |     31208 |   822556.4 |     26.357 |     1234.9 |     -2646.0 |      2646.1 |
 | "Average X in T1X2"                             |     31815 |   591247.8 |     18.584 |     1194.9 |     -2644.9 |      2646.1 |
 | "Average X in T2U"                              |     30792 |   730326.1 |     23.718 |     1212.9 |     -2656.3 |      2656.0 |
 | "Average X in T2V"                              |     31261 |   911599.6 |     29.161 |     1207.8 |     -2656.3 |      2655.5 |
 | "Average X in T2X1"                             |     29469 |   201267.4 |     6.8298 |     1219.5 |     -2646.0 |      2646.2 |
 | "Average X in T2X2"                             |     32090 |   164205.1 |     5.1170 |     1193.4 |     -2646.1 |      2645.4 |
 | "Average X in T3U"                              |     33742 |   655555.2 |     19.428 |     1471.0 |     -3188.2 |      3188.4 |
 | "Average X in T3V"                              |     34690 |   97753.95 |     2.8179 |     1447.4 |     -3188.2 |      3187.8 |
 | "Average X in T3X1"                             |     32838 |   407009.5 |     12.394 |     1454.0 |     -3175.7 |      3176.0 |
 | "Average X in T3X2"                             |     35964 |   392917.4 |     10.925 |     1440.4 |     -3176.1 |      3176.1 |
 | "Hits in T1U"                                   |       392 |      31252 |     79.724 |     33.761 |      24.000 |      180.00 |
 | "Hits in T1V"                                   |       392 |      31590 |     80.587 |     34.052 |      20.000 |      190.00 |
 | "Hits in T1X1"                                  |       392 |      31208 |     79.612 |     33.175 |      14.000 |      187.00 |
 | "Hits in T1X2"                                  |       392 |      31815 |     81.161 |     34.296 |      17.000 |      183.00 |
 | "Hits in T2U"                                   |       392 |      30792 |     78.551 |     33.506 |      17.000 |      226.00 |
 | "Hits in T2V"                                   |       392 |      31261 |     79.747 |     32.674 |      17.000 |      190.00 |
 | "Hits in T2X1"                                  |       392 |      29469 |     75.176 |     31.513 |      17.000 |      187.00 |
 | "Hits in T2X2"                                  |       392 |      32090 |     81.862 |     33.927 |      18.000 |      181.00 |
 | "Hits in T3U"                                   |       392 |      33742 |     86.077 |     35.996 |      20.000 |      238.00 |
 | "Hits in T3V"                                   |       392 |      34690 |     88.495 |     36.174 |      20.000 |      207.00 |
 | "Hits in T3X1"                                  |       392 |      32838 |     83.770 |     32.990 |      24.000 |      194.00 |
 | "Hits in T3X2"                                  |       392 |      35964 |     91.745 |     36.668 |      22.000 |      202.00 |
 | "Total number of hits"                          |        98 |     386711 |     3946.0 |     1493.3 |      1293.0 |      8400.0 |
PrVPHitsToVPLightClusters_8cd36c45     INFO Number of counters : 1
 |    Counter                                      |     #     |    sum     | mean/eff^* | rms/err^*  |     min     |     max     |
 | "Nb of Produced Clusters"                       |        98 |     198184 |     2022.3 |
TBTCForward_afd7320e                   INFO Number of counters : 3
 |    Counter                                      |     #     |    sum     | mean/eff^* | rms/err^*  |     min     |     max     |
 |*"BadInput"                                      |       637 |          0 |( 0.000000 +- 0.000000)% |
 |*"FitFailed"                                     |       637 |          0 |( 0.000000 +- 0.000000)% |
 | "FittedBefore"                                  |       637 |
TBTC_Match_61db36c4                    INFO Number of counters : 3
 |    Counter                                      |     #     |    sum     | mean/eff^* | rms/err^*  |     min     |     max     |
 |*"BadInput"                                      |      5487 |          0 |( 0.000000 +- 0.000000)% |
 |*"FitFailed"                                     |      5487 |          0 |( 0.000000 +- 0.000000)% |
 | "FittedBefore"                                  |      5487 |
TrackBeamLineVertexFinderSoA_609...    INFO Number of counters : 3
 |    Counter                                      |     #     |    sum     | mean/eff^* | rms/err^*  |     min     |     max     |
 |*"Fraction of failed PV fits"                    |       476 |          0 |( 0.000000 +- 0.000000)% |
 |*"Fraction of unconverged PV fits"               |       476 |         26 |( 5.462185 +- 1.041556)% |
 | "Nb PVs"                                        |        98 |        468 |     4.7755 |
VPLightClustersToVPMicroClusters...    INFO Number of counters : 1
 |    Counter                                      |     #     |    sum     | mean/eff^* | rms/err^*  |     min     |     max     |
 | "# Converted Clusters"                          |        98 |     198184 |     2022.3 |
VeloRetinaClusterTrackingSIMD_66...    INFO Number of counters : 2
 |    Counter                                      |     #     |    sum     | mean/eff^* | rms/err^*  |     min     |     max     |
 | "Nb of Produced Clusters"                       |        98 |     198184 |     2022.3 |
 | "Nb of Produced Tracks"                         |        98 |      21657 |     220.99 |
fromPrSeedingTracksV1Tracks_320a...    INFO Number of counters : 1
 |    Counter                                      |     #     |    sum     | mean/eff^* | rms/err^*  |     min     |     max     |
 | "Nb of converted Tracks"                        |        98 |       4581 |     46.745 |
fromV2MuonPIDV1MuonPIDLong_e60c416d    INFO Number of counters : 1
 |    Counter                                      |     #     |    sum     | mean/eff^* | rms/err^*  |     min     |     max     |
 | "Nb of Produced MuonPIDs"                       |        98 |       6124 |     62.490 |
