GraphClustering_72971694               INFO Built <170.42> graph calo clustering clusters/event
ApplicationMgr                         INFO Application Manager Finalized successfully
ApplicationMgr                         INFO Application Manager Terminated successfully
CaloAcceptanceBremAlg_Upstream_3...    INFO Number of counters : 2
 |    Counter                                      |     #     |    sum     | mean/eff^* | rms/err^*  |     min     |     max     |
 | "#total tracks"                                 |       100 |       3348 |     33.480 |     22.204 |      3.0000 |      102.00 |
 | "#tracks in acceptance"                         |       100 |       2767 |     27.670 |     17.807 |      2.0000 |      82.000 |
CaloAcceptanceEcalAlg_Downstream...    INFO Number of counters : 2
 |    Counter                                      |     #     |    sum     | mean/eff^* | rms/err^*  |     min     |     max     |
 | "#total tracks"                                 |       100 |       1483 |     14.830 |     11.097 |      0.0000 |      51.000 |
 | "#tracks in acceptance"                         |       100 |       1130 |     11.300 |     8.6366 |      0.0000 |      39.000 |
CaloAcceptanceEcalAlg_Long_71599283    INFO Number of counters : 2
 |    Counter                                      |     #     |    sum     | mean/eff^* | rms/err^*  |     min     |     max     |
 | "#total tracks"                                 |       100 |       5915 |     59.150 |     37.034 |      3.0000 |      190.00 |
 | "#tracks in acceptance"                         |       100 |       5008 |     50.080 |     31.620 |      3.0000 |      171.00 |
CaloAcceptanceEcalAlg_Ttrack_b29...    INFO Number of counters : 2
 |    Counter                                      |     #     |    sum     | mean/eff^* | rms/err^*  |     min     |     max     |
 | "#total tracks"                                 |       100 |       4331 |     43.310 |     44.229 |      0.0000 |      345.00 |
 | "#tracks in acceptance"                         |       100 |       3453 |     34.530 |     37.337 |      0.0000 |      300.00 |
CaloFutureClusterCovarianceAlg_5...    INFO Number of counters : 1
 |    Counter                                      |     #     |    sum     | mean/eff^* | rms/err^*  |     min     |     max     |
 | "# clusters"                                    |     17042 |
CaloFutureClusterCovarianceAlg_5...    INFO Number of counters : 3
 |    Counter                                      |     #     |    sum     | mean/eff^* | rms/err^*  |     min     |     max     |
 | "Corrected Clusters: # cells "                  |      1679 |       7192 |     4.2835 |     1.2944 |      2.0000 |      11.000 |
 | "Corrected Clusters: ET"                        |      1679 |   406362.7 |     242.03 |     328.00 |      2.0000 |      7667.6 |
 | "Corrected Clusters: size ratio"                |      1679 |   862.5677 |    0.51374 |    0.44981 | -3.6723e-16 |      3.1267 |
CaloSelectiveBremMatchAlg_Upstre...    INFO Number of counters : 3
 |    Counter                                      |     #     |    sum     | mean/eff^* | rms/err^*  |     min     |     max     |
 | "#links in table"                               |       100 |       1619 |     16.190 |     14.710 |      0.0000 |      66.000 |
 | "average chi2"                                  |      1619 |   1013.382 |    0.62593 |     1.3049 |  8.5231e-09 |      20.536 |
 | "average energy (track based)"                  |      2767 |   131157.3 |     47.401 |     131.64 |      0.0000 |      3298.6 |
CaloSelectiveTrackMatchAlg_Downs...    INFO Number of counters : 2
 |    Counter                                      |     #     |    sum     | mean/eff^* | rms/err^*  |     min     |     max     |
 | "#links in table"                               |       100 |       1011 |     10.110 |     7.9999 |      0.0000 |      37.000 |
 | "average chi2"                                  |      1011 |   580.6577 |    0.57434 |    0.99418 |  3.5072e-05 |      14.682 |
CaloSelectiveTrackMatchAlg_Long_...    INFO Number of counters : 2
 |    Counter                                      |     #     |    sum     | mean/eff^* | rms/err^*  |     min     |     max     |
 | "#links in table"                               |       100 |       4154 |     41.540 |     28.835 |      2.0000 |      150.00 |
 | "average chi2"                                  |      4154 |   674.4371 |    0.16236 |    0.33092 |  6.9804e-06 |      8.8232 |
CaloSelectiveTrackMatchAlg_Ttrac...    INFO Number of counters : 2
 |    Counter                                      |     #     |    sum     | mean/eff^* | rms/err^*  |     min     |     max     |
 | "#links in table"                               |       100 |       2721 |     27.210 |     25.856 |      0.0000 |      204.00 |
 | "average chi2"                                  |      2721 |   223.9012 |   0.082286 |    0.14029 |  7.8239e-06 |      1.7340 |
ChargedProtoParticleMaker_Upstre...    INFO Number of counters : 1
 |    Counter                                      |     #     |    sum     | mean/eff^* | rms/err^*  |     min     |     max     |
 | "CreatedProtos"                                 |      3348 |
ClassifyPhotonElectronAlg_8ec9e29e     INFO Number of counters : 14
 |    Counter                                      |     #     |    sum     | mean/eff^* | rms/err^*  |     min     |     max     |
 | "Electron Delta(E)"                             |      6112 |   -2490633 |    -407.50 |     549.45 |     -5254.2 |      2738.6 |
 | "Electron Delta(X)"                             |      6112 |  -2575.266 |   -0.42135 |     12.396 |     -91.805 |      29.057 |
 | "Electron Delta(Y)"                             |      6112 |  -704.7632 |   -0.11531 |     12.292 |     -32.805 |      22.670 |
 | "Electron Delta(Z)"                             |      6112 |   424960.1 |     69.529 |     13.407 |     -10.624 |      123.98 |
 | "Electron corrected energy"                     |      6112 |3.757549e+07 |     6147.8 |     7420.6 |      19.963 |      96127. |
 | "Electrons pT-rejected after correction"        |        49 |
 | "Photon Delta(E)"                               |     11557 |   -2717431 |    -235.13 |     391.81 |     -4036.0 |      1339.6 |
 | "Photon Delta(X)"                               |     11557 |  -5076.533 |   -0.43926 |     12.684 |     -91.984 |      32.112 |
 | "Photon Delta(Y)"                               |     11557 |  -3252.419 |   -0.28142 |     12.618 |     -91.966 |      38.582 |
 | "Photon Delta(Z)"                               |     11557 |   687902.5 |     59.523 |     13.112 |     -8.7578 |      123.98 |
 | "Photon corrected energy"                       |     11557 |4.026106e+07 |     3483.7 |     6056.6 |      22.782 |  1.2636e+05 |
 | "Photons pT-rejected after correction"          |       223 |
 | "electronHypos"                                 |       100 |       6063 |     60.630 |     36.279 |      6.0000 |      198.00 |
 | "photonHypos"                                   |       100 |      11334 |     113.34 |     50.843 |      10.000 |      203.00 |
ClassifyPhotonElectronAlg_8ec9e2...    INFO Number of counters : 7
 |    Counter                                      |     #     |    sum     | mean/eff^* | rms/err^*  |     min     |     max     |
 | "<alpha> Inner"                                 |      4993 |    4966.28 |    0.99465 |   0.019794 |     0.96438 |      1.1318 |
 | "<alpha> Middle"                                |      4694 |   4722.191 |     1.0060 |   0.020538 |     0.97692 |      1.2128 |
 | "<alpha> Outer"                                 |      7934 |   7929.779 |    0.99947 |   0.016370 |     0.97371 |      1.1067 |
 | "Pileup offset"                                 |     17621 |    6441118 |     365.54 |     433.46 |      2.6870 |      3722.1 |
 | "Pileup scale"                                  |     17669 |      99418 |     5.6267 |     1.9927 |      1.0000 |      9.0000 |
 | "Pileup subtracted ratio"                       |     17621 |   15502.38 |    0.87977 |    0.12360 |  0.00047684 |     0.99914 |
 | "Skip negative energy correction"               |        48 |
CloneKillerMatch_a528b1df              INFO Number of counters : 2
 |    Counter                                      |     #     |    sum     | mean/eff^* | rms/err^*  |     min     |     max     |
 | "nTracksInput"                                  |       100 |       6816 |     68.160 |
 | "nTracksSelected"                               |       100 |       1944 |     19.440 |
FunctionalParticleMaker_1f5c0b19       INFO Number of counters : 5
 |    Counter                                      |     #     |    sum     | mean/eff^* | rms/err^*  |     min     |     max     |
 |*"# passed"                                      |       100 |        100 |( 100.0000 +- 0.000000)% |
 |*"# passed ProtoParticle filter"                 |      3348 |       3348 |( 100.0000 +- 0.000000)% |
 |*"# passed Track filter"                         |      3348 |       3348 |( 100.0000 +- 0.000000)% |
 | "Nb created anti-particles"                     |       100 |       1784 |     17.840 |     12.136 |      1.0000 |      56.000 |
 | "Nb created particles"                          |       100 |       1564 |     15.640 |     10.665 |      2.0000 |      52.000 |
FunctionalParticleMaker_3b608ae5       INFO Number of counters : 5
 |    Counter                                      |     #     |    sum     | mean/eff^* | rms/err^*  |     min     |     max     |
 |*"# passed"                                      |       100 |        100 |( 100.0000 +- 0.000000)% |
 |*"# passed ProtoParticle filter"                 |      3348 |       3348 |( 100.0000 +- 0.000000)% |
 |*"# passed Track filter"                         |      3348 |       3348 |( 100.0000 +- 0.000000)% |
 | "Nb created anti-particles"                     |       100 |       1784 |     17.840 |     12.136 |      1.0000 |      56.000 |
 | "Nb created particles"                          |       100 |       1564 |     15.640 |     10.665 |      2.0000 |      52.000 |
FunctionalParticleMaker_3cd546ef       INFO Number of counters : 5
 |    Counter                                      |     #     |    sum     | mean/eff^* | rms/err^*  |     min     |     max     |
 |*"# passed"                                      |       100 |        100 |( 100.0000 +- 0.000000)% |
 |*"# passed ProtoParticle filter"                 |      3348 |       2914 |( 87.03704 +- 0.5805124)% |
 |*"# passed Track filter"                         |      3348 |       3348 |( 100.0000 +- 0.000000)% |
 | "Nb created anti-particles"                     |       100 |       1534 |     15.340 |     10.410 |      1.0000 |      47.000 |
 | "Nb created particles"                          |       100 |       1380 |     13.800 |     8.9387 |      2.0000 |      40.000 |
FunctionalParticleMaker_7b37829f       INFO Number of counters : 5
 |    Counter                                      |     #     |    sum     | mean/eff^* | rms/err^*  |     min     |     max     |
 |*"# passed"                                      |       100 |        100 |( 100.0000 +- 0.000000)% |
 |*"# passed ProtoParticle filter"                 |      3348 |       3348 |( 100.0000 +- 0.000000)% |
 |*"# passed Track filter"                         |      3348 |       3348 |( 100.0000 +- 0.000000)% |
 | "Nb created anti-particles"                     |       100 |       1784 |     17.840 |     12.136 |      1.0000 |      56.000 |
 | "Nb created particles"                          |       100 |       1564 |     15.640 |     10.665 |      2.0000 |      52.000 |
FunctionalParticleMaker_8cadd52d       INFO Number of counters : 5
 |    Counter                                      |     #     |    sum     | mean/eff^* | rms/err^*  |     min     |     max     |
 |*"# passed"                                      |       100 |        100 |( 100.0000 +- 0.000000)% |
 |*"# passed ProtoParticle filter"                 |      3348 |       2914 |( 87.03704 +- 0.5805124)% |
 |*"# passed Track filter"                         |      3348 |       3348 |( 100.0000 +- 0.000000)% |
 | "Nb created anti-particles"                     |       100 |       1534 |     15.340 |     10.410 |      1.0000 |      47.000 |
 | "Nb created particles"                          |       100 |       1380 |     13.800 |     8.9387 |      2.0000 |      40.000 |
FunctionalParticleMaker_967e2e8f       INFO Number of counters : 5
 |    Counter                                      |     #     |    sum     | mean/eff^* | rms/err^*  |     min     |     max     |
 |*"# passed"                                      |       100 |        100 |( 100.0000 +- 0.000000)% |
 |*"# passed ProtoParticle filter"                 |      3348 |       3348 |( 100.0000 +- 0.000000)% |
 |*"# passed Track filter"                         |      3348 |       3348 |( 100.0000 +- 0.000000)% |
 | "Nb created anti-particles"                     |       100 |       1784 |     17.840 |     12.136 |      1.0000 |      56.000 |
 | "Nb created particles"                          |       100 |       1564 |     15.640 |     10.665 |      2.0000 |      52.000 |
FunctionalParticleMaker_985eaba7       INFO Number of counters : 5
 |    Counter                                      |     #     |    sum     | mean/eff^* | rms/err^*  |     min     |     max     |
 |*"# passed"                                      |       100 |        100 |( 100.0000 +- 0.000000)% |
 |*"# passed ProtoParticle filter"                 |      3348 |       2914 |( 87.03704 +- 0.5805124)% |
 |*"# passed Track filter"                         |      3348 |       3348 |( 100.0000 +- 0.000000)% |
 | "Nb created anti-particles"                     |       100 |       1534 |     15.340 |     10.410 |      1.0000 |      47.000 |
 | "Nb created particles"                          |       100 |       1380 |     13.800 |     8.9387 |      2.0000 |      40.000 |
FunctionalParticleMaker_c16e2c64       INFO Number of counters : 5
 |    Counter                                      |     #     |    sum     | mean/eff^* | rms/err^*  |     min     |     max     |
 |*"# passed"                                      |       100 |        100 |( 100.0000 +- 0.000000)% |
 |*"# passed ProtoParticle filter"                 |      3348 |       3348 |( 100.0000 +- 0.000000)% |
 |*"# passed Track filter"                         |      3348 |       3348 |( 100.0000 +- 0.000000)% |
 | "Nb created anti-particles"                     |       100 |       1784 |     17.840 |     12.136 |      1.0000 |      56.000 |
 | "Nb created particles"                          |       100 |       1564 |     15.640 |     10.665 |      2.0000 |      52.000 |
GraphClustering_72971694               INFO Number of counters : 4
 |    Counter                                      |     #     |    sum     | mean/eff^* | rms/err^*  |     min     |     max     |
 | "# clusters"                                    |       100 |      17042 |     170.42 |     79.915 |      16.000 |      358.00 |
 | "Cluster energy"                                |     17042 |7.875139e+07 |     4621.0 |     6901.4 |      8.8000 |  1.3040e+05 |
 | "Cluster size"                                  |     17042 |     172646 |     10.131 |     2.3852 |      4.0000 |      24.000 |
 | "Negative energy clusters"                      |         1 |          1 |     1.0000 |     0.0000 |      1.0000 |      1.0000 |
HLTControlFlowMgr                      INFO Number of counters : 1
 |    Counter                                      |     #     |    sum     | mean/eff^* | rms/err^*  |     min     |     max     |
 | "Processed events"                              |       100 |
LHCb__Converters__Track__SOA__fr...    INFO Number of counters : 2
 |    Counter                                      |     #     |    sum     | mean/eff^* | rms/err^*  |     min     |     max     |
 | "Nb of Events without Tracks"                   |         1 |          0 |     0.0000 |
 | "Nb of Produced Tracks"                         |        99 |       4331 |     43.747 |
LHCb__Converters__Track__SOA__fr...    INFO Number of counters : 1
 |    Counter                                      |     #     |    sum     | mean/eff^* | rms/err^*  |     min     |     max     |
 | "Nb of Produced Tracks"                         |       100 |       5915 |     59.150 |
LHCb__Converters__Track__SOA__fr...    INFO Number of counters : 2
 |    Counter                                      |     #     |    sum     | mean/eff^* | rms/err^*  |     min     |     max     |
 | "Nb of Events without Tracks"                   |         2 |          0 |     0.0000 |
 | "Nb of Produced Tracks"                         |        98 |       1483 |     15.133 |
LHCb__Converters__Track__SOA__fr...    INFO Number of counters : 1
 |    Counter                                      |     #     |    sum     | mean/eff^* | rms/err^*  |     min     |     max     |
 | "Nb of Produced Tracks"                         |       100 |       3348 |     33.480 |
PrCloneKillerDown_93e0ec59             INFO Number of counters : 2
 |    Counter                                      |     #     |    sum     | mean/eff^* | rms/err^*  |     min     |     max     |
 | "nTracksInput"                                  |       100 |       6819 |     68.190 |
 | "nTracksSelected"                               |       100 |       2071 |     20.710 |
PrCloneKillerSeedDown_913c1b16         INFO Number of counters : 2
 |    Counter                                      |     #     |    sum     | mean/eff^* | rms/err^*  |     min     |     max     |
 | "nTracksInput"                                  |       100 |       5762 |     57.620 |
 | "nTracksSelected"                               |       100 |       4331 |     43.310 |
PrCloneKillerSeed_cd7a5f5f             INFO Number of counters : 2
 |    Counter                                      |     #     |    sum     | mean/eff^* | rms/err^*  |     min     |     max     |
 | "nTracksInput"                                  |       100 |      11152 |     111.52 |
 | "nTracksSelected"                               |       100 |       5762 |     57.620 |
PrCloneKillerUp_2c315e9d               INFO Number of counters : 2
 |    Counter                                      |     #     |    sum     | mean/eff^* | rms/err^*  |     min     |     max     |
 | "nTracksInput"                                  |       100 |       9352 |     93.520 |
 | "nTracksSelected"                               |       100 |       4622 |     46.220 |
PrForwardTrackingVelo_a7f67b46         INFO Number of counters : 10
 |    Counter                                      |     #     |    sum     | mean/eff^* | rms/err^*  |     min     |     max     |
 | "Accepted input tracks"                         |       100 |      13744 |     137.44 |
 | "Created long tracks"                           |       100 |       6763 |     67.630 |
 | "Input tracks"                                  |       100 |      14379 |     143.79 |
 | "Number of candidate bins per track"            |     13744 |     153255 |     11.151 |     18.095 |      0.0000 |      129.00 |
 | "Number of complete candidates/track 1st Loop"  |     11993 |       7410 |    0.61786 |    0.68099 |      0.0000 |      5.0000 |
 | "Number of complete candidates/track 2nd Loop"  |      6367 |        544 |   0.085441 |    0.29164 |      0.0000 |      3.0000 |
 | "Number of x candidates per track 1st Loop"     |     11993 |      25778 |     2.1494 |     2.8115 |
 | "Number of x candidates per track 2nd Loop"     |      6367 |      35938 |     5.6444 |     9.6174 |
 | "Percentage second loop execution"              |     11993 |       6367 |    0.53089 |
 | "Removed duplicates"                            |       100 |        392 |     3.9200 |
PrForwardTrackingVelo_a7f67b46.P...    INFO Number of counters : 2
 |    Counter                                      |     #     |    sum     | mean/eff^* | rms/err^*  |     min     |     max     |
 | "#UT hits added"                                |      5819 |      23270 |     3.9990 |
 | "#tracks with hits added"                       |      5819 |
PrHybridSeeding_97242385               INFO Number of counters : 21
 |    Counter                                      |     #     |    sum     | mean/eff^* | rms/err^*  |     min     |     max     |
 | "Created T2x1 three-hit combinations in case 0" |    227799 |     142701 |    0.62643 |    0.63101 |      0.0000 |      6.0000 |
 | "Created T2x1 three-hit combinations in case 1" |    326025 |     222207 |    0.68156 |    0.74730 |      0.0000 |      10.000 |
 | "Created T2x1 three-hit combinations in case 2" |    559251 |     483009 |    0.86367 |     1.0243 |      0.0000 |      22.000 |
 | "Created XZ tracks (part 0)"                    |       300 |      23244 |     77.480 |     153.11 |      0.0000 |      1760.0 |
 | "Created XZ tracks (part 1)"                    |       300 |      26604 |     88.680 |     220.73 |      0.0000 |      2213.0 |
 | "Created XZ tracks in case 0"                   |       200 |      13666 |     68.330 |     102.79 |      2.0000 |      791.00 |
 | "Created XZ tracks in case 1"                   |       200 |      17642 |     88.210 |     176.14 |      2.0000 |      1310.0 |
 | "Created XZ tracks in case 2"                   |       200 |      18540 |     92.700 |     257.70 |      0.0000 |      2213.0 |
 | "Created full hit combinations in case 0"       |     24508 |      24508 |     1.0000 |     0.0000 |      1.0000 |      1.0000 |
 | "Created full hit combinations in case 1"       |     21827 |      21827 |     1.0000 |     0.0000 |      1.0000 |      1.0000 |
 | "Created full hit combinations in case 2"       |     29729 |      29729 |     1.0000 |     0.0000 |      1.0000 |      1.0000 |
 | "Created seed tracks"                           |       200 |      11152 |     55.760 |     41.065 |      3.0000 |      314.00 |
 | "Created seed tracks (part 0)"                  |       100 |       6196 |     61.960 |     46.412 |      6.0000 |      351.00 |
 | "Created seed tracks (part 1)"                  |       100 |       6298 |     62.980 |     47.947 |      3.0000 |      284.00 |
 | "Created seed tracks in case 0"                 |       200 |       5634 |     28.170 |     19.804 |      2.0000 |      147.00 |
 | "Created seed tracks in case 1"                 |       200 |      10351 |     51.755 |     35.875 |      3.0000 |      262.00 |
 | "Created seed tracks in case 2"                 |       200 |      11836 |     59.180 |     45.211 |      3.0000 |      349.00 |
 | "Created seed tracks in recovery step"          |       100 |        658 |     6.5800 |     5.2444 |      0.0000 |      20.000 |
 | "Created two-hit combinations in case 0"        |     32689 |     807237 |     24.694 |     18.274 |      0.0000 |      111.00 |
 | "Created two-hit combinations in case 1"        |     29072 |    1013444 |     34.860 |     21.979 |      0.0000 |      123.00 |
 | "Created two-hit combinations in case 2"        |     24848 |    1337521 |     53.828 |     34.123 |      1.0000 |      179.00 |
PrKalmanFilterForward_907c6c68         INFO Number of counters : 6
 |    Counter                                      |     #     |    sum     | mean/eff^* | rms/err^*  |     min     |     max     |
 | "Pre outlier chi2 cut"                          |       205 |
 | "chi2 cut"                                      |      1096 |
 | "nIterations"                                   |      6763 |      15615 |     2.3089 |
 | "nOutlierIterations"                            |      6558 |       5239 |    0.79887 |
 | "nTracksInput"                                  |       100 |       6763 |     67.630 |
 | "nTracksOutput"                                 |       100 |       5462 |     54.620 |
PrKalmanFilterMatch_8b37c0b3           INFO Number of counters : 6
 |    Counter                                      |     #     |    sum     | mean/eff^* | rms/err^*  |     min     |     max     |
 | "Pre outlier chi2 cut"                          |       174 |
 | "chi2 cut"                                      |      1064 |
 | "nIterations"                                   |      1944 |       4716 |     2.4259 |
 | "nOutlierIterations"                            |      1770 |       2064 |     1.1661 |
 | "nTracksInput"                                  |       100 |       1944 |     19.440 |
 | "nTracksOutput"                                 |       100 |        706 |     7.0600 |
PrKalmanFilter_Downstream_774e4436     INFO Number of counters : 6
 |    Counter                                      |     #     |    sum     | mean/eff^* | rms/err^*  |     min     |     max     |
 | "Pre outlier chi2 cut"                          |       271 |
 | "chi2 cut"                                      |       317 |
 | "nIterations"                                   |      2071 |       5141 |     2.4824 |
 | "nOutlierIterations"                            |      1800 |       1033 |    0.57389 |
 | "nTracksInput"                                  |       100 |       2071 |     20.710 |
 | "nTracksOutput"                                 |       100 |       1483 |     14.830 |
PrKalmanFilter_Upstream_6ce4b453       INFO Number of counters : 6
 |    Counter                                      |     #     |    sum     | mean/eff^* | rms/err^*  |     min     |     max     |
 | "Pre outlier chi2 cut"                          |       338 |
 | "chi2 cut"                                      |       932 |
 | "nIterations"                                   |      4622 |       9572 |     2.0710 |
 | "nOutlierIterations"                            |      4284 |       2504 |    0.58450 |
 | "nTracksInput"                                  |       100 |       4622 |     46.220 |
 | "nTracksOutput"                                 |       100 |       3352 |     33.520 |
PrLongLivedTracking_83484006           INFO Number of counters : 8
 |    Counter                                      |     #     |    sum     | mean/eff^* | rms/err^*  |     min     |     max     |
 | "#Downstream tracks made"                       |       100 |       6819 |     68.190 |
 | "#Good XUVcand"                                 |     10207 |      49989 |     4.8975 |
 | "#Good Xcand"                                   |     10207 |     157020 |     15.384 |
 | "#Presel hits0"                                 |     10207 |     133129 |     13.043 |
 | "#Presel hits1"                                 |     10207 |     132461 |     12.977 |
 | "#Presel hits2"                                 |     10207 |     127993 |     12.540 |
 | "#Presel hits3"                                 |     10207 |     133511 |     13.080 |
 | "#Seeds"                                        |       100 |      11152 |     111.52 |
PrMatchNN_915466c5                     INFO Number of counters : 3
 |    Counter                                      |     #     |    sum     | mean/eff^* | rms/err^*  |     min     |     max     |
 | "#MatchingChi2"                                 |       100 |   115035.9 |     1150.4 |
 | "#MatchingMLP"                                  |      6816 |   5662.041 |    0.83070 |
 | "#MatchingTracks"                               |       100 |       6816 |     68.160 |
PrMatchNN_915466c5.PrAddUTHitsTool     INFO Number of counters : 2
 |    Counter                                      |     #     |    sum     | mean/eff^* | rms/err^*  |     min     |     max     |
 | "#UT hits added"                                |      5821 |      23243 |     3.9930 |
 | "#tracks with hits added"                       |      5821 |
PrStoreSciFiHits_fb0eba02              INFO Number of counters : 25
 |    Counter                                      |     #     |    sum     | mean/eff^* | rms/err^*  |     min     |     max     |
 | "Average X in T1U"                              |     32898 |   508254.6 |     15.449 |     1217.4 |     -2656.0 |      2656.4 |
 | "Average X in T1V"                              |     33222 |   411511.8 |     12.387 |     1201.5 |     -2656.3 |      2656.0 |
 | "Average X in T1X1"                             |     32689 |     789223 |     24.143 |     1230.8 |     -2646.0 |      2646.1 |
 | "Average X in T1X2"                             |     33430 |   626468.2 |     18.740 |     1188.6 |     -2644.9 |      2646.1 |
 | "Average X in T2U"                              |     32246 |   775433.6 |     24.047 |     1210.2 |     -2656.3 |      2656.0 |
 | "Average X in T2V"                              |     32792 |    1041829 |     31.771 |     1205.4 |     -2656.3 |      2655.5 |
 | "Average X in T2X1"                             |     30854 |   202408.5 |     6.5602 |     1217.9 |     -2646.0 |      2646.2 |
 | "Average X in T2X2"                             |     33530 |   158118.7 |     4.7157 |     1188.5 |     -2646.1 |      2645.4 |
 | "Average X in T3U"                              |     35190 |   673439.4 |     19.137 |     1466.6 |     -3188.2 |      3188.4 |
 | "Average X in T3V"                              |     36216 |   71146.28 |     1.9645 |     1443.4 |     -3188.2 |      3187.8 |
 | "Average X in T3X1"                             |     34270 |   339994.8 |     9.9211 |     1451.9 |     -3175.7 |      3176.0 |
 | "Average X in T3X2"                             |     37522 |   289937.7 |     7.7271 |     1438.0 |     -3176.1 |      3176.1 |
 | "Hits in T1U"                                   |       400 |      32898 |     82.245 |     38.105 |      24.000 |      271.00 |
 | "Hits in T1V"                                   |       400 |      33222 |     83.055 |     38.177 |      20.000 |      239.00 |
 | "Hits in T1X1"                                  |       400 |      32689 |     81.722 |     36.075 |      14.000 |      207.00 |
 | "Hits in T1X2"                                  |       400 |      33430 |     83.575 |     38.111 |      17.000 |      240.00 |
 | "Hits in T2U"                                   |       400 |      32246 |     80.615 |     36.284 |      17.000 |      226.00 |
 | "Hits in T2V"                                   |       400 |      32792 |     81.980 |     36.337 |      17.000 |      273.00 |
 | "Hits in T2X1"                                  |       400 |      30854 |     77.135 |     34.137 |      17.000 |      194.00 |
 | "Hits in T2X2"                                  |       400 |      33530 |     83.825 |     36.526 |      18.000 |      226.00 |
 | "Hits in T3U"                                   |       400 |      35190 |     87.975 |     38.320 |      20.000 |      238.00 |
 | "Hits in T3V"                                   |       400 |      36216 |     90.540 |     38.840 |      20.000 |      231.00 |
 | "Hits in T3X1"                                  |       400 |      34270 |     85.675 |     35.456 |      24.000 |      215.00 |
 | "Hits in T3X2"                                  |       400 |      37522 |     93.805 |     39.277 |      22.000 |      227.00 |
 | "Total number of hits"                          |       100 |     404859 |     4048.6 |     1646.0 |      1293.0 |      9725.0 |
PrStoreUTHitClusters_69298ec0          INFO Number of counters : 3
 |    Counter                                      |     #     |    sum     | mean/eff^* | rms/err^*  |     min     |     max     |
 | "# RawBank::UT banks"                           |       100 |      21600 |     216.00 |
 | "# RawBank::UTError banks"                      |       100 |          0 |     0.0000 |
 |*"Non-unique UT clusters in event"               |       100 |          0 |( 0.000000 +- 0.000000)% |
PrVPHitsToVPLightClusters_8cd36c45     INFO Number of counters : 1
 |    Counter                                      |     #     |    sum     | mean/eff^* | rms/err^*  |     min     |     max     |
 | "Nb of Produced Clusters"                       |       100 |     207174 |     2071.7 |
PrVeloUT_2520e315                      INFO Number of counters : 2
 |    Counter                                      |     #     |    sum     | mean/eff^* | rms/err^*  |     min     |     max     |
 | "#seeds"                                        |       100 |      14379 |     143.79 |
 | "#tracks"                                       |       100 |       9352 |     93.520 |
TBTCMatch_239b7419                     INFO Number of counters : 3
 |    Counter                                      |     #     |    sum     | mean/eff^* | rms/err^*  |     min     |     max     |
 |*"BadInput"                                      |       661 |          0 |( 0.000000 +- 0.000000)% |
 |*"FitFailed"                                     |       661 |          0 |( 0.000000 +- 0.000000)% |
 | "FittedBefore"                                  |       661 |
TBTC_Forward_805a8cb5                  INFO Number of counters : 3
 |    Counter                                      |     #     |    sum     | mean/eff^* | rms/err^*  |     min     |     max     |
 |*"BadInput"                                      |      5254 |          0 |( 0.000000 +- 0.000000)% |
 |*"FitFailed"                                     |      5254 |          0 |( 0.000000 +- 0.000000)% |
 | "FittedBefore"                                  |      5254 |
TBTC_down_a8eb2751                     INFO Number of counters : 3
 |    Counter                                      |     #     |    sum     | mean/eff^* | rms/err^*  |     min     |     max     |
 |*"BadInput"                                      |      1483 |          0 |( 0.000000 +- 0.000000)% |
 |*"FitFailed"                                     |      1483 |          0 |( 0.000000 +- 0.000000)% |
 | "FittedBefore"                                  |      1483 |
TBTC_up_2c39b711                       INFO Number of counters : 3
 |    Counter                                      |     #     |    sum     | mean/eff^* | rms/err^*  |     min     |     max     |
 |*"BadInput"                                      |      3348 |          0 |( 0.000000 +- 0.000000)% |
 |*"FitFailed"                                     |      3348 |          0 |( 0.000000 +- 0.000000)% |
 | "FittedBefore"                                  |      3348 |
TrackBeamLineVertexFinderSoA_609...    INFO Number of counters : 3
 |    Counter                                      |     #     |    sum     | mean/eff^* | rms/err^*  |     min     |     max     |
 |*"Fraction of failed PV fits"                    |       494 |          0 |( 0.000000 +- 0.000000)% |
 |*"Fraction of unconverged PV fits"               |       494 |         27 |( 5.465587 +- 1.022704)% |
 | "Nb PVs"                                        |       100 |        486 |     4.8600 |
UTHitClustersToPrUTHitsConverter...    INFO Number of counters : 1
 |    Counter                                      |     #     |    sum     | mean/eff^* | rms/err^*  |     min     |     max     |
 | "# Converted Clusters"                          |       100 |     104184 |     1041.8 |
VPLightClustersToVPMicroClusters...    INFO Number of counters : 1
 |    Counter                                      |     #     |    sum     | mean/eff^* | rms/err^*  |     min     |     max     |
 | "# Converted Clusters"                          |       100 |     207174 |     2071.7 |
VeloRetinaClusterTrackingSIMD_66...    INFO Number of counters : 2
 |    Counter                                      |     #     |    sum     | mean/eff^* | rms/err^*  |     min     |     max     |
 | "Nb of Produced Clusters"                       |       100 |     207174 |     2071.7 |
 | "Nb of Produced Tracks"                         |       100 |      22716 |     227.16 |
fromPrSeedingTracksV1Tracks_8d48...    INFO Number of counters : 1
 |    Counter                                      |     #     |    sum     | mean/eff^* | rms/err^*  |     min     |     max     |
 | "Nb of converted Tracks"                        |       100 |       4331 |     43.310 |
fromPrVeloTracksV1TracksMerger_8...    INFO Number of counters : 1
 |    Counter                                      |     #     |    sum     | mean/eff^* | rms/err^*  |     min     |     max     |
 | "Nb of converted Tracks"                        |       100 |      22716 |     227.16 |
