ForwardTrackChecker_dcd3524b           INFO Results
ForwardTrackChecker_dcd3524b           INFO **** Forward                                   15809 tracks including            396 ghosts [ 2.50 %], Event average  1.83 % ****
ForwardTrackChecker_dcd3524b           INFO   01_long                                  :   14616 from    42409 [ 34.46 %]     56 clones [ 0.38 %], purity: 99.01 %, hitEff: 95.97 %
ForwardTrackChecker_dcd3524b           INFO   02_long_P>5GeV                           :   12140 from    27030 [ 44.91 %]     49 clones [ 0.40 %], purity: 99.13 %, hitEff: 96.22 %
ForwardTrackChecker_dcd3524b           INFO   03_long_strange                          :     475 from     2314 [ 20.53 %]      1 clones [ 0.21 %], purity: 98.98 %, hitEff: 96.40 %
ForwardTrackChecker_dcd3524b           INFO   04_long_strange_P>5GeV                   :     357 from     1041 [ 34.29 %]      1 clones [ 0.28 %], purity: 99.05 %, hitEff: 96.53 %
ForwardTrackChecker_dcd3524b           INFO   05_long_fromB                            :      16 from       51 [ 31.37 %]      0 clones [ 0.00 %], purity: 99.70 %, hitEff: 96.82 %
ForwardTrackChecker_dcd3524b           INFO   05_long_fromD                            :     207 from      481 [ 43.04 %]      1 clones [ 0.48 %], purity: 99.12 %, hitEff: 96.02 %
ForwardTrackChecker_dcd3524b           INFO   06_long_fromB_P>5GeV                     :      10 from       26 [ 38.46 %]      0 clones [ 0.00 %], purity:100.00 %, hitEff: 95.75 %
ForwardTrackChecker_dcd3524b           INFO   06_long_fromD_P>5GeV                     :     178 from      316 [ 56.33 %]      1 clones [ 0.56 %], purity: 99.17 %, hitEff: 96.28 %
ForwardTrackChecker_dcd3524b           INFO   07_long_electrons                        :     144 from     2960 [  4.86 %]      2 clones [ 1.37 %], purity: 97.73 %, hitEff: 95.26 %
ForwardTrackChecker_dcd3524b           INFO   07_long_electrons_pairprod               :     126 from     2780 [  4.53 %]      2 clones [ 1.56 %], purity: 97.51 %, hitEff: 95.07 %
ForwardTrackChecker_dcd3524b           INFO   08_long_fromB_electrons                  :       3 from        6 [ 50.00 %]      0 clones [ 0.00 %], purity: 98.89 %, hitEff:100.00 %
ForwardTrackChecker_dcd3524b           INFO   09_long_fromB_electrons_P>5GeV           :       3 from        5 [ 60.00 %]      0 clones [ 0.00 %], purity: 98.89 %, hitEff:100.00 %
ForwardTrackChecker_dcd3524b           INFO   10_long_fromB_P>3GeV_Pt>0.5GeV           :      14 from       20 [ 70.00 %]      0 clones [ 0.00 %], purity: 99.66 %, hitEff: 96.92 %
ForwardTrackChecker_dcd3524b           INFO   10_long_fromB_electrons_P>3GeV_Pt>0.5GeV :       3 from        5 [ 60.00 %]      0 clones [ 0.00 %], purity: 98.89 %, hitEff:100.00 %
ForwardTrackChecker_dcd3524b           INFO   10_long_fromD_P>3GeV_Pt>0.5GeV           :     199 from      252 [ 78.97 %]      1 clones [ 0.50 %], purity: 99.18 %, hitEff: 96.16 %
ForwardTrackChecker_dcd3524b           INFO   10_long_strange_P>3GeV_Pt>0.5GeV         :     429 from      531 [ 80.79 %]      1 clones [ 0.23 %], purity: 98.95 %, hitEff: 96.35 %
ForwardTrackChecker_dcd3524b           INFO   11_UT_long_fromB_P>3GeV_Pt>0.5GeV        :      14 from       20 [ 70.00 %]      0 clones [ 0.00 %], purity: 99.66 %, hitEff: 96.92 %
ForwardTrackChecker_dcd3524b           INFO
ForwardUTHitsChecker_61c7d3a3          INFO Results
ForwardUTHitsChecker_61c7d3a3          INFO **** UT Efficiency for /Event/fromPrForwardTracksFromVeloUTV1Tracks_87f6d062/OutputTracksLocation ****     396 ghost,  4.02 UT per track
ForwardUTHitsChecker_61c7d3a3          INFO                                  01_long : 14672 tr  4.05 from  4.10 mcUT [ 98.8 %]  0.05 ghost hits on real tracks [ 1.3 %]
ForwardUTHitsChecker_61c7d3a3          INFO                             01_long >3UT : 14665 tr  4.05 from  4.10 mcUT [ 98.8 %]  0.05 ghost hits on real tracks [ 1.3 %]
ForwardUTHitsChecker_61c7d3a3          INFO                           02_long_P>5GeV : 12189 tr  4.05 from  4.10 mcUT [ 98.9 %]  0.06 ghost hits on real tracks [ 1.4 %]
ForwardUTHitsChecker_61c7d3a3          INFO                      02_long_P>5GeV >3UT : 12184 tr  4.05 from  4.10 mcUT [ 98.9 %]  0.06 ghost hits on real tracks [ 1.4 %]
ForwardUTHitsChecker_61c7d3a3          INFO           03_long_fromB_P>3GeV_Pt>0.5GeV :    14 tr  4.07 from  4.14 mcUT [ 98.3 %]  0.00 ghost hits on real tracks [ 0.0 %]
ForwardUTHitsChecker_61c7d3a3          INFO      03_long_fromB_P>3GeV_Pt>0.5GeV >3UT :    14 tr  4.07 from  4.14 mcUT [ 98.3 %]  0.00 ghost hits on real tracks [ 0.0 %]
ForwardUTHitsChecker_61c7d3a3          INFO        04_UT_long_fromB_P>3GeV_Pt>0.5GeV :    14 tr  4.07 from  4.14 mcUT [ 98.3 %]  0.00 ghost hits on real tracks [ 0.0 %]
ForwardUTHitsChecker_61c7d3a3          INFO   04_UT_long_fromB_P>3GeV_Pt>0.5GeV >3UT :    14 tr  4.07 from  4.14 mcUT [ 98.3 %]  0.00 ghost hits on real tracks [ 0.0 %]
ForwardUTHitsChecker_61c7d3a3          INFO
PrimaryVertexChecker_a7cabd38          INFO      ************************************
PrimaryVertexChecker_a7cabd38          INFO  MC PV is reconstructible if at least 4  tracks are reconstructed
PrimaryVertexChecker_a7cabd38          INFO  MC PV is isolated if dz to closest reconstructible MC PV >  10 mm
PrimaryVertexChecker_a7cabd38          INFO  MC efficiency split by tracks with threshold: (4,10), >= 10
PrimaryVertexChecker_a7cabd38          INFO  MC efficiency split by z position: <-50, (-50,50), >50
PrimaryVertexChecker_a7cabd38          INFO  REC and MC vertices matched:  by distance
PrimaryVertexChecker_a7cabd38          INFO
PrimaryVertexChecker_a7cabd38          INFO 00 all                    :     3913 from     4220 (    6185-1965    ) [ 92.73 %], false   71 from reco.     3984 (    3913+71  ) [  1.78 %]
PrimaryVertexChecker_a7cabd38          INFO 01 isolated               :     2159 from     2228 (    3218-990     ) [ 96.90 %], false   19 from reco.     2178 (    2159+19  ) [  0.87 %]
PrimaryVertexChecker_a7cabd38          INFO 02 close                  :     1754 from     1992 (    2967-975     ) [ 88.05 %], false   52 from reco.     1806 (    1754+52  ) [  2.88 %]
PrimaryVertexChecker_a7cabd38          INFO 03 ntracks<10             :      302 from      464 (     464-0       ) [ 65.09 %], false   69 from reco.      371 (     302+69  ) [ 18.60 %]
PrimaryVertexChecker_a7cabd38          INFO 04 ntracks>=10            :     3611 from     3756 (    3756-0       ) [ 96.14 %], false    2 from reco.     3613 (    3611+2   ) [  0.06 %]
PrimaryVertexChecker_a7cabd38          INFO 05 z<-50.0                :      770 from      826 (    1223-397     ) [ 93.22 %], false    7 from reco.      777 (     770+7   ) [  0.90 %]
PrimaryVertexChecker_a7cabd38          INFO 06 z in (-50.0, 50.0)     :     2307 from     2527 (    3717-1190    ) [ 91.29 %], false   48 from reco.     2355 (    2307+48  ) [  2.04 %]
PrimaryVertexChecker_a7cabd38          INFO 07 z >=50.0               :      836 from      867 (    1245-378     ) [ 96.42 %], false   16 from reco.      852 (     836+16  ) [  1.88 %]
PrimaryVertexChecker_a7cabd38          INFO 08 decayBeauty            :       42 from       42 (      42-0       ) [ 100.00 %], false    2 from reco.      113 (     111+2   ) [  1.77 %]
PrimaryVertexChecker_a7cabd38          INFO 09 decayCharm             :      536 from      546 (     546-0       ) [ 98.17 %], false    9 from reco.      607 (     598+9   ) [  1.48 %]
PrimaryVertexChecker_a7cabd38          INFO 10 decayStrange           :     3895 from     4190 (    4440-250     ) [ 92.96 %], false   55 from reco.     3966 (    3911+55  ) [  1.39 %]
PrimaryVertexChecker_a7cabd38          INFO 11 other                  :       18 from       30 (    1745-1715    ) [ 60.00 %], false   16 from reco.       89 (      73+16  ) [ 17.98 %]
PrimaryVertexChecker_a7cabd38          INFO 12 1MCPV                  :      848 from      853 (     856-3       ) [ 99.41 %], false   13 from reco.      861 (     848+13  ) [  1.51 %]
PrimaryVertexChecker_a7cabd38          INFO 13 2MCPV                  :      811 from      834 (     856-22      ) [ 97.24 %], false    8 from reco.      819 (     811+8   ) [  0.98 %]
PrimaryVertexChecker_a7cabd38          INFO 14 3MCPV                  :      728 from      763 (     838-75      ) [ 95.41 %], false   11 from reco.      739 (     728+11  ) [  1.49 %]
PrimaryVertexChecker_a7cabd38          INFO 15 4MCPV                  :      578 from      630 (     800-170     ) [ 91.75 %], false    8 from reco.      586 (     578+8   ) [  1.37 %]
PrimaryVertexChecker_a7cabd38          INFO 16 5MCPV                  :      415 from      476 (     723-247     ) [ 87.18 %], false   11 from reco.      426 (     415+11  ) [  2.58 %]
PrimaryVertexChecker_a7cabd38          INFO
PrimaryVertexChecker_a7cabd38          INFO 00 all                    : av. PV tracks:  31.90 [MC:  34.88]
PrimaryVertexChecker_a7cabd38          INFO 01 isolated               : av. PV tracks:  30.22 [MC:  34.32]
PrimaryVertexChecker_a7cabd38          INFO 02 close                  : av. PV tracks:  33.97 [MC:  35.52]
PrimaryVertexChecker_a7cabd38          INFO 03 ntracks<10             : av. PV tracks:   7.38 [MC:   6.78]
PrimaryVertexChecker_a7cabd38          INFO 04 ntracks>=10            : av. PV tracks:  33.95 [MC:  38.35]
PrimaryVertexChecker_a7cabd38          INFO 05 z<-50.0                : av. PV tracks:  28.94 [MC:  30.91]
PrimaryVertexChecker_a7cabd38          INFO 06 z in (-50.0, 50.0)     : av. PV tracks:  31.99 [MC:  34.76]
PrimaryVertexChecker_a7cabd38          INFO 07 z >=50.0               : av. PV tracks:  34.38 [MC:  39.04]
PrimaryVertexChecker_a7cabd38          INFO 08 decayBeauty            : av. PV tracks:  57.10 [MC:  64.71]
PrimaryVertexChecker_a7cabd38          INFO 09 decayCharm             : av. PV tracks:  53.52 [MC:  59.74]
PrimaryVertexChecker_a7cabd38          INFO 10 decayStrange           : av. PV tracks:  32.01 [MC:  35.08]
PrimaryVertexChecker_a7cabd38          INFO 11 other                  : av. PV tracks:   7.50 [MC:   7.07]
PrimaryVertexChecker_a7cabd38          INFO 12 1MCPV                  : av. PV tracks:  60.97 [MC:  70.29]
PrimaryVertexChecker_a7cabd38          INFO 13 2MCPV                  : av. PV tracks:  36.76 [MC:  42.30]
PrimaryVertexChecker_a7cabd38          INFO 14 3MCPV                  : av. PV tracks:  25.58 [MC:  28.97]
PrimaryVertexChecker_a7cabd38          INFO 15 4MCPV                  : av. PV tracks:  19.75 [MC:  21.39]
PrimaryVertexChecker_a7cabd38          INFO 16 5MCPV                  : av. PV tracks:  15.78 [MC:  16.92]
PrimaryVertexChecker_a7cabd38          INFO
PrimaryVertexChecker_a7cabd38          INFO 1_res_all                 :  x: +0.000, y: +0.000, z: +0.094
PrimaryVertexChecker_a7cabd38          INFO 2_res_ntracks<10          :  x: +0.000, y: +0.000, z: +0.175
PrimaryVertexChecker_a7cabd38          INFO 3_res_ntracks(10,30)      :  x: +0.000, y: +0.000, z: +0.112
PrimaryVertexChecker_a7cabd38          INFO 4_res_ntracks>30          :  x: +0.000, y: +0.000, z: +0.045
PrimaryVertexChecker_a7cabd38          INFO 5_res_z<-50               :  x: +0.000, y: +0.000, z: +0.117
PrimaryVertexChecker_a7cabd38          INFO 6_res_z(-50,50)           :  x: +0.000, y: +0.000, z: +0.091
PrimaryVertexChecker_a7cabd38          INFO 7_res_z>50                :  x: +0.000, y: +0.000, z: +0.076
PrimaryVertexChecker_a7cabd38          INFO
PrimaryVertexChecker_a7cabd38          INFO 1_pull_width_all          :  x: +0.000, y: +0.000, z: +1.138
PrimaryVertexChecker_a7cabd38          INFO 1_pull_mean_all           :  x: +0.000, y: +0.000, z: +0.018
PrimaryVertexChecker_a7cabd38          INFO
UpstreamTrackChecker_f8dcb0cc          INFO Results
UpstreamTrackChecker_f8dcb0cc          INFO **** Upstream                                  25605 tracks including           1556 ghosts [ 6.08 %], Event average  4.92 % ****
UpstreamTrackChecker_f8dcb0cc          INFO   01_velo                                  :   22861 from    74908 [ 30.52 %]     83 clones [ 0.36 %], purity: 99.44 %, hitEff: 98.41 %
UpstreamTrackChecker_f8dcb0cc          INFO   02_velo+UT                               :   22814 from    64763 [ 35.23 %]     83 clones [ 0.36 %], purity: 99.46 %, hitEff: 98.41 %
UpstreamTrackChecker_f8dcb0cc          INFO   03_velo+UT_P>5GeV                        :   17082 from    32461 [ 52.62 %]     64 clones [ 0.37 %], purity: 99.50 %, hitEff: 98.94 %
UpstreamTrackChecker_f8dcb0cc          INFO   04_velo+notLong                          :    4089 from    32499 [ 12.58 %]      7 clones [ 0.17 %], purity: 99.15 %, hitEff: 97.52 %
UpstreamTrackChecker_f8dcb0cc          INFO   05_velo+UT+notLong                       :    4044 from    22950 [ 17.62 %]      7 clones [ 0.17 %], purity: 99.25 %, hitEff: 97.49 %
UpstreamTrackChecker_f8dcb0cc          INFO   05_velo+UT+notLong_electron              :      46 from     8979 [  0.51 %]      0 clones [ 0.00 %], purity: 95.21 %, hitEff: 89.86 %
UpstreamTrackChecker_f8dcb0cc          INFO   05_velo+UT+notLong_electron_pairprod     :      41 from     8235 [  0.50 %]      0 clones [ 0.00 %], purity: 94.62 %, hitEff: 88.62 %
UpstreamTrackChecker_f8dcb0cc          INFO   05_velo+UT+notLong_fromB                 :       4 from       18 [ 22.22 %]      0 clones [ 0.00 %], purity:100.00 %, hitEff:100.00 %
UpstreamTrackChecker_f8dcb0cc          INFO   05_velo+UT+notLong_fromB_electron        :       0 from        8 [  0.00 %]      0 clones [ 0.00 %], purity:  0.00 %, hitEff:  0.00 %
UpstreamTrackChecker_f8dcb0cc          INFO   05_velo+UT+notLong_fromD                 :      49 from      249 [ 19.68 %]      0 clones [ 0.00 %], purity: 99.83 %, hitEff: 97.76 %
UpstreamTrackChecker_f8dcb0cc          INFO   05_velo+UT+notLong_fromD_electron        :       1 from      105 [  0.95 %]      0 clones [ 0.00 %], purity:100.00 %, hitEff:100.00 %
UpstreamTrackChecker_f8dcb0cc          INFO   06_velo+UT+notLong_P>5GeV                :    2428 from     5950 [ 40.81 %]      4 clones [ 0.16 %], purity: 99.40 %, hitEff: 98.90 %
UpstreamTrackChecker_f8dcb0cc          INFO   06_velo+UT+notLong_electron_P>5GeV       :      26 from      391 [  6.65 %]      0 clones [ 0.00 %], purity: 96.26 %, hitEff: 95.19 %
UpstreamTrackChecker_f8dcb0cc          INFO   07_long                                  :   18772 from    42409 [ 44.26 %]     76 clones [ 0.40 %], purity: 99.50 %, hitEff: 98.61 %
UpstreamTrackChecker_f8dcb0cc          INFO   07_long_strange                          :     644 from     2314 [ 27.83 %]      2 clones [ 0.31 %], purity: 98.90 %, hitEff: 98.25 %
UpstreamTrackChecker_f8dcb0cc          INFO   08_long_P>5GeV                           :   14656 from    27030 [ 54.22 %]     60 clones [ 0.41 %], purity: 99.52 %, hitEff: 98.95 %
UpstreamTrackChecker_f8dcb0cc          INFO   08_long_strange_P>5GeV                   :     447 from     1041 [ 42.94 %]      2 clones [ 0.45 %], purity: 98.96 %, hitEff: 98.95 %
UpstreamTrackChecker_f8dcb0cc          INFO   09_long_fromB                            :      19 from       51 [ 37.25 %]      0 clones [ 0.00 %], purity:100.00 %, hitEff: 98.68 %
UpstreamTrackChecker_f8dcb0cc          INFO   09_long_fromD                            :     262 from      481 [ 54.47 %]      1 clones [ 0.38 %], purity: 99.59 %, hitEff: 98.16 %
UpstreamTrackChecker_f8dcb0cc          INFO   10_long_fromB_P>5GeV                     :      13 from       26 [ 50.00 %]      0 clones [ 0.00 %], purity:100.00 %, hitEff:100.00 %
UpstreamTrackChecker_f8dcb0cc          INFO   10_long_fromD_P>5GeV                     :     210 from      316 [ 66.46 %]      1 clones [ 0.47 %], purity: 99.60 %, hitEff: 98.40 %
UpstreamTrackChecker_f8dcb0cc          INFO   11_long_electrons                        :     279 from     2960 [  9.43 %]      5 clones [ 1.76 %], purity: 97.47 %, hitEff: 97.27 %
UpstreamTrackChecker_f8dcb0cc          INFO   12_long_fromB_electrons                  :       4 from        6 [ 66.67 %]      0 clones [ 0.00 %], purity: 98.61 %, hitEff:100.00 %
UpstreamTrackChecker_f8dcb0cc          INFO   13_long_fromB_electrons_P>5GeV           :       4 from        5 [ 80.00 %]      0 clones [ 0.00 %], purity: 98.61 %, hitEff:100.00 %
UpstreamTrackChecker_f8dcb0cc          INFO   14_long_fromB_P>3GeV_Pt>0.5GeV           :      16 from       20 [ 80.00 %]      0 clones [ 0.00 %], purity:100.00 %, hitEff: 98.44 %
UpstreamTrackChecker_f8dcb0cc          INFO   14_long_fromB_electrons_P>3GeV_Pt>0.5GeV :       4 from        5 [ 80.00 %]      0 clones [ 0.00 %], purity: 98.61 %, hitEff:100.00 %
UpstreamTrackChecker_f8dcb0cc          INFO   14_long_fromD_P>3GeV_Pt>0.5GeV           :     227 from      252 [ 90.08 %]      1 clones [ 0.44 %], purity: 99.68 %, hitEff: 98.63 %
UpstreamTrackChecker_f8dcb0cc          INFO   14_long_strange_P>3GeV_Pt>0.5GeV         :     453 from      531 [ 85.31 %]      2 clones [ 0.44 %], purity: 99.06 %, hitEff: 98.86 %
UpstreamTrackChecker_f8dcb0cc          INFO   15_UT_long_fromB_P>3GeV_Pt>0.5GeV        :      16 from       20 [ 80.00 %]      0 clones [ 0.00 %], purity:100.00 %, hitEff: 98.44 %
UpstreamTrackChecker_f8dcb0cc          INFO
VeloTrackChecker_c566ca82              INFO Results
VeloTrackChecker_c566ca82              INFO **** Velo                                     175670 tracks including           8463 ghosts [ 4.82 %], Event average  5.40 % ****
VeloTrackChecker_c566ca82              INFO   01_velo                                  :   73780 from    74908 [ 98.49 %]   1066 clones [ 1.42 %], purity: 99.63 %, hitEff: 95.81 %, hitEffFirst3: 95.89 %, hitEffLast: 95.67 %
VeloTrackChecker_c566ca82              INFO   02_long                                  :   42211 from    42409 [ 99.53 %]    398 clones [ 0.93 %], purity: 99.78 %, hitEff: 96.79 %, hitEffFirst3: 96.94 %, hitEffLast: 96.68 %
VeloTrackChecker_c566ca82              INFO   03_long_P>5GeV                           :   26965 from    27030 [ 99.76 %]    188 clones [ 0.69 %], purity: 99.82 %, hitEff: 97.23 %, hitEffFirst3: 97.43 %, hitEffLast: 97.14 %
VeloTrackChecker_c566ca82              INFO   04_long_strange                          :    2248 from     2314 [ 97.15 %]     16 clones [ 0.71 %], purity: 99.26 %, hitEff: 96.67 %, hitEffFirst3: 96.66 %, hitEffLast: 96.30 %
VeloTrackChecker_c566ca82              INFO   05_long_strange_P>5GeV                   :    1016 from     1041 [ 97.60 %]      8 clones [ 0.78 %], purity: 99.18 %, hitEff: 97.01 %, hitEffFirst3: 97.36 %, hitEffLast: 96.43 %
VeloTrackChecker_c566ca82              INFO   06_long_fromB                            :      51 from       51 [100.00 %]      0 clones [ 0.00 %], purity:100.00 %, hitEff: 97.84 %, hitEffFirst3: 96.73 %, hitEffLast: 98.39 %
VeloTrackChecker_c566ca82              INFO   06_long_fromD                            :     479 from      481 [ 99.58 %]      5 clones [ 1.03 %], purity: 99.78 %, hitEff: 96.54 %, hitEffFirst3: 96.49 %, hitEffLast: 96.47 %
VeloTrackChecker_c566ca82              INFO   07_long_fromB_P>5GeV                     :      26 from       26 [100.00 %]      0 clones [ 0.00 %], purity:100.00 %, hitEff: 98.96 %, hitEffFirst3: 98.72 %, hitEffLast: 98.96 %
VeloTrackChecker_c566ca82              INFO   07_long_fromD_P>5GeV                     :     315 from      316 [ 99.68 %]      3 clones [ 0.94 %], purity: 99.95 %, hitEff: 96.98 %, hitEffFirst3: 97.17 %, hitEffLast: 96.93 %
VeloTrackChecker_c566ca82              INFO   08_long_electrons                        :    2755 from     2960 [ 93.07 %]     28 clones [ 1.01 %], purity: 97.49 %, hitEff: 92.29 %, hitEffFirst3: 90.97 %, hitEffLast: 92.07 %
VeloTrackChecker_c566ca82              INFO   09_long_fromB_electrons                  :       5 from        6 [ 83.33 %]      0 clones [ 0.00 %], purity: 98.57 %, hitEff: 93.90 %, hitEffFirst3: 93.33 %, hitEffLast: 94.85 %
VeloTrackChecker_c566ca82              INFO   10_long_fromB_electrons_P>5GeV           :       4 from        5 [ 80.00 %]      0 clones [ 0.00 %], purity: 98.21 %, hitEff: 94.17 %, hitEffFirst3: 91.67 %, hitEffLast: 95.83 %
VeloTrackChecker_c566ca82              INFO   11_long_fromB_P>3GeV_Pt>0.5GeV           :      20 from       20 [100.00 %]      0 clones [ 0.00 %], purity:100.00 %, hitEff: 96.85 %, hitEffFirst3: 96.67 %, hitEffLast: 97.52 %
VeloTrackChecker_c566ca82              INFO   11_long_fromB_electrons_P>3GeV_Pt>0.5GeV :       4 from        5 [ 80.00 %]      0 clones [ 0.00 %], purity: 98.21 %, hitEff: 94.17 %, hitEffFirst3: 91.67 %, hitEffLast: 95.83 %
VeloTrackChecker_c566ca82              INFO   11_long_fromD_P>3GeV_Pt>0.5GeV           :     252 from      252 [100.00 %]      2 clones [ 0.79 %], purity: 99.93 %, hitEff: 96.74 %, hitEffFirst3: 96.59 %, hitEffLast: 96.98 %
VeloTrackChecker_c566ca82              INFO   11_long_strange_P>3GeV_Pt>0.5GeV         :     510 from      531 [ 96.05 %]      2 clones [ 0.39 %], purity: 98.97 %, hitEff: 97.54 %, hitEffFirst3: 97.92 %, hitEffLast: 96.99 %
VeloTrackChecker_c566ca82              INFO   12_UT_long_fromB_P>3GeV_Pt>0.5GeV        :      20 from       20 [100.00 %]      0 clones [ 0.00 %], purity:100.00 %, hitEff: 96.85 %, hitEffFirst3: 96.67 %, hitEffLast: 97.52 %
VeloTrackChecker_c566ca82              INFO
ApplicationMgr                         INFO Application Manager Finalized successfully
ApplicationMgr                         INFO Application Manager Terminated successfully
DefaultGECFilter                       INFO Number of counters : 2
 |    Counter                                      |     #     |    sum     | mean/eff^* | rms/err^*  |     min     |     max     |
 | "Nb Events Processed"                           |      1000 |
 | "Nb events removed"                             |       144 |
ForwardTrackChecker_dcd3524b.LoK...    INFO Number of counters : 1
 |    Counter                                      |     #     |    sum     | mean/eff^* | rms/err^*  |     min     |     max     |
 | "# loaded from PYTHON"                          |        17 |
ForwardUTHitsChecker_61c7d3a3.Lo...    INFO Number of counters : 1
 |    Counter                                      |     #     |    sum     | mean/eff^* | rms/err^*  |     min     |     max     |
 | "# loaded from PYTHON"                          |         4 |
HLTControlFlowMgr                      INFO Number of counters : 1
 |    Counter                                      |     #     |    sum     | mean/eff^* | rms/err^*  |     min     |     max     |
 | "Processed events"                              |      1000 |
MuonIDHlt1Alg_e40028c9                 INFO Number of counters : 7
 |    Counter                                      |     #     |    sum     | mean/eff^* | rms/err^*  |     min     |     max     |
 | "BgLL"                                          |      1381 |  -580.9667 |   -0.42069 |    0.81596 |     -6.9176 |      0.0000 |
 | "MuLL"                                          |      1381 |  -13305.66 |    -9.6348 |     2.9373 |     -11.513 |   -0.064767 |
 | "muonMVAStat"                                   |      1381 |   -1379619 |    -999.00 |     3.4444 |     -999.00 |     -999.00 |
 |*"nInAcceptance"                                 |     15809 |      14169 |( 89.62616 +- 0.2425129)% |
 |*"nIsMuon"                                       |     15809 |       1381 |( 8.735530 +- 0.2245656)% |
 |*"nIsMuonTight"                                  |     15809 |        493 |( 3.118477 +- 0.1382419)% |
 |*"nMomentumCut"                                  |     15809 |      15474 |( 97.88095 +- 0.1145426)% |
PrLHCbID2MCParticle_d0bb6bbd           INFO Number of counters : 1
 |    Counter                                      |     #     |    sum     | mean/eff^* | rms/err^*  |     min     |     max     |
 | "#removed null MCParticles"                     |   5572180 |          0 |     0.0000 |
PrStoreUTHitClusters_69298ec0          INFO Number of counters : 3
 |    Counter                                      |     #     |    sum     | mean/eff^* | rms/err^*  |     min     |     max     |
 | "# RawBank::UT banks"                           |       856 |     184896 |     216.00 |
 | "# RawBank::UTError banks"                      |       856 |          0 |     0.0000 |
 |*"Non-unique UT clusters in event"               |       856 |          0 |( 0.000000 +- 0.000000)% |
PrTrackAssociator_3609307f             INFO Number of counters : 2
 |    Counter                                      |     #     |    sum     | mean/eff^* | rms/err^*  |     min     |     max     |
 |*"Efficiency"                                    |    175670 |     167207 |( 95.18244 +- 0.05109083)% |
 | "MC particles per track"                        |    167207 |     167827 |     1.0037 |
PrTrackAssociator_8db0910f             INFO Number of counters : 2
 |    Counter                                      |     #     |    sum     | mean/eff^* | rms/err^*  |     min     |     max     |
 |*"Efficiency"                                    |     25605 |      24049 |( 93.92306 +- 0.1493022)% |
 | "MC particles per track"                        |     24049 |      24049 |     1.0000 |
PrTrackAssociator_c9b00255             INFO Number of counters : 2
 |    Counter                                      |     #     |    sum     | mean/eff^* | rms/err^*  |     min     |     max     |
 |*"Efficiency"                                    |     15809 |      15413 |( 97.49510 +- 0.1242895)% |
 | "MC particles per track"                        |     15413 |      17950 |     1.1646 |
PrVPHitsToVPLightClusters_8cd36c45     INFO Number of counters : 1
 |    Counter                                      |     #     |    sum     | mean/eff^* | rms/err^*  |     min     |     max     |
 | "Nb of Produced Clusters"                       |       856 |    1614406 |     1886.0 |
PrVeloUT_daa62e37                      INFO Number of counters : 2
 |    Counter                                      |     #     |    sum     | mean/eff^* | rms/err^*  |     min     |     max     |
 | "#seeds"                                        |       856 |     109680 |     128.13 |
 | "#tracks"                                       |       856 |      25605 |     29.912 |
PrimaryVertexChecker_a7cabd38          INFO Number of counters : 1
 |    Counter                                      |     #     |    sum     | mean/eff^* | rms/err^*  |     min     |     max     |
 | "nEvents"                                       |       856 |
SciFiTrackForwarding_c0a72bd4          INFO Number of counters : 2
 |    Counter                                      |     #     |    sum     | mean/eff^* | rms/err^*  |     min     |     max     |
 | "2nd Loop"                                      |     11824 |
 | "Created long tracks"                           |       856 |      15809 |     18.468 |
TrackBeamLineVertexFinderSoA_609...    INFO Number of counters : 3
 |    Counter                                      |     #     |    sum     | mean/eff^* | rms/err^*  |     min     |     max     |
 |*"Fraction of failed PV fits"                    |      4079 |          6 |(0.1470949 +- 0.06000705)% |
 |*"Fraction of unconverged PV fits"               |      4079 |        236 |( 5.785732 +- 0.3655617)% |
 | "Nb PVs"                                        |       856 |       3984 |     4.6542 |
UTHitClustersToPrUTHitsConverter...    INFO Number of counters : 1
 |    Counter                                      |     #     |    sum     | mean/eff^* | rms/err^*  |     min     |     max     |
 | "# Converted Clusters"                          |       856 |     782856 |     914.55 |
UTHitClustersToUTHitHandlerConve...    INFO Number of counters : 1
 |    Counter                                      |     #     |    sum     | mean/eff^* | rms/err^*  |     min     |     max     |
 | "# Converted Clusters"                          |       856 |     782856 |     914.55 |
UpstreamTrackChecker_f8dcb0cc.Lo...    INFO Number of counters : 1
 |    Counter                                      |     #     |    sum     | mean/eff^* | rms/err^*  |     min     |     max     |
 | "# loaded from PYTHON"                          |        29 |
VPLightClustersToVPMicroClusters...    INFO Number of counters : 1
 |    Counter                                      |     #     |    sum     | mean/eff^* | rms/err^*  |     min     |     max     |
 | "# Converted Clusters"                          |       856 |    1614406 |     1886.0 |
VPRetinaFullClusterDecoder_f6227b4b    INFO Number of counters : 13
 |    Counter                                      |     #     |    sum     | mean/eff^* | rms/err^*  |     min     |     max     |
 | "Number of banks"                               |       856 |      89024 |     104.00 |
 | "Number of clusters"                            |       856 |    1614406 |     1886.0 |
 | "Number of clusters - Mod14"                    |       856 |      33405 |     39.025 |
 | "Number of clusters - Mod15"                    |       856 |      34175 |     39.924 |
 | "Number of clusters - Mod16"                    |       856 |      34077 |     39.810 |
 | "Number of clusters at matrix edge"             |       856 |     164372 |     192.02 |
 | "Number of clusters from SPs w/ neighbors"      |       856 |     342968 |     400.66 |
 | "Number of clusters from isolated SPs"          |       856 |    1268414 |     1481.8 |
 | "Number of clusters from overflowing SPs"       |       856 |       3024 |     3.5327 |
 | "Number of clusters from overflowing SPs - Mod 14"|       856 |         96 |    0.11215 |
 | "Number of clusters from overflowing SPs - Mod 15"|       856 |        258 |    0.30140 |
 | "Number of clusters from overflowing SPs - Mod 16"|       856 |        433 |    0.50584 |
 | "Number of clusters not self contained"         |       856 |      57657 |     67.356 |
VeloKalman_eac11a3a                    INFO Number of counters : 1
 |    Counter                                      |     #     |    sum     | mean/eff^* | rms/err^*  |     min     |     max     |
 | "Nb of Produced Tracks"                         |       856 |      15809 |     18.468 |
VeloRetinaClusterTrackingSIMD_66...    INFO Number of counters : 2
 |    Counter                                      |     #     |    sum     | mean/eff^* | rms/err^*  |     min     |     max     |
 | "Nb of Produced Clusters"                       |       856 |    1614406 |     1886.0 |
 | "Nb of Produced Tracks"                         |       856 |     175670 |     205.22 |
VeloTrackChecker_c566ca82.LoKi::...    INFO Number of counters : 1
 |    Counter                                      |     #     |    sum     | mean/eff^* | rms/err^*  |     min     |     max     |
 | "# loaded from PYTHON"                          |        17 |
fromPrForwardTracksFromVeloUTV1T...    INFO Number of counters : 1
 |    Counter                                      |     #     |    sum     | mean/eff^* | rms/err^*  |     min     |     max     |
 | "Nb of converted Tracks"                        |       856 |      15809 |     18.468 |
fromPrUpstreamTracksV1Tracks_c42...    INFO Number of counters : 1
 |    Counter                                      |     #     |    sum     | mean/eff^* | rms/err^*  |     min     |     max     |
 | "Nb of converted Tracks"                        |       856 |      25605 |     29.912 |
fromPrVeloTracksV1TracksMerger_8...    INFO Number of counters : 1
 |    Counter                                      |     #     |    sum     | mean/eff^* | rms/err^*  |     min     |     max     |
 | "Nb of converted Tracks"                        |       856 |     175670 |     205.22 |
