ApplicationMgr                         INFO Application Manager Finalized successfully
ApplicationMgr                         INFO Application Manager Terminated successfully
DefaultGECFilter                       INFO Number of counters : 2
 |    Counter                                      |     #     |    sum     | mean/eff^* | rms/err^*  |     min     |     max     |
 | "Nb Events Processed"                           |      1000 |
 | "Nb events removed"                             |       127 |
HLTControlFlowMgr                      INFO Number of counters : 1
 |    Counter                                      |     #     |    sum     | mean/eff^* | rms/err^*  |     min     |     max     |
 | "Processed events"                              |      1000 |
MDFIOAlg                               INFO Number of counters : 2
 |    Counter                                      |     #     |    sum     | mean/eff^* | rms/err^*  |     min     |     max     |
 | "#banks in raw event"                           |      1000 |     809160 |     809.16 |    0.94255 |      808.00 |      813.00 |
 | "event size statistics (KBytes)"                |      1011 |     196171 |     194.04 |     87.822 |      28.000 |      571.00 |
VeloClusterTrackingSIMD_9d6e67b1       INFO Number of counters : 2
 |    Counter                                      |     #     |    sum     | mean/eff^* | rms/err^*  |     min     |     max     |
 | "Nb of Produced Clusters"                       |       873 |    1621649 |     1857.6 |
 | "Nb of Produced Tracks"                         |       873 |     180322 |     206.55 |
